<?xml version="1.0" standalone="no"?>
<!DOCTYPE svg PUBLIC "-//W3C//DTD SVG 1.1//EN" "http://www.w3.org/Graphics/SVG/1.1/DTD/svg11.dtd" >
<svg xmlns="http://www.w3.org/2000/svg">
<metadata>Generated by IcoMoon</metadata>
<defs>
<font id="icomoon" horiz-adv-x="1024">
<font-face units-per-em="1024" ascent="960" descent="-64" />
<missing-glyph horiz-adv-x="1024" />
<glyph unicode="&#x20;" horiz-adv-x="512" d="" />
<glyph unicode="&#xe900;" glyph-name="physician" d="M771.072 512l-44.768 2.72c28.448-41.12 45.216-90.944 45.216-144.704 0-0.256 0-8.288-0.032-16.544 44.032-14.368 76.032-55.328 76.032-104.16 0-0.096 0-8.928 0-20 22.016-7.072 38.112-27.488 38.112-51.936 0-30.24-24.576-54.784-54.816-54.784s-54.816 24.544-54.816 54.784c0 25.312 17.28 46.4 40.608 52.704 0.032 10.656 0.032 19.136 0.032 19.232 0 43.744-35.424 79.136-79.136 79.136s-79.168-35.36-79.168-79.136c0-0.096 0-8.736 0.032-19.616 22.656-6.688 39.328-27.424 39.328-52.32 0-30.24-24.576-54.784-54.816-54.784s-54.816 24.544-54.816 54.784c0 24.864 16.672 45.632 39.36 52.352 0 10.848 0 19.488 0 19.584 0 47.52 30.272 87.648 72.512 103.072 0.032 8.64 0.096 17.376 0.096 17.632 0 101.216-82.016 183.072-183.040 183.072-101.152 0-183.136-81.856-183.136-183.072 0-0.256 0.032-22.4 0.064-44.384 47.904-14.112 83.072-57.92 83.072-110.368 0-63.808-51.744-115.552-115.584-115.552s-115.584 51.744-115.584 115.552c0 50.080 32.064 92.352 76.64 108.384-0.032 22.592-0.032 46.112-0.032 46.368 0 54.464 17.248 104.8 46.336 146.176l-49.824-4.192c-127.936 0-127.936-86.016-127.936-192v-320h768v320c0 105.984 0 192-127.936 192zM364.448 215.264c0-34.781-28.195-62.976-62.976-62.976s-62.976 28.195-62.976 62.976c0 34.781 28.195 62.976 62.976 62.976s62.976-28.195 62.976-62.976zM508.416 960c-105.536 0-191.104-85.568-191.104-191.104 0-71.232 39.072-133.28 96.864-166.112 27.84-15.84 59.968-24.992 94.24-24.992 37.216 0 71.808 10.784 101.152 29.184 53.952 33.792 89.952 93.568 89.952 161.952-0.032 105.504-85.536 191.072-191.104 191.072z" />
<glyph unicode="&#xe976;" glyph-name="user-tie" d="M320 768c0 106.039 85.961 192 192 192s192-85.961 192-192c0-106.039-85.961-192-192-192s-192 85.961-192 192zM768.078 512h-35.424l-199.104-404.244 74.45 372.244-96 96-96-96 74.45-372.244-199.102 404.244h-35.424c-127.924 0-127.924-85.986-127.924-192v-320h768v320c0 106.014 0 192-127.922 192z" />
<glyph unicode="&#xf037;" glyph-name="organization" horiz-adv-x="896" d="M768 576h-640c-70.656 0-128-57.344-128-128v-64c0-47.25 25.844-88.062 64-110.25v-209.75h256v-128h256v128h256v209.75c38.125 22.188 64 62.938 64 110.25v64c0 70.656-57.375 128-128 128zM256 128h-128v256h-64v64c0 35.312 28.688 64 64 64h81.719c-11-18.875-17.719-40.562-17.719-64v-128c0-47.25 25.844-88.062 64-110.25v-81.75zM576 256v128h-64v-384h-128v384h-64v-128c-35.312 0-64 28.625-64 64v128c0 35.312 28.688 64 64 64h256c35.375 0 64-28.688 64-64v-128c0-35.375-28.625-64-64-64zM832 384h-64v-256h-128v81.75c38.125 22.188 64 62.938 64 110.25v128c0 23.438-6.75 45.125-17.75 64h81.75c35.375 0 64-28.688 64-64v-64zM303.688 642.625c35.187-40.5 86.468-66.625 144.312-66.625 57.875 0 109.125 26.125 144.312 66.625 21.813-39.563 63.376-66.625 111.688-66.625 70.625 0 128 57.344 128 128s-57.375 128-128 128c-25.625 0-49.375-7.688-69.375-20.688-19.75 85.126-95.563 148.688-186.625 148.688s-166.906-63.562-186.625-148.688c-20.031 13-43.781 20.688-69.375 20.688-70.656 0-128-57.344-128-128s57.344-128 128-128c48.312 0 89.844 27.062 111.688 66.625zM704 768c35.375 0 64-28.594 64-64s-28.625-64-64-64c-35.312 0-64 28.594-64 64s28.688 64 64 64zM448 896c70.625 0 128-57.344 128-128s-57.375-128-128-128c-70.656 0-128 57.344-128 128s57.344 128 128 128zM192 640c-35.312 0-64 28.594-64 64s28.688 64 64 64c35.406 0 64-28.594 64-64s-28.594-64-64-64z" />
</font></defs></svg>