<?xml version="1.0" encoding="utf-8"?>
<!-- Generator: Adobe Illustrator 25.2.0, SVG Export Plug-In . SVG Version: 6.00 Build 0)  -->
<svg version="1.1" id="Layer_2" xmlns="http://www.w3.org/2000/svg" xmlns:xlink="http://www.w3.org/1999/xlink" x="0px" y="0px"
	 width="800px" height="450px" viewBox="0 0 800 450" style="enable-background:new 0 0 800 450;" xml:space="preserve">
<style type="text/css">
	.st0{opacity:0.1;fill:#6F9DBB;enable-background:new    ;}
	.st1{opacity:5.000000e-02;fill:#6F9DBB;enable-background:new    ;}
	.st2{opacity:0.2;fill:#C5E8F8;enable-background:new    ;}
	.st3{opacity:0.1;fill:#A8DFF8;enable-background:new    ;}
	.st4{opacity:0.15;fill:#B8E1F7;enable-background:new    ;}
	.st5{opacity:0.1;fill:#87C1E8;enable-background:new    ;}
</style>
<path class="st0" d="M1453.9,367.2L1319.7,237l-0.1-0.1c-46.2-27.4-94-47.8-141.8-60.8c-36.3-9.9-73-15.4-108.9-16.5
	c-19.6-0.6-39.9-0.1-60.6,1.4c-15.7,1.1-31.9,2.9-48.3,5.2c-26.3,3.8-54,9.2-82.4,16.1c-13.3,3.2-27.1,6.9-40.9,10.8
	c-24.7,7-50.8,15.4-77.7,24.9c-37.6,13.2-78,29-123.5,48.2c-15.9,6.7-32.3,13.8-50.3,21.8c-39.7,17.5-78.8,35.1-116.5,52.2
	c-43.6,19.7-84.9,38.3-125.3,55.9c-83.8,36.5-145.6,60.6-200.3,78C71.5,496.7-0.4,511.1-65.1,515.8c-28.6,2.1-55.3,2.2-79.4,0.5
	c-20.8-1.5-40.7-3.9-59.2-7.3l-3.2-0.6L578.8,1270L1453.9,367.2z"/>
<path class="st0" d="M1356.6,467.6l-0.7-0.7c-82.7-81.9-178.3-137.2-276.4-159.9c-33.2-7.7-69-12.8-106.5-15.4
	c-42.7-2.9-87.3-2.6-136.6,1c-8.1,0.6-16.5,1.3-24.8,2c-25.3,2.3-52.1,5.5-79.8,9.6c-32.8,4.8-67.2,10.7-105.1,18.1
	c-18.9,3.7-38.4,7.7-59.6,12.2c-9.6,2.1-19.4,4.2-30,6.5c-46.1,10.2-91.4,20.7-135.2,30.8c-86.2,19.9-167.6,38.8-243.8,53.2
	c-49.6,9.4-92.6,16-131.5,20.3c-14.7,1.6-29.4,3-43.9,4c-133.9,9.7-225-7.7-267.4-18.9l-3.7-1L578.8,1270L1356.6,467.6z"/>
<path class="st1" d="M1453.9,367.2l-77.8-75.4l-0.7,1c-64.9,94.4-130.5,173.8-194.9,236c-94.8,91.5-187.8,146.3-276.3,162.8
	c-21.5,4-43.2,6.8-64.6,8.4c-88.7,6.4-178.5-8.5-267.1-44.4C354.3,567,179,370,38.1,211.6l-10.7-12.1
	c-68.1-76.5-119.8-133.3-166-168.3c-3.9-3-7.8-5.8-11.5-8.3c-10.6-7.3-21.4-13.9-32.2-19.7c-20.3-11-41.3-19.7-62.4-25.7
	c-32.5-9.3-66.3-12.8-100.5-10.3c-29.4,2.1-59.8,8.7-90.3,19.6c-36.1,12.8-73.2,32-110.3,56.9c-25.6,17.1-51.6,37.3-77.3,59.9
	l-0.8,0.7L578.8,1270L1453.9,367.2z"/>
<path class="st2" d="M1453.9,367.2l-385.8-374l-0.5,1.5c-31.4,92.1-66.9,173.1-105.4,240.8c-54.9,96.6-115.7,165.6-180.7,205.1
	c-15.2,9.2-30.8,16.9-46.4,23c-43.7,16.8-89.6,27.1-136.5,30.5c-53.8,3.9-110.7-1.1-169.2-15c-98-23.2-200.7-69.7-323.2-146.4
	c-57.6-36.1-112.5-74.5-161-108.3C-103.7,190.3-149.9,158-189,135c-20.9-12.3-38.6-21.3-54.2-27.6c-54.2-21.8-104.3-31.2-148.8-28
	c-65.3,4.7-119.2,36.1-160.1,93.2l-0.5,0.7L578.8,1270L1453.9,367.2z"/>
<path class="st3" d="M1453.9,367.2l-385.8-374l-0.5,1.5c-21.2,62.2-44.5,119.9-69.2,171.5c-11.7,24.4-23.8,47.7-36.1,69.4
	c-22.4,39.4-46,74.5-70.2,104.6c-35,43.4-72.2,77.2-110.5,100.5c-15.2,9.2-30.8,16.9-46.4,23c-43.7,16.8-89.6,27.1-136.5,30.5
	c-53.8,3.9-110.7-1.1-169.2-15c-98-23.2-200.7-69.7-323.2-146.4c-57.6-36.1-112.5-74.5-161-108.3C-103.7,190.3-149.9,158-189,135
	c-20.9-12.3-38.6-21.3-54.2-27.6c-15.7-6.3-31.2-11.6-46-15.9c-36.6-10.4-71.1-14.5-102.7-12.2c-18.4,1.3-36.1,4.8-52.7,10.4
	c-42.2,14.2-78.3,42.1-107.5,82.8l-0.5,0.7L578.8,1270L1453.9,367.2z"/>
<path class="st4" d="M1080.3,752.6c0,0-1.1-2.9-1.3-3.4c-37.2-97.7-91.3-185.8-156.4-254.7c-49.6-52.5-105.1-93.6-164.9-122.2
	c-161.4-76.9-363.7-87.5-558.3-87.4c-38.2,0-74.9,0.3-105.7,0.6c-12.9,0.1-25.7,0.2-38.4,0.4c-121.4,1.1-236.1,2.2-337.2-4.6
	c-21.2-1.4-41.5-3.2-60.4-5.2c-41.9-4.5-83.1-11.2-122.2-19.8l-3.4-0.8L578.8,1270L1080.3,752.6z"/>
<path class="st5" d="M573.3,1262.7c11.5-35.6,23.6-71.8,35.4-106.8c11.8-35.4,24.1-72,35.6-107.7c29.4-91,61.5-197.7,76.2-299.1
	c15.5-106.6,5.7-190.2-29-248.5c-33.7-56.5-95.8-96.8-184.8-119.8c-5.1-1.3-10.4-2.6-15.7-3.8c-65.2-14.8-146.9-27.1-265-39.9
	c-15-1.6-30.2-3.2-45.5-4.8c-86.2-9.1-175.3-18.4-262.7-35.1c-98.7-18.8-184.7-46.9-255.8-83.4c-66.4-34.2-215.2-139.6-251-182
	l-0.7-0.8l-53.2,54.9L572.8,1264.2L573.3,1262.7z"/>
</svg>
