<?xml version="1.0" encoding="utf-8"?>
<!-- Generator: Adobe Illustrator 24.0.1, SVG Export Plug-In . SVG Version: 6.00 Build 0)  -->
<svg version="1.1" xmlns="http://www.w3.org/2000/svg" xmlns:xlink="http://www.w3.org/1999/xlink" x="0px" y="0px"
	 viewBox="0 0 88 88" style="enable-background:new 0 0 88 88;" xml:space="preserve">
<style type="text/css">
	.st0{display:none;}
	.st1{display:inline;fill:#047B64;}
	.st2{display:inline;fill:#FFFFFF;stroke:#047B64;stroke-width:2.25;stroke-miterlimit:10;}
	.st3{display:inline;}
	.st4{fill:#047B64;}
	.st5{fill:none;stroke:#047B64;stroke-width:4;stroke-linecap:round;stroke-linejoin:round;}
	.st6{fill:#FFFFFF;}
	.st7{fill:none;stroke:#0E7868;stroke-width:4.0001;stroke-linecap:round;stroke-linejoin:round;stroke-miterlimit:4.0001;}
	.st8{fill:#0075A8;}
	.st9{display:inline;fill:none;stroke:#0375A8;stroke-width:2;stroke-linejoin:round;stroke-miterlimit:10;}
	.st10{display:inline;fill:none;stroke:#0375A8;stroke-width:2;stroke-miterlimit:10;}
	.st11{display:inline;fill:none;stroke:#0375A8;stroke-width:2;stroke-linecap:round;stroke-miterlimit:10;}
	.st12{fill:none;stroke:#0375A8;stroke-width:2;stroke-linejoin:round;stroke-miterlimit:10;}
	.st13{display:inline;opacity:0.56;}
	.st14{fill:none;stroke:#FFFFFF;stroke-miterlimit:10;}
	.st15{fill:none;stroke:#0075A8;stroke-miterlimit:10;}
	.st16{fill:none;stroke:#0075A8;stroke-width:1;stroke-miterlimit:9.9999;}
	.st17{fill:none;stroke:#0075A8;stroke-width:1;stroke-miterlimit:9.9995;}
	.st18{display:inline;fill:#25B570;}
	.st19{fill:#25B570;}
	.st20{fill:none;stroke:#25B570;stroke-width:2;stroke-linejoin:round;stroke-miterlimit:10;}
	.st21{fill:none;stroke:#25B570;stroke-width:2;stroke-miterlimit:10;}
	.st22{fill:none;stroke:#25B570;stroke-width:2;stroke-linecap:round;stroke-miterlimit:10;}
</style>
<g id="Layer_1" class="st0">
	<g id="Layer_2_1_">
		<path class="st1" d="M41,57.3c3.3,0,6-2.7,6-6V30.5c0-2.3-1.5-4.3-3.6-5l-3.9-1.3l-7.5,7.5l-7.5-7.5l-3.9,1.3
			c-2.2,0.7-3.6,2.8-3.6,5v20.8c0,3.3,2.7,6,6,6"/>
		<path class="st2" d="M74.2,18.1l-6,6l-6,6l-6-6 M74.2,38.6l-6,6l-6,6l-6-6 M69.6,79.6H57.6c-0.8,0-1.5-0.7-1.5-1.5V66
			c0-0.8,0.7-1.5,1.5-1.5h12.1c0.8,0,1.5,0.7,1.5,1.5v12.1C71.1,78.9,70.5,79.6,69.6,79.6z"/>
		<path class="st1" d="M32,54.3v27.1 M41,36.2v43.7c0,0.8-0.7,1.5-1.5,1.5H24.4c-0.8,0-1.5-0.7-1.5-1.5V36.2 M39.5,13.6
			c0,4.2-3.4,7.5-7.5,7.5c-4.2,0-7.5-3.4-7.5-7.5S27.8,6,32,6C36.1,6.1,39.5,9.4,39.5,13.6"/>
	</g>
	<g id="Layer_3">
		<path class="st1" d="M48.4,13c7.7,5,13.4,13.1,13.4,23.3H51.7l17.2,17.2l17.2-17.2h-9.8C76.5,26.6,66.4,10.7,48.4,13"/>
		<path class="st1" d="M32.5,38.6c-6.4-0.8-8.6-2.6-9.8-3.6c-2.5-2.3-1.2-10.7,7.8-10.7c5,0,9,3.4,9,7.6h14.1
			c0-8.8-6.9-16.2-16.3-18.6v-7H23.7l0,7c-21,5.2-25,34.3,6.6,38c4.4,0.5,6.9,1.9,7.9,2.8c2.9,2.7,1.3,10.6-7.7,10.6
			c-3.7,0-6.9-1.9-8.3-4.6H7.7c1.4,7.4,7.7,13.4,16,15.6l0,6.3h13.5v-6.3C56.1,71.9,63.9,42.7,32.5,38.6"/>
	</g>
	<g id="Layer_4">
		<g class="st3">
			<path class="st4" d="M80.7,17.4c-0.9-2.1-3.2-3.5-4.8-3.1c-1.5,0.4-3.3,1.1-3.8,1.3v11.4l5.9-2.7C80.5,23,81.8,20,80.7,17.4"/>
			<path class="st4" d="M39.6,80.6l21.3-9c-3.7,0.3-6.8,0.5-11,0.5c-5.4,0-10.6-0.3-16.2-0.8c-4.3-0.4-7.5-4.3-7.5-8.7V19
				c-1.8-8.1-8.5-9.2-10.9-7.8c-2.2,1.3,2.7,9.8-2.6,25.6c-2.2,6.5-4.3,12.8-4.7,18.2C6.5,75.7,26.4,86.2,39.6,80.6"/>
			<path class="st4" d="M46,10.9h6.3c0.6,0,1,0.5,1,1.1s-0.5,1.1-1,1.1H46c-0.6,0-1-0.5-1-1.1S45.4,10.9,46,10.9 M44.6,60.7h3.5v2.9
				h-3.5c-0.8,0-1.4-0.6-1.4-1.4C43.2,61.3,43.8,60.7,44.6,60.7 M50.2,60.7h3.5c0.8,0,1.4,0.6,1.4,1.4s-0.6,1.4-1.4,1.4h-3.5V60.7z
				 M34.1,67.7c5.4,0.5,10.6,0.8,15.9,0.8s8.8-0.3,14.3-0.8c1.3-0.2,2.5-1,3.2-2.1c-2.2-0.6-4.1-2.2-5-4.4c-0.7-1.8-0.8-3.7-0.2-5.4
				H33.6v-39h30.9v13l3.9-1.8V12.8c0-2.6-1.8-4.8-4.2-5.1C58.7,7.2,53.9,7,49.1,7S39.5,7.2,34,7.8c-2.3,0.3-4.2,2.5-4.2,5.1v49.8
				C29.9,65.2,31.7,67.4,34.1,67.7"/>
			<path class="st4" d="M71.1,62.4l4.4-1.9c2.1-0.9,3.1-3.3,2.2-5.4c-1-2.3-3.6-3-5.4-2.2l-4.4,1.9c-2.1,0.9-3.1,3.3-2.2,5.4
				C66.7,62.5,69.3,63.2,71.1,62.4"/>
			<path class="st4" d="M65.1,38c1.1,2.6,4,3.3,6,2.5l3.3-1.5c2.3-1,3.4-3.7,2.5-6c-1.1-2.6-4-3.3-6-2.5L67.6,32
				C65.2,33,64.1,35.6,65.1,38"/>
			<path class="st4" d="M71.1,51.9l4.9-2.1c2.3-1,3.4-3.7,2.4-6c-1.1-2.6-4-3.3-6-2.5l-4.9,2.1c-2.3,1-3.4,3.7-2.5,6
				C66.2,52,69,52.8,71.1,51.9"/>
			<path class="st4" d="M47.8,45.3c-0.8,0.1-1.5-0.3-1.9-0.7l-5.1-5c-1-1-1-2.6,0-3.6s2.6-1,3.6,0l3.1,3.1l7.5-9.6
				c0.8-1.1,2.4-1.3,3.5-0.4c1.1,0.9,1.3,2.4,0.4,3.5l-9.2,11.9C49.2,44.9,48.5,45.2,47.8,45.3"/>
		</g>
	</g>
	<g id="Layer_5">
		<g class="st3">
			<g>
				<path class="st5" d="M81.4,27.9H25.1v40.7h52.7c2,0,3.6-1.6,3.6-3.6L81.4,27.9L81.4,27.9z"/>
				<path class="st5" d="M81.4,27.9H25.1v-9.1c0-2,1.6-3.6,3.6-3.6h49.1c2,0,3.6,1.6,3.6,3.6L81.4,27.9L81.4,27.9z"/>
				<g>
					<line class="st5" x1="40.3" y1="18.7" x2="40.3" y2="9.7"/>
					<line class="st5" x1="66.3" y1="18.7" x2="66.3" y2="9.7"/>
				</g>
				<g>
					<g>
						<line class="st5" x1="51.5" y1="51.7" x2="55.1" y2="51.7"/>
						<line class="st5" x1="38.9" y1="51.7" x2="42.5" y2="51.7"/>
						<line class="st5" x1="64.1" y1="51.7" x2="67.7" y2="51.7"/>
					</g>
					<g>
						<line class="st5" x1="51.5" y1="40.9" x2="55.1" y2="40.9"/>
						<line class="st5" x1="38.9" y1="40.9" x2="42.5" y2="40.9"/>
						<line class="st5" x1="64.1" y1="40.9" x2="67.7" y2="40.9"/>
					</g>
				</g>
			</g>
			<g>
				<ellipse class="st6" cx="25.1" cy="59.7" rx="23.6" ry="23.6"/>
				<ellipse class="st7" cx="25.1" cy="59.7" rx="18.2" ry="18.2"/>
				<polyline class="st5" points="25.1,50.6 25.1,59.7 31.3,59.7 				"/>
			</g>
		</g>
	</g>
	<g id="Layer_6">
		<g class="st3">
			<g>
				<g>
					<path class="st8" d="M53.1,10.4c-0.6,0-1.1-0.5-1.1-1.1c0-2.1-1.7-3.7-3.7-3.7c-2,0-3.7,1.7-3.7,3.7c0,0.6-0.5,1.1-1.1,1.1
						c-0.6,0-1.1-0.5-1.1-1.1c0-3.3,2.7-5.9,5.9-5.9s5.9,2.7,5.9,5.9C54.2,9.9,53.7,10.4,53.1,10.4z"/>
					<path class="st8" d="M61,22.6H35.5c-0.6,0-1.1-0.5-1.1-1.1v-8.7c0-0.6,0.5-1.1,1.1-1.1H61c0.6,0,1.1,0.5,1.1,1.1v8.7
						C62.1,22.2,61.6,22.6,61,22.6z M36.6,20.4h23.2V14H36.6V20.4z"/>
					<path class="st8" d="M23.7,29c-0.6,0-1.1-0.5-1.1-1.1V15.6c0-0.6,0.5-1.1,1.1-1.1h6.5c0.6,0,1.1,0.5,1.1,1.1
						c0,0.6-0.5,1.1-1.1,1.1h-5.4v11.1C24.8,28.5,24.3,29,23.7,29z"/>
					<path class="st8" d="M72.5,81.3H33.4c-0.6,0-1.1-0.5-1.1-1.1c0-0.6,0.5-1.1,1.1-1.1h38V16.8h-5.9c-0.6,0-1.1-0.5-1.1-1.1
						c0-0.6,0.5-1.1,1.1-1.1h7c0.6,0,1.1,0.5,1.1,1.1v64.5C73.6,80.8,73.1,81.3,72.5,81.3z"/>
				</g>
				<g>
					<path class="st8" d="M35.7,40.7c-0.3,0-0.6-0.1-0.8-0.3l-4.1-4.1c-0.4-0.4-0.4-1.1,0-1.6s1.1-0.4,1.6,0l3.3,3.3l6.1-6.1
						c0.4-0.4,1.1-0.4,1.6,0s0.4,1.1,0,1.6l-6.9,6.9C36.2,40.5,35.9,40.7,35.7,40.7z"/>
					<path class="st8" d="M37.1,53.4c-0.3,0-0.6-0.1-0.8-0.3c-0.4-0.4-0.4-1.1,0-1.6l5.5-5.5c0.4-0.4,1.1-0.4,1.6,0s0.4,1.1,0,1.6
						l-5.5,5.5C37.6,53.3,37.3,53.4,37.1,53.4z"/>
					<path class="st8" d="M35.7,69L35.7,69c-0.3,0-0.6-0.1-0.8-0.3l-1.3-1.3c-0.4-0.4-0.4-1.1,0-1.6s1.1-0.4,1.6,0l0.5,0.5l6.1-6.1
						c0.4-0.4,1.1-0.4,1.6,0s0.4,1.1,0,1.6l-6.9,6.9C36.2,68.9,36,69,35.7,69z"/>
					<path class="st8" d="M64.2,37.2H49c-0.6,0-1.1-0.5-1.1-1.1c0-0.6,0.5-1.1,1.1-1.1h15.3c0.6,0,1.1,0.5,1.1,1.1
						C65.3,36.7,64.8,37.2,64.2,37.2z"/>
					<path class="st8" d="M64.2,51.4H49c-0.6,0-1.1-0.5-1.1-1.1c0-0.6,0.5-1.1,1.1-1.1h15.3c0.6,0,1.1,0.5,1.1,1.1
						C65.3,50.9,64.8,51.4,64.2,51.4z"/>
					<path class="st8" d="M64.2,65.5H49c-0.6,0-1.1-0.5-1.1-1.1c0-0.6,0.5-1.1,1.1-1.1h15.3c0.6,0,1.1,0.5,1.1,1.1
						C65.3,65,64.8,65.5,64.2,65.5z"/>
				</g>
			</g>
			<g>
				<path class="st8" d="M22.3,46c-3.4,0-6.2-3.3-6.2-7.4c0-4.1,2.8-7.4,6.2-7.4s6.2,3.3,6.2,7.4S25.7,46,22.3,46z M22.3,33.3
					c-2.2,0-4,2.3-4,5.2c0,2.9,1.8,5.2,4,5.2s4-2.3,4-5.2C26.2,35.7,24.5,33.3,22.3,33.3z"/>
				<path class="st8" d="M28.4,68.6c-0.4,0-0.9-0.3-1-0.7c-0.2-0.6,0-1.2,0.6-1.4c2.6-1,4.3-3.5,4.3-6.4v-3.7c0-3.8-3.1-6.9-6.9-6.9
					h-6.4c-3.8,0-6.9,3.1-6.9,6.9v3.7c0,2.8,1.7,5.3,4.3,6.4c0.6,0.2,0.9,0.9,0.6,1.4c-0.2,0.6-0.9,0.8-1.4,0.6
					c-3.5-1.4-5.7-4.7-5.7-8.4v-3.7c0-5,4.1-9.1,9.1-9.1h6.4c5,0,9.1,4.1,9.1,9.1v3.7c0,3.8-2.3,7.1-5.7,8.4
					C28.6,68.6,28.5,68.6,28.4,68.6z"/>
				<path class="st8" d="M22.3,83.2c-0.6,0-1.1-0.5-1.1-1.1V67.5c0-0.6,0.5-1.1,1.1-1.1c0.6,0,1.1,0.5,1.1,1.1v14.6
					C23.4,82.7,22.9,83.2,22.3,83.2z"/>
				<path class="st8" d="M25,84.4c-0.9,0-1.8-0.2-2.8-0.9c-2.6,1.8-5.4,0.5-6.6-0.6c-0.2-0.2-0.4-0.5-0.4-0.8V55.2
					c0-0.6,0.5-1.1,1.1-1.1c0.6,0,1.1,0.5,1.1,1.1v26.4c0.8,0.5,2.5,1.3,4-0.2c0.4-0.4,1.1-0.4,1.6,0c1.5,1.5,3.3,0.7,4,0.2V55.2
					c0-0.6,0.5-1.1,1.1-1.1c0.6,0,1.1,0.5,1.1,1.1v26.9c0,0.3-0.1,0.6-0.4,0.8C28.1,83.6,26.6,84.4,25,84.4z"/>
			</g>
		</g>
	</g>
	<g id="Layer_7">
		<path class="st9" d="M63.2,57.3c-1.3,0-2.5,0.8-3,1.9v-2c0-1.9-1.5-3.4-3.4-3.4c-1.5,0-2.8,1-3.3,2.5c0-2.5-1.2-4.1-3.4-4.1
			c-1.7,0-3.1,1.2-3.3,2.8V41.1c0-1.9-1.5-3.4-3.4-3.4s-3.4,1.5-3.4,3.4v21.5c-2.1-4-4.5-5.6-6.6-5.6c0,0,0,0-0.1,0
			c-2,0-3.6,1.3-3.9,2c-0.6,1.3,4.2,3.4,7.6,11.9c3.7,9.1,6.7,13.7,15.7,13.7c9.9,0,13.6-6.9,13.6-11.4V60.6
			C66.5,58.7,65,57.3,63.2,57.3z"/>
		<path class="st10" d="M62.5,38.1c-0.5-1.2-1.6-1.8-2.7-1.8c-0.4,0-0.8,0.1-1.1,0.2l-3.1,1.4c-1.5,0.6-2.2,2.4-1.5,3.9
			c0.5,1.2,1.6,1.8,2.7,1.8c0.4,0,0.8-0.1,1.1-0.2l3.1-1.4C62.4,41.3,63.1,39.6,62.5,38.1z"/>
		<path class="st10" d="M57.9,50.2l2.8-1.2c1.3-0.6,2-2.2,1.4-3.5c-0.5-1.1-1.5-1.7-2.4-1.7c-0.3,0-0.7,0.1-1,0.2l-2.8,1.2
			c-1.3,0.6-2,2.2-1.4,3.5c0.5,1.1,1.5,1.7,2.4,1.7C57.2,50.4,57.6,50.3,57.9,50.2z"/>
		<path class="st10" d="M54.1,34.2c0.5,1.2,1.6,1.8,2.7,1.8c0.4,0,0.8-0.1,1.1-0.2l2.1-1c1.5-0.6,2.2-2.4,1.5-3.9
			c-0.5-1.2-1.6-1.8-2.7-1.8c-0.4,0-0.8,0.1-1.1,0.2l-2.1,1C54.1,31,53.5,32.7,54.1,34.2z"/>
		<line class="st11" x1="42.5" y1="11.8" x2="44.7" y2="11.8"/>
		<line class="st10" x1="30.4" y1="15.2" x2="56.9" y2="15.2"/>
		<path class="st10" d="M56.9,26.4l5.7-2.4c1.7-0.7,2.4-2.7,1.8-4.4c-0.6-1.4-1.8-2.4-3.8-1.8c-0.5,0.1-2.9,1-3.6,1.3"/>
		<path class="st10" d="M47.4,24.4c0-2.1-1.7-3.8-3.8-3.8c-1.8,0-3.4,1.5-3.4,3.3c0,3.8,6.9,1.4,6.9,5.6c0,1.7-1.7,2.8-3.5,2.8
			c-2.1,0-3.8-1.7-3.8-3.8"/>
		<line class="st10" x1="43.6" y1="20.6" x2="43.6" y2="18.6"/>
		<line class="st10" x1="43.6" y1="34.3" x2="43.6" y2="32.3"/>
		<path class="st10" d="M52.8,53.5c0.3,0,0.5,0,0.8-0.1c1.7-0.3,3.5-1.4,3.5-3.1"/>
		<path class="st10" d="M56.9,29.8V12.3c0-1.8-1.3-3.3-2.9-3.5c-3.7-0.4-7-0.5-10.3-0.5S37,8.4,33.3,8.8c-1.6,0.2-2.9,1.7-2.9,3.5
			v37.6c0,1.8,1.3,3.3,2.9,3.5c2.3,0.2,4.5,0.4,6.8,0.5"/>
		<line class="st10" x1="46.8" y1="45.8" x2="55" y2="45.8"/>
		<line class="st10" x1="30.4" y1="45.8" x2="40.1" y2="45.8"/>
		<path class="st10" d="M30.4,18.6c-1.1-3.4-5.5-4.2-6.7-3.5c-1.4,0.8,1.7,6.2-1.6,16.1c-1.4,4.1-2.7,8.1-3,11.5
			c-0.7,8.6,4.5,14.4,10.4,16.4"/>
	</g>
	<g id="Layer_8">
		<g class="st3">
			<path class="st12" d="M46.4,21.5c-4.9,0-9,4-9,8.9s4,9,9,9s9-4,9-9S51.4,21.5,46.4,21.5z"/>
			<path class="st12" d="M62.2,65V53.1c0-4.6-3.6-9.2-10.4-10.8L46.2,47l-5.5-4.6c-6.5,1.5-10,5.8-10,10.8V65"/>
			<line class="st12" x1="54.5" y1="64.9" x2="54.5" y2="58.7"/>
			<line class="st12" x1="38.3" y1="64.9" x2="38.3" y2="58.7"/>
			<path class="st12" d="M24.9,27.5c-4.3,0-7.7,3.5-7.7,7.7s3.5,7.7,7.7,7.7s7.7-3.5,7.7-7.7S29.1,27.5,24.9,27.5z"/>
			<line class="st12" x1="18" y1="64.9" x2="18" y2="59.6"/>
			<line class="st12" x1="18.7" y1="53.5" x2="21.3" y2="53.5"/>
			<path class="st12" d="M33,46.7c-1-0.5-2.2-1-3.5-1.3l-4.8,4l-4.8-4c-5.6,1.3-8.6,5-8.6,9.3V65"/>
			<path class="st12" d="M67.7,27.5c4.3,0,7.7,3.5,7.7,7.7S72,43,67.7,43S60,39.5,60,35.2C60,31,63.4,27.5,67.7,27.5z"/>
			<line class="st12" x1="74.6" y1="64.9" x2="74.6" y2="59.6"/>
			<line class="st12" x1="64.7" y1="53.5" x2="62.2" y2="53.5"/>
			<path class="st12" d="M59.6,46.7c1-0.5,2.2-1,3.5-1.3l4.8,4l4.8-4c5.6,1.3,8.6,5,8.6,9.3V65"/>
		</g>
		<line class="st9" x1="40.2" y1="43" x2="45.8" y2="54.5"/>
		<line class="st9" x1="52.4" y1="42.7" x2="46" y2="54.5"/>
		<circle class="st9" cx="46" cy="56.2" r="1.6"/>
		<line class="st9" x1="8.1" y1="65.5" x2="83.6" y2="65.5"/>
	</g>
	<g id="Layer_9">
		<g class="st3">
			<rect x="30.3" y="48.1" class="st12" width="5.4" height="5.4"/>
			<rect x="30.3" y="38.3" class="st12" width="5.4" height="5.4"/>
			<rect x="30.3" y="28.5" class="st12" width="5.4" height="5.4"/>
			<rect x="39" y="48.1" class="st12" width="5.4" height="5.4"/>
			<rect x="39" y="38.3" class="st12" width="5.4" height="5.4"/>
			<rect x="47.8" y="48.1" class="st12" width="5.4" height="5.4"/>
			<rect x="56.6" y="48.1" class="st12" width="5.4" height="5.4"/>
			<rect x="47.8" y="38.3" class="st12" width="5.4" height="5.4"/>
			<rect x="56.6" y="38.3" class="st12" width="5.4" height="5.4"/>
			<rect x="56.6" y="28.5" class="st12" width="5.4" height="5.4"/>
			<line class="st12" x1="43.3" y1="20" x2="43.3" y2="28.5"/>
			<line class="st12" x1="49.2" y1="20" x2="49.2" y2="28.5"/>
			<line class="st12" x1="49.2" y1="24.3" x2="43.3" y2="24.3"/>
			<path class="st12" d="M46.3,32.6c-4.6,0-8.3-3.7-8.3-8.4s3.7-8.4,8.3-8.4s8.3,3.7,8.3,8.4C54.6,28.9,50.9,32.6,46.3,32.6z"/>
			<path class="st12" d="M66.1,64.3V26.9c0-0.5-0.3-0.9-0.8-1c-0.9-0.2-1.9-0.4-2.8-0.5c0-0.5,0-1.1,0-1.7c0-0.5-0.5-0.7-0.6-0.7
				c-2.4-0.9-5.9-1.7-8-2.3"/>
			<path class="st12" d="M38.7,20.6c-2.8,0.7-5.8,1.5-8.3,2.4c-0.2,0.1-0.4,0.4-0.4,0.7c0,0.6,0,1.1,0,1.7c-0.9,0.2-1.9,0.3-2.8,0.5
				c-0.5,0.1-0.8,0.5-0.8,1v37.4"/>
			<polyline class="st12" points="40.2,64.3 40.2,56.8 52.3,56.8 52.3,64.3 			"/>
			<line class="st12" x1="46.3" y1="56.8" x2="46.3" y2="64.3"/>
			<line class="st12" x1="23.9" y1="64.3" x2="68.7" y2="64.3"/>
		</g>
	</g>
	<g id="Layer_10">
		<g class="st3">
			<path class="st12" d="M30.1,64.7v-11c0-6.6,5.3-11.5,16.5-11.5c11.2,0,16.5,5,16.5,11.5v11"/>
			<path class="st12" d="M37.6,55.6"/>
			<path class="st12" d="M46.7,38c5.1,0,9.3-4.1,9.3-9.3s-4.1-9.3-9.3-9.3c-5.1,0-9.3,4.1-9.3,9.3C37.4,33.8,41.5,38,46.7,38z"/>
			<line class="st12" x1="38.3" y1="54.7" x2="38.3" y2="64.7"/>
			<line class="st12" x1="55" y1="54.7" x2="55" y2="64.7"/>
			<line class="st12" x1="13.7" y1="64" x2="77.1" y2="64"/>
		</g>
	</g>
	<g id="Layer_11">
		<g class="st13">
			<path class="st8" d="M66.3,33.1l5.1-0.3c1.9-0.1,3.5,1.1,3.6,2.7c0.1,1.6-1.3,3-3.2,3.1l-4.2,0.2"/>
			<path class="st8" d="M59.2,55.8v6.4c0,0.8,0.6,1.4,1.4,1.4h7.8c0.8,0,1.4-0.6,1.4-1.4v-7.8"/>
			<path class="st8" d="M65.1,38H23.8c-4.5,0-8.2,4-8.2,8.9c0,4.9,3.7,8.9,8.2,8.9h41.3c4.5,0,8.2-4,8.2-8.9
				C73.3,42,69.7,38,65.1,38z"/>
			<path class="st14" d="M64,51.2c2.2,0,3.9-1.7,3.9-3.9c0-2.2-1.7-3.9-3.9-3.9c-2.2,0-3.9,1.7-3.9,3.9C60.1,49.4,61.9,51.2,64,51.2
				z"/>
			<path class="st14" d="M24.9,51.2c2.1,0,3.9-1.7,3.9-3.9c0-2.1-1.7-3.9-3.9-3.9S21,45.1,21,47.3C21,49.4,22.8,51.2,24.9,51.2z"/>
			<path class="st8" d="M20.4,38.9c0,0,2-11.3,2.8-15.4c0.1-0.4,0.6-1.4,1.8-1.6c14.4-2.9,25-2.8,39.2,0c1,0.2,1.5,1.2,1.6,1.7
				c0.1,0.5,2.7,15.3,2.7,15.3"/>
			<path class="st8" d="M22.3,32.8l-5.1,0c-1.8,0-3.4,1.3-3.4,2.9s1.4,2.9,3.3,2.9h4.1"/>
			<path class="st8" d="M29.8,55.8v6.4c0,0.8-0.6,1.4-1.4,1.4h-7.8c-0.8,0-1.4-0.6-1.4-1.4v-7.8"/>
		</g>
	</g>
	<g id="Layer_12" class="st3">
		<g>
			<path class="st15" d="M56.1,38.9c-0.2,0.4-0.6,0.7-1,0.7h-15v-8.8h5.7c1.8,0,2.2,0.4,4.3,2c1.4,1.1,5.6,4.8,5.8,4.9
				C56.2,38,56.3,38.5,56.1,38.9z"/>
			<ellipse class="st16" cx="27.8" cy="53.9" rx="6.1" ry="6.1"/>
			<ellipse class="st17" cx="62.5" cy="53.9" rx="6.1" ry="6.1"/>
			<line class="st15" x1="42.8" y1="44" x2="45.1" y2="44"/>
			<line class="st15" x1="30" y1="44" x2="32.2" y2="44"/>
			<line class="st15" x1="72.4" y1="44.6" x2="74.8" y2="44.6"/>
			<line class="st15" x1="34" y1="53.8" x2="56.4" y2="53.8"/>
			<path class="st15" d="M68.6,53.8h2.9c0.3,0,0.6-0.1,0.8-0.4l2.3-2.6c0.2-0.2,0.3-0.5,0.3-0.8v-6.3c0-1.7-1.2-3.2-2.8-3.5
				l-9.3-2.9c0,0-6.8-5.6-9-7.4c-2.8-2.3-4.3-3.1-7.5-3.1H34.5c-2.4,0-3.4,0.7-4.7,1.5c-3.3,2.1-8.7,7.3-9.9,8.5l-3,0.5
				c-1.6,0.3-2.9,1.8-2.9,3.5v8.4c0,0.3,0.1,0.6,0.3,0.8l3.5,3.6c0.2,0.2,0.5,0.3,0.8,0.3h3.2"/>
			<path class="st15" d="M40.1,39.6H29.7c-0.4,0-0.7-0.2-0.9-0.5s-0.2-0.7-0.1-1c0-0.1,0.9-1.8,2.3-3.8c2.1-2.9,3.9-3.5,4.1-3.5h4.9
				V39.6z"/>
		</g>
		<circle class="st15" cx="62.7" cy="54" r="3.7"/>
		<circle class="st15" cx="28" cy="54" r="3.7"/>
	</g>
	<g id="Layer_1_1_" class="st3">
		<path class="st8" d="M79,28.9c-0.9-2.2-2.1-4.4-3.5-6.4c-1.3-2-2.9-3.9-4.6-5.6s-3.6-3.3-5.6-4.6c-2-1.4-4.2-2.5-6.4-3.5
			c-4.7-2-9.6-3-14.7-3s-10,1-14.7,3c-2.2,0.9-4.4,2.1-6.4,3.5c-2,1.4-3.9,2.9-5.6,4.6s-3.3,3.6-4.6,5.6c-1.4,2-2.5,4.2-3.5,6.4
			c-2,4.7-3,9.6-3,14.7s1,10,3,14.7c0.9,2.2,2.1,4.4,3.5,6.4c1.4,2,2.9,3.9,4.6,5.6c1.7,1.7,3.6,3.3,5.6,4.6c2,1.4,4.2,2.5,6.4,3.5
			c4.7,2,9.6,3,14.7,3s10-1,14.7-3c2.2-0.9,4.4-2.1,6.4-3.5c2-1.3,3.9-2.9,5.6-4.6s3.3-3.6,4.6-5.6c1.4-2,2.5-4.2,3.5-6.4
			c2-4.7,3-9.6,3-14.7C81.9,38.5,80.9,33.6,79,28.9z M10.5,43.6C10.5,25.1,25.6,10,44.2,10C53,10,61,13.4,67,19L19.5,66.5
			C13.9,60.5,10.5,52.4,10.5,43.6z M44.2,77.3c-8,0-15.5-2.8-21.3-7.6l47.3-47.3c4.7,5.8,7.6,13.2,7.6,21.3
			C77.8,62.2,62.7,77.3,44.2,77.3z"/>
	</g>
</g>
<g id="Layer_2" class="st0">
	<polygon class="st18" points="82.5,22.2 79.7,22 80.3,14 71.9,13.1 72.2,10.3 83.2,11.1 	"/>
	<polygon class="st18" points="56.1,35.4 54.4,33.3 80.6,12.1 82.4,14.3 	"/>
	<polygon class="st18" points="48.3,35.8 27.5,25.1 28.8,22.6 49.4,33.2 	"/>
	<polygon class="st18" points="10.1,34.6 8.8,32.1 21.9,23.6 23.3,26 	"/>
	<path class="st18" d="M6.1,30.1c-3,0-5.4,2.4-5.4,5.4c0,3,2.4,5.4,5.4,5.4c3,0,5.4-2.4,5.4-5.4c0,0,0,0,0,0
		C11.5,32.5,9.1,30.1,6.1,30.1z M6.1,38.8c-1.8,0-3.3-1.5-3.3-3.3s1.5-3.3,3.3-3.3s3.3,1.5,3.3,3.3C9.4,37.3,7.9,38.8,6.1,38.8
		C6.1,38.8,6.1,38.8,6.1,38.8z"/>
	<path class="st18" d="M25.1,16.9c-3,0-5.4,2.4-5.4,5.4c0,3,2.4,5.4,5.4,5.4c3,0,5.4-2.4,5.4-5.4C30.5,19.3,28.1,16.9,25.1,16.9z
		 M25.1,25.5c-1.8,0-3.3-1.5-3.3-3.3c0-1.8,1.5-3.3,3.3-3.3c1.8,0,3.3,1.5,3.3,3.3C28.4,24.1,26.9,25.5,25.1,25.5
		C25.1,25.5,25.1,25.5,25.1,25.5z"/>
	<path class="st18" d="M52.3,30.9c-3,0-5.4,2.4-5.4,5.4c0,3,2.4,5.4,5.4,5.4c3,0,5.4-2.4,5.4-5.4c0,0,0,0,0,0
		C57.6,33.3,55.2,30.9,52.3,30.9z M52.3,39.6c-1.8,0-3.3-1.5-3.3-3.3s1.5-3.3,3.3-3.3c1.8,0,3.3,1.5,3.3,3.3S54.1,39.6,52.3,39.6
		L52.3,39.6z"/>
	<polygon class="st18" points="67.2,53.3 62.7,48.6 64.8,46.5 69.3,51.2 	"/>
	<path class="st18" d="M79.7,71.2L66.5,58v-7.6h7.6l13.2,13.2L79.7,71.2z M69.6,56.8l10.3,10.1l3.8-3.7l-10.5-9.8l-3.7-0.2
		L69.6,56.8z"/>
	<path class="st18" d="M65,23.5c-7-7-18.4-7-25.4,0s-7,18.4,0,25.4s18.4,7,25.4,0c3.4-3.4,5.3-7.9,5.3-12.7
		C70.2,31.4,68.3,26.8,65,23.5z M52.3,50.7c-8,0-14.5-6.5-14.5-14.5s6.5-14.5,14.5-14.5s14.5,6.5,14.5,14.5l0,0
		C66.8,44.2,60.3,50.7,52.3,50.7C52.3,50.7,52.3,50.7,52.3,50.7L52.3,50.7z"/>
	<rect x="4.7" y="48.2" class="st18" width="2.9" height="17.9"/>
	<rect x="12.9" y="41.6" class="st18" width="2.9" height="24.5"/>
	<rect x="21.2" y="36.2" class="st18" width="2.9" height="29.9"/>
	<rect x="29.4" y="44" class="st18" width="2.9" height="22.1"/>
	<rect x="37.7" y="53.4" class="st18" width="2.9" height="12.7"/>
	<rect x="45.9" y="56.3" class="st18" width="2.9" height="9.8"/>
	<rect x="54.2" y="57.9" class="st18" width="2.9" height="8.2"/>
	<rect x="62.4" y="56.3" class="st18" width="2.9" height="9.8"/>
	<rect x="4.4" y="69.7" class="st18" width="67.6" height="3.1"/>
</g>
<g id="Layer_3_1_">
	<path class="st19" d="M87.6,26.1c0-0.4-0.2-0.8-0.5-1.1l-6.8-6.7l-9-9l0,0l-6.8-6.7c-0.6-0.6-1.6-0.6-2.2,0l-22.2,22V5.2
		c0-0.9-0.7-1.6-1.6-1.6H7c-0.9,0-1.6,0.7-1.6,1.6c0,0,0,0,0,0v78.6c0,0.9,0.7,1.6,1.6,1.6c0,0,0,0,0,0h31.6c0.9,0,1.6-0.7,1.6-1.6
		c0,0,0,0,0,0v-9.9l47-46.7C87.5,26.9,87.6,26.5,87.6,26.1 M27.5,22.5h-9.5V6.8h9.5V22.5z M37,82.2H8.6V6.8h6.3v17.3
		c0,0.9,0.7,1.6,1.6,1.6h12.7c0.9,0,1.6-0.7,1.6-1.6V6.8H37V82.2z M77,19.3L65.7,30.6l-6.8-6.8l11.3-11.3L77,19.3z M40.2,69.4V29
		L63.5,5.8l4.5,4.5L55.6,22.7c-0.6,0.6-0.6,1.6,0,2.2c0,0,0,0,0,0l9.1,9c0.6,0.6,1.6,0.6,2.2,0l12.4-12.4l4.5,4.5L40.2,69.4z"/>
</g>
<g id="Layer_4_1_" class="st0">
	<g id="Layer_3_2_" class="st3">
		<g>
			<path class="st20" d="M66.5,56.2c-1.4,0-2.7,0.8-3.3,2.1v-2.1c0-2-1.7-3.7-3.7-3.7c-1.7,0-3.1,1.1-3.6,2.7c0-2.7-1.3-4.5-3.7-4.5
				c-1.8,0-3.4,1.3-3.6,3.1V38.6c0-2-1.7-3.7-3.7-3.7c-2,0-3.7,1.7-3.7,3.7v23.5C38.9,57.8,36.3,56,34,56c0,0,0,0-0.1,0
				c-2.2,0-3.9,1.4-4.2,2.1c-0.6,1.4,4.6,3.8,8.3,13c4,10,7.3,15,17.2,15c10.8,0,14.9-7.6,14.9-12.5V59.8
				C70.1,57.8,68.5,56.2,66.5,56.2z"/>
			<path class="st21" d="M65.7,35.3c-0.6-1.3-1.8-2-2.9-2c-0.4,0-0.8,0.1-1.2,0.2L58.2,35c-1.6,0.7-2.4,2.6-1.7,4.3
				c0.6,1.3,1.8,2,2.9,2c0.4,0,0.8-0.1,1.2-0.2l3.4-1.5C65.6,38.8,66.4,36.9,65.7,35.3z"/>
			<path class="st21" d="M60.7,48.5l3.1-1.3c1.5-0.6,2.1-2.4,1.5-3.9c-0.5-1.2-1.6-1.8-2.7-1.8c-0.4,0-0.7,0.1-1.1,0.2L58.5,43
				c-1.5,0.6-2.1,2.4-1.5,3.9c0.5,1.2,1.6,1.8,2.7,1.8C60,48.7,60.3,48.6,60.7,48.5z"/>
			<path class="st21" d="M56.5,31.1c0.6,1.3,1.8,2,2.9,2c0.4,0,0.8-0.1,1.2-0.2l2.3-1c1.6-0.7,2.4-2.6,1.7-4.3c-0.6-1.4-1.8-2-2.9-2
				c-0.4,0-0.8,0.1-1.2,0.2l-2.3,1C56.6,27.5,55.8,29.4,56.5,31.1z"/>
			<line class="st22" x1="43.9" y1="6.6" x2="46.3" y2="6.6"/>
			<line class="st21" x1="30.6" y1="10.2" x2="59.6" y2="10.2"/>
			<path class="st21" d="M59.6,22.5l6.2-2.6c1.8-0.8,2.7-2.9,1.9-4.8c-0.6-1.5-1.9-2.6-4.2-2c-0.6,0.2-3.2,1.1-3.9,1.4"/>
			<path class="st21" d="M55.2,52.1c0.3,0,0.6-0.1,0.9-0.1c1.8-0.3,3.8-1.5,3.8-3.4"/>
			<path class="st21" d="M59.6,26.2V7c0-1.9-1.4-3.6-3.2-3.8c-4.1-0.4-7.7-0.6-11.3-0.6c-3.6,0-7.2,0.2-11.4,0.6
				C32,3.4,30.6,5.1,30.6,7v41.1c0,1.9,1.4,3.6,3.2,3.8c2.5,0.2,5,0.4,7.4,0.5"/>
			<line class="st21" x1="48.6" y1="43.7" x2="57.5" y2="43.7"/>
			<line class="st21" x1="30.6" y1="43.7" x2="41.2" y2="43.7"/>
			<path class="st21" d="M30.6,14c-1.3-3.8-6-4.6-7.4-3.8c-1.5,0.9,1.9,6.8-1.8,17.6c-1.5,4.5-2.9,8.8-3.2,12.6
				c-0.7,9.3,4.9,15.7,11.4,17.9"/>
		</g>
	</g>
</g>
</svg>
