<?xml version="1.0" encoding="utf-8"?>
<!-- Generator: Adobe Illustrator 26.3.1, SVG Export Plug-In . SVG Version: 6.00 Build 0)  -->
<svg version="1.1" id="Layer_1" xmlns="http://www.w3.org/2000/svg" xmlns:xlink="http://www.w3.org/1999/xlink" x="0px" y="0px"
	 viewBox="0 0 163.7 210" style="enable-background:new 0 0 163.7 210;" xml:space="preserve">
<style type="text/css">
	.st0{display:none;}
	.st1{display:inline;fill:#0075A8;}
	.st2{display:none;fill:#A59797;}
	.st3{opacity:0.1;fill:#93BACC;enable-background:new    ;}
	.st4{fill:none;stroke:#2C2865;stroke-width:3;stroke-linecap:round;stroke-linejoin:round;stroke-miterlimit:10;}
	.st5{fill:none;stroke:#2C2865;stroke-width:3;stroke-miterlimit:10;}
	.st6{display:inline;opacity:0.1;fill:#F96041;enable-background:new    ;}
	.st7{display:inline;fill:none;stroke:#2C2865;stroke-width:3;stroke-miterlimit:10;}
	.st8{display:inline;fill:none;stroke:#2C2865;stroke-width:2;stroke-miterlimit:10;}
	.st9{display:inline;fill:#A59797;}
	.st10{display:inline;}
	.st11{fill:none;stroke:#2C2865;stroke-width:2;stroke-miterlimit:10;}
	.st12{display:inline;opacity:0.15;fill:#BDA9D3;enable-background:new    ;}
	.st13{fill:none;stroke:#2C2865;stroke-width:2;stroke-linecap:round;stroke-linejoin:round;}
	.st14{display:inline;fill:none;stroke:#2C2865;stroke-width:3.6;stroke-linecap:round;stroke-linejoin:round;}
	.st15{fill:none;stroke:#2C2865;stroke-width:4;stroke-linecap:round;stroke-linejoin:round;}
</style>
<g id="Layer_2_00000022526370623830327680000000899444180192792490_" class="st0">
	<rect x="-89.1" y="-136.5" class="st1" width="370.7" height="527.1"/>
</g>
<g id="Layer_1_copy_2">
	<rect x="32" y="44.7" class="st2" width="88" height="115.5"/>
	<path class="st3" d="M52.2,79c46.5-50.4,61.8-60.1,77.3-59.1c2.4,0.1,6.4,0.5,10.9,2.8c29,14.5,17.8,80.4,17.1,84
		c-3.8,20.7-9.7,55.2-35.9,73.5c-18.3,12.8-36.2,10.8-64,7.8C39.8,186.1,16,183,6.7,163.2c-1-2-2.3-4.9-2.9-9.2
		C1.7,139.5,10.6,124.2,52.2,79z"/>
	<polygon class="st4" points="74.1,75.9 67.3,75.9 67.3,69.1 58.7,69.1 58.7,75.9 51.9,75.9 51.9,84.5 58.7,84.5 58.7,91.3 
		67.3,91.3 67.3,84.5 74.1,84.5 	"/>
	<path class="st4" d="M81.9,89.5c1.1,0,2.1,0.4,2.8,1.1C86.2,87.5,87,84,87,80.3C87,67,76.2,56.2,62.9,56.2S38.8,67,38.8,80.3
		s10.8,24.1,24.1,24.1c5.4,0,10.4-1.8,14.4-4.8v-5.5C77.4,91.5,79.4,89.5,81.9,89.5z"/>
	<g>
		<path class="st4" d="M104.1,119.3v-3.2c0-2.4-2-4.4-4.4-4.4l0,0c-2.4,0-4.4,2-4.4,4.4v1.8v-3.7c0-2.4-2-4.4-4.4-4.4l0,0
			c-2.4,0-4.4,2-4.4,4.4v3.7v-24c0-2.4-2-4.4-4.4-4.4l0,0c-2.4,0-4.4,2-4.4,4.4v29.4c-6.3-9.1-11.9-9.4-15.4-7.6
			c-2.4,1.3-2.4,4.3-2.4,4.3s6.4,5.7,10.4,12c2.5,4.1,5,7.2,8.2,10.4c3.2,3.2,7.2,6.3,13.7,6.3c12.2,0,21.1-9.1,21.1-18.9v-12.2
			c0-2.4-2-4.4-4.4-4.4l0,0c-2.4,0-4.4,2-4.4,4.4v1.7L104.1,119.3L104.1,119.3z"/>
	</g>
	<path class="st5" d="M120.3,33.5h-88c-6.1,0-11,4.9-11,11V171c0,6.1,4.9,11,11,11h88c6.1,0,11-4.9,11-11V44.5
		C131.3,38.4,126.4,33.5,120.3,33.5z"/>
	<circle class="st5" cx="76.3" cy="171" r="5.5"/>
	<rect x="32.3" y="44.5" class="st5" width="88" height="115.5"/>
</g>
<g id="Layer_1_copy" class="st0">
	<path class="st6" d="M-14.2,53.1c-13,23.7-20,36.4-21.4,51.9c-3.8,39.1,27.5,91,65.7,94.8c19,1.9,42.1-7.8,49.5-25.1
		c4.2-10,0.3-15.5,0.5-43.6c0.1-29.4,4.5-30.7,2.9-43.3C78.2,50.5,33.8,13.2,9.1,22.1C1.3,25-3.9,34.4-14.2,53.1z"/>
	<path class="st7" d="M120.7,34.1h-88c-6.1,0-11,4.9-11,11v126.5c0,6.1,4.9,11,11,11h88c6.1,0,11-4.9,11-11V45.1
		C131.7,39,126.8,34.1,120.7,34.1z"/>
	<circle class="st8" cx="76" cy="171.6" r="5.5"/>
	<rect x="32.7" y="45.1" class="st8" width="88" height="115.5"/>
	<rect x="32.4" y="45.3" class="st9" width="88" height="115.5"/>
	<g class="st10">
		<path class="st5" d="M103.7,146.9H49c-3.3,0-6-2.7-6-6v-37.1c0-3.3,2.7-6,6-6h54.7c3.3,0,6,2.7,6,6V141
			C109.7,144.2,107,146.9,103.7,146.9z"/>
		<path class="st5" d="M53.5,97.8V82c0-12.6,10.2-22.8,22.8-22.8l0,0c12.6,0,22.8,10.2,22.8,22.8v15.8"/>
		<g>
			<circle class="st11" cx="76.4" cy="113.9" r="7.8"/>
			<path class="st11" d="M86.8,138.6c2.2,0,3.9-1.7,3.9-3.9v-1.3c0-6.5-6.4-10.4-14.3-10.4s-14.3,3.9-14.3,10.4v1.3
				c0,2.2,1.7,3.9,3.9,3.9H86.8z"/>
		</g>
	</g>
</g>
<g id="Layer_1_00000075868594902550978870000014508175777845847983_" class="st0">
	<rect x="32.4" y="45.3" class="st9" width="88" height="115.5"/>
	<path class="st12" d="M4.6,24.3c-11.1,3.4-16.3,11.4-19.5,16.4c-8,12.4-2.9,18.5-7.4,36.1c-4.8,18.7-16.1,21.8-15.2,37.7
		c0.5,8.2,3.6,13.9,4.3,15.2c3.1,5.6,6.8,8.7,14.5,16c6,5.7,12.2,11.6,17,17c15.6,17.3,13.1,24.8,26.3,32.8
		c2.4,1.5,8.8,5.3,17.5,6.4c17,2.2,29.6-7.3,32-9c28.1-21,11-70.2,8-77.9C76.8,101.2,72,97.7,67.9,81.6c-5.8-22.5,0.2-28.4-7.9-39
		C49.1,28.4,22.9,18.8,4.6,24.3z"/>
	<g class="st10">
		<g>
			<path class="st13" d="M76.4,128.7c-7.1,0-13.5-2.9-18.1-7.5l4.8-4.8L44,112.6l3.8,19.1l4.8-4.8c6.1,6.1,14.5,9.9,23.9,9.9
				c18.6,0,33.8-15.1,33.8-33.8c0-0.3,0-0.7,0-1"/>
			<g>
				<line class="st13" x1="81.7" y1="128.1" x2="81.7" y2="128.1"/>
				<line class="st13" x1="87.2" y1="126.3" x2="87.2" y2="126.3"/>
				<line class="st13" x1="92.2" y1="123.3" x2="92.2" y2="123.3"/>
				<line class="st13" x1="96.3" y1="119.2" x2="96.3" y2="119.2"/>
				<line class="st13" x1="99.4" y1="114.3" x2="99.4" y2="114.3"/>
				<line class="st13" x1="101.4" y1="108.8" x2="101.4" y2="108.8"/>
				<line class="st13" x1="102" y1="103" x2="102" y2="103"/>
			</g>
		</g>
		<g>
			<path class="st13" d="M76.4,77.4c7.1,0,13.5,2.9,18.1,7.5l-4.8,4.8l19.1,3.8L105,74.4l-4.8,4.8c-6.1-6.1-14.5-9.9-23.9-9.9
				c-18.6,0-33.8,15.1-33.8,33.8c0,0.3,0,0.7,0,1"/>
			<g>
				<line class="st13" x1="71" y1="77.9" x2="71" y2="77.9"/>
				<line class="st13" x1="65.5" y1="79.8" x2="65.5" y2="79.8"/>
				<line class="st13" x1="60.6" y1="82.8" x2="60.6" y2="82.8"/>
				<line class="st13" x1="56.4" y1="86.9" x2="56.4" y2="86.9"/>
				<line class="st13" x1="53.3" y1="91.8" x2="53.3" y2="91.8"/>
				<line class="st13" x1="51.4" y1="97.3" x2="51.4" y2="97.3"/>
				<line class="st13" x1="50.7" y1="103" x2="50.7" y2="103"/>
			</g>
		</g>
		<g class="st0">
			<path class="st14" d="M82.5,93.9h-7.7c-2.5,0-4.6,2.1-4.6,4.6l0,0c0,2.5,2.1,4.6,4.6,4.6c1,0,2.1,0,3.1,0c2.5,0,4.6,2.1,4.6,4.6
				l0,0c0,2.5-2.1,4.6-4.6,4.6h-7.7"/>
			<line class="st14" x1="76.4" y1="93.9" x2="76.4" y2="89.3"/>
			<line class="st14" x1="76.4" y1="116.8" x2="76.4" y2="112.2"/>
		</g>
		<g>
			<path class="st15" d="M82.5,92.9h-7.7c-2.5,0-4.6,2.3-4.6,5.1l0,0c0,2.8,2.1,5.1,4.6,5.1c1,0,2.1,0,3.1,0c2.5,0,4.6,2.3,4.6,5.1
				l0,0c0,2.8-2.1,5.1-4.6,5.1h-7.7"/>
			<line class="st15" x1="76.4" y1="92.9" x2="76.4" y2="87.9"/>
			<line class="st15" x1="76.4" y1="118.2" x2="76.4" y2="113.1"/>
		</g>
	</g>
	<path class="st7" d="M120.7,34.1h-88c-6.1,0-11,4.9-11,11v126.5c0,6.1,4.9,11,11,11h88c6.1,0,11-4.9,11-11V45.1
		C131.7,39,126.8,34.1,120.7,34.1z"/>
	<circle class="st8" cx="76" cy="171.6" r="5.5"/>
	<rect x="32.7" y="45.1" class="st8" width="88" height="115.5"/>
</g>
</svg>
