<?xml version="1.0" encoding="utf-8"?>
<!-- Generator: Adobe Illustrator 26.3.1, SVG Export Plug-In . SVG Version: 6.00 Build 0)  -->
<svg version="1.1" id="Layer_1" xmlns="http://www.w3.org/2000/svg" xmlns:xlink="http://www.w3.org/1999/xlink" x="0px" y="0px"
	 viewBox="0 0 145.7 162.9" style="enable-background:new 0 0 145.7 162.9;" xml:space="preserve">
<style type="text/css">
	.st0{opacity:0.1;fill:#FFC53F;enable-background:new    ;}
	.st1{fill:none;stroke:#2C2865;stroke-width:4;stroke-miterlimit:10;}
</style>
<path class="st0" d="M133.1,109.4c-0.9-14.5-6.1-27.5-11.3-40C113.1,48,109.2,36.9,102.4,27c-7-10.2-16.1-23.4-29.2-24.1
	c-6-0.4-10.8,1.8-13.3,3.5c-9.9,6.4-17.1,18.8-23.7,30.3c-7,12.4-13.7,25.4-19.3,39.1c-8.8,21.3-14.4,56,6,69
	c9.8,6.3,22.5,6.1,33.1,7.2c13.1,1.3,26.2,1.6,39.2,0.9c10-0.5,21.1-0.9,29-10.5C131,134.5,133.9,121.5,133.1,109.4z"/>
<path class="st1" d="M135.8,119.7c-8.5-4.1-14.3-10.7-17.4-27.2c-1.2,0.1-2.4,0.2-3.6,0.2c-17.4,0-31.5-14.1-31.5-31.5
	c0-13,8-24.7,20.2-29.4c-4.2-3.9-9.4-6.6-15-7.9V22c0-7.8-6.4-14.2-14.2-14.2S60.1,14.2,60.1,22v2c-24.2,6-26.4,28.4-27.7,49.8
	c-1.8,30.8-8.4,40.5-19.6,45.9c-5.1,2.5-3.6,11.8-3.6,11.8h130.2C139.4,131.5,140.9,122.2,135.8,119.7z"/>
<path class="st1" d="M114.7,36.8c-13.6,0.3-24.3,11.5-24.1,25.1c0.3,13.2,10.9,23.8,24.1,24.1c0.8,0,1.7,0,2.5-0.1
	c13.5-1.4,23.3-13.6,21.8-27C137.7,46.3,127.3,36.8,114.7,36.8z"/>
<path class="st1" d="M114.6,79.1c-1.9,0-3.4-1.5-3.4-3.4c0,0,0,0,0-0.1c0-1.9,1.5-3.5,3.4-3.5l0,0c1.9,0,3.5,1.6,3.5,3.5
	S116.5,79.1,114.6,79.1L114.6,79.1z"/>
<polygon class="st1" points="117.7,67 111.6,67 110.2,44.4 119.2,44.4 "/>
<path class="st1" d="M56,141.3c0,9.8,8,17.8,17.8,17.8h1c9.8,0,17.8-8,17.8-17.8v-2.5H56.1v2.5H56z"/>
</svg>
