<?xml version="1.0" encoding="utf-8"?>
<!-- Generator: Adobe Illustrator 24.3.0, SVG Export Plug-In . SVG Version: 6.00 Build 0)  -->
<svg version="1.1" id="Layer_1" focusable="false" xmlns="http://www.w3.org/2000/svg" xmlns:xlink="http://www.w3.org/1999/xlink"
	 x="0px" y="0px" viewBox="0 0 700 700" style="enable-background:new 0 0 700 700;" xml:space="preserve">
<style type="text/css">
	.st0{fill:#FF8300;}
	.st1{fill:#FFFFFF;}
</style>
<rect class="st0" width="700" height="700"/>
<path class="st1" d="M285.2,531.4h-77.8c-21.5,0-38.9-17.4-38.9-38.9V207.4c0-21.5,17.4-38.9,38.9-38.9h77.8
	c21.5,0,38.9,17.4,38.9,38.9v285.1C324.1,514,306.7,531.4,285.2,531.4z M531.4,492.6V207.4c0-21.5-17.4-38.9-38.9-38.9h-77.8
	c-21.5,0-38.9,17.4-38.9,38.9v285.1c0,21.5,17.4,38.9,38.9,38.9h77.8C514,531.4,531.4,514,531.4,492.6z"/>
</svg>
