<?xml version="1.0" encoding="utf-8"?>
<!-- Generator: Adobe Illustrator 26.3.1, SVG Export Plug-In . SVG Version: 6.00 Build 0)  -->
<svg version="1.1" xmlns="http://www.w3.org/2000/svg" xmlns:xlink="http://www.w3.org/1999/xlink" x="0px" y="0px"
	 viewBox="0 0 88 88" style="enable-background:new 0 0 88 88;" xml:space="preserve">
<style type="text/css">
	.st0{display:none;}
	.st1{display:inline;fill:#93BACC;}
	.st2{display:inline;fill:#FFC53F;}
	.st3{display:inline;fill:#F7862A;}
	.st4{display:inline;fill:#F6AEAF;}
	.st5{display:inline;fill:#BDA9D3;}
	.st6{display:inline;fill:#AAAF45;}
	.st7{display:inline;fill:#F96041;}
	.st8{display:inline;opacity:0.1;fill:#00BC6F;enable-background:new    ;}
	.st9{display:inline;}
	.st10{fill:none;stroke:#262626;stroke-linecap:round;stroke-linejoin:round;stroke-miterlimit:10;}
	.st11{display:inline;opacity:0.27;fill:#FFC53F;enable-background:new    ;}
	.st12{fill:none;stroke:#333333;stroke-linecap:round;stroke-linejoin:round;stroke-miterlimit:10;}
	.st13{display:inline;opacity:0.2;fill:#BDA9D3;enable-background:new    ;}
	.st14{fill:none;stroke:#000000;stroke-miterlimit:10;}
	.st15{display:inline;opacity:0.1;fill:#F96041;enable-background:new    ;}
	.st16{display:inline;opacity:0.25;fill:#AAAF45;enable-background:new    ;}
	.st17{fill:none;stroke:#2C2E31;stroke-linecap:round;stroke-linejoin:round;stroke-miterlimit:10;}
	.st18{display:inline;opacity:0.25;fill:#F6AEAF;enable-background:new    ;}
	.st19{fill:none;stroke:#202020;stroke-miterlimit:10;}
	.st20{display:inline;opacity:0.1;fill:#09A6D1;enable-background:new    ;}
	.st21{fill:none;stroke:#343844;stroke-miterlimit:10;}
	.st22{display:inline;opacity:0.1;fill:#66A389;enable-background:new    ;}
	.st23{fill:none;stroke:#3A3A3C;stroke-linecap:round;stroke-linejoin:round;stroke-miterlimit:10;}
	.st24{display:inline;fill:none;stroke:#3A3A3C;stroke-linecap:round;stroke-linejoin:round;stroke-miterlimit:10;}
	.st25{display:inline;opacity:0.1;fill:#005BB5;enable-background:new    ;}
	.st26{clip-path:url(#SVGID_00000057833305940478778940000016696753464106643133_);}
	.st27{fill:none;stroke:#333333;stroke-width:1;stroke-linecap:round;stroke-linejoin:round;stroke-miterlimit:9.9998;}
	.st28{clip-path:url(#SVGID_00000159447739655202071170000009308091670900414131_);}
	.st29{display:inline;opacity:0.2;fill:#FFC53F;enable-background:new    ;}
	.st30{display:inline;opacity:0.15;fill:#9E6359;enable-background:new    ;}
	.st31{display:inline;fill:none;stroke:#343844;stroke-miterlimit:10;}
	.st32{display:inline;opacity:0.15;fill:#7F4F67;enable-background:new    ;}
	.st33{display:inline;fill:#333333;stroke:#262626;stroke-width:0.25;stroke-miterlimit:10;}
	.st34{fill:#FFFFFF;stroke:#262626;stroke-width:0.25;stroke-miterlimit:10;}
	.st35{display:inline;fill:#F4F5F7;}
	.st36{fill-rule:evenodd;clip-rule:evenodd;fill:#F4D938;}
	.st37{fill-rule:evenodd;clip-rule:evenodd;fill:#C92026;}
	.st38{fill-rule:evenodd;clip-rule:evenodd;fill:#064F70;}
	.st39{display:inline;fill:#FFFFFF;stroke:#31B573;stroke-miterlimit:10;}
	.st40{fill:#31B573;}
	.st41{display:inline;fill:#31B573;}
	.st42{fill:none;stroke:#3E4545;stroke-width:3;stroke-linejoin:round;stroke-miterlimit:10;}
	.st43{fill:none;stroke:#00BC6F;stroke-width:3;stroke-linejoin:round;stroke-miterlimit:10;}
	.st44{fill:#FAFFF9;}
	.st45{fill:none;stroke:#00BC6F;stroke-width:3;stroke-linecap:round;stroke-linejoin:round;stroke-miterlimit:10;}
	.st46{fill:#00BC6F;}
	.st47{fill:#3E4545;}
	.st48{fill:none;stroke:#3E4545;stroke-width:2.5;stroke-linecap:round;stroke-miterlimit:10;}
	.st49{fill:none;stroke:#00BC6F;stroke-width:2.5;stroke-linecap:round;stroke-linejoin:round;stroke-miterlimit:10;}
	.st50{display:inline;fill:none;stroke:#00BC6F;stroke-width:2.5;stroke-miterlimit:10;}
	.st51{display:inline;fill:#FFFFFF;}
	.st52{fill:none;stroke:#3E4545;stroke-width:2.5;stroke-linecap:round;stroke-linejoin:round;stroke-miterlimit:10;}
	
		.st53{display:inline;fill:none;stroke:#00BC6F;stroke-width:2.5;stroke-linecap:round;stroke-linejoin:round;stroke-miterlimit:10;}
	.st54{opacity:0.1;fill:#00BA73;enable-background:new    ;}
	.st55{fill:#2C2865;}
	.st56{display:inline;opacity:0.2;fill:#074A77;enable-background:new    ;}
	.st57{fill:none;stroke:#2C2865;stroke-width:2.5;stroke-linejoin:round;stroke-miterlimit:10;}
	.st58{display:inline;opacity:0.2;fill:#1D6317;enable-background:new    ;}
	.st59{display:inline;fill:#2C2865;}
	.st60{fill:none;stroke:#392C68;stroke-width:2;stroke-miterlimit:10;}
	.st61{display:inline;opacity:0.21;fill:#00509F;enable-background:new    ;}
	.st62{fill:none;stroke:#392C68;stroke-width:2;stroke-linecap:round;stroke-linejoin:round;stroke-miterlimit:10;}
	.st63{display:inline;fill:none;}
	.st64{font-family:'Montserrat-Regular';}
	.st65{font-size:5px;}
	.st66{display:inline;opacity:0.21;fill:#087E68;enable-background:new    ;}
	.st67{opacity:0.2;fill:#4F1D3E;enable-background:new    ;}
	.st68{opacity:0.3;fill:#004F7F;enable-background:new    ;}
	.st69{fill:#FFFFFF;stroke:#392C68;stroke-width:2;stroke-miterlimit:10;}
	.st70{display:inline;fill:#AAB0D6;}
	.st71{opacity:0.17;fill:#937DB5;enable-background:new    ;}
	.st72{fill:#26B56E;}
	.st73{display:inline;opacity:0.35;}
	.st74{opacity:0.3;fill:#24B56E;enable-background:new    ;}
	.st75{fill:none;stroke:#24B56E;stroke-width:2;stroke-linecap:round;stroke-linejoin:round;stroke-miterlimit:10;}
	.st76{display:inline;fill:none;stroke:#392C68;stroke-width:2;stroke-linecap:round;stroke-linejoin:round;stroke-miterlimit:10;}
	.st77{display:inline;fill:none;stroke:#24B56E;stroke-width:2;stroke-linecap:round;stroke-linejoin:round;stroke-miterlimit:10;}
	.st78{display:inline;opacity:0.1;fill:#937DB5;enable-background:new    ;}
	.st79{opacity:0.3;fill:#1E6B41;enable-background:new    ;}
	.st80{fill:none;stroke:#26B56E;stroke-width:2;stroke-linecap:round;stroke-linejoin:round;stroke-miterlimit:10;}
</style>
<g id="Layer_1" class="st0">
	<g id="Layer_13">
		<path class="st1" d="M-268.1-29.7c-0.7-2.7-2.1-5.5-4.8-6.7c-3.6-1.6-7.2,0.2-8.1,0.7c-2.4,1.2-3.6,3-3.9,3.5
			c-0.2,0.3-2.5,3.9-1.5,8.1c1.3,5.4,6.8,9.1,12.3,7.5C-268.5-18.4-266.8-24.5-268.1-29.7z"/>
		<path class="st2" d="M-302-27.9c-0.4-3.1-1-7-4.2-8.3c-2.8-1.2-6.3-0.3-9,0.8c-3.2,1.3-5.9,3.6-7.8,6.4c-0.2,0.4-3.6,6.5-1.1,9.7
			c2.2,2.8,6.7,2.7,9.5,2.6c3.1-0.1,6.4-0.6,9.8-2.6c1.2-0.8,2.2-1.9,2.7-3.3C-301.6-24.2-301.8-26.1-302-27.9z"/>
		<path class="st3" d="M-181.3-35.2c-1.9-0.8-2.9-0.3-7-0.6c-0.5,0-0.1,0-3-0.3c-3.2-0.3-4.8-0.5-5.2-0.5c-0.9,0-6-0.2-9.2,3.4
			c-2.7,3.1-2.4,7-2.3,7.9c0.1,1,0.3,3.7,2.3,6c3.3,3.7,8.7,3.1,9.1,3c6.4-0.8,7.7-7,14.4-10c0.5-0.2,1.9-0.8,2.8-2.3
			c0.8-1.2,1.3-3.2,0.4-4.8C-179.6-34.5-180.6-34.9-181.3-35.2z"/>
		<path class="st4" d="M-224.1-31.9c-1.9-0.4-2.7,0-4.7,0c-5.9-0.1-7.4-6-12.7-6c-2.3,0-4.7,1.1-6.1,2.9c-3,4.2,1.1,10.9,2,12.5
			c1,1.8,2.4,4.1,5.3,5.5c3.4,1.6,6.7,1,8.4,0.6c5.8-1.3,12.8-6,12.2-10.6C-219.8-29.1-221.9-31.4-224.1-31.9z"/>
		<path class="st5" d="M398.8,212c-1.5-2.5-5-2.8-5.6-2.8c-7.9-0.6-14.7,10.1-13.4,15.7c0.4,1.7,1.5,3,1.5,3c1.7,2,4.1,2.7,5,2.8
			C392.6,231.4,402.3,217.8,398.8,212z"/>
		<path class="st2" d="M361.6,224c-0.2-1.9-1.1-3.6-2-5.2c-1.6-2.8-2.3-4.2-3.5-5.5c-1.3-1.3-2.9-3-5.2-3.1c-1.1,0-1.9,0.2-2.4,0.5
			c-1.8,0.8-3.1,2.4-4.2,3.9c-1.3,1.6-2.4,3.3-3.5,5.1c-1.6,2.8-2.6,7.3,1.1,9c1.7,0.8,4,0.8,5.9,0.9c2.3,0.2,4.7,0.2,7,0.1
			c1.8-0.1,3.8-0.1,5.2-1.4C361.3,227.2,361.8,225.5,361.6,224z"/>
		<path class="st6" d="M320.7,209.1c-4.4-1.7-8.6,0.2-10.4,1c-8.3,4-13.7,14.5-11,18.6c0.9,1.4,3,2.3,4.6,2.6
			c2.4,0.5,4.3-0.3,4.8-0.5c3-1.3,3.2-3.5,6.2-4.2c0.5-0.1,1.4-0.3,2.5-0.1c2.2,0.4,2.8,1.8,4.7,1.9c1,0,1.8-0.4,2.5-0.8
			c2.7-1.5,3.5-4.7,3.6-5.3C329.3,217.6,326,211.1,320.7,209.1z"/>
		<path class="st1" d="M279.3,207.1c-5.1,0.2-5.6,5.4-12.3,8.4c-4.1,1.8-6.1,1.2-7.9,3.7c-1.2,1.6-2.1,4.2-1.2,6.4
			c0.8,2.1,2.7,3,3.7,3.5c3.3,1.7,4.6,0,8.7,1.6c2,0.7,2.5,1.4,4.5,1.8c1.1,0.2,2.6,0.4,4.3-0.3c0.5-0.2,2.5-1.1,3.3-3.2
			c1.1-2.6-0.4-4.7,0.3-8.4c0.5-2.5,1.6-3.1,2.2-4.6c0.3-0.7,0.3-1.3,0.4-1.8c0-0.4,0.3-4.1-2.1-6.1
			C281.8,207,279.9,207.1,279.3,207.1z"/>
		<path class="st4" d="M-263.5,91.5c-0.5-3.6-3.1-11.1-10.4-14c-1.1-0.4-4.5-1.7-8.8-0.8c-1.5,0.3-5.1,1.2-7.1,4.4
			c-0.3,0.6-1.3,2.3-1.1,4.5c0.1,0.6,0.2,2.5,1.6,3.8c1,0.9,2,1.2,3.4,1.5c3.1,0.7,3.6,0,6.4,0.5c1.5,0.3,3.3,0.9,4.2,2.3
			c0.6,0.9,0.3,1.1,0.9,2.5c0.5,1.1,1.2,2.6,2.8,3.4c1.9,0.9,3.9,0.1,4.4-0.1c1.5-0.6,2.6-1.8,3.2-3.3
			C-263.6,95.4-263.1,94-263.5,91.5z"/>
		<path class="st1" d="M-218.6,88.6c-1.7-2.6-4.9-3.4-7.2-5.3s-4-4.1-7.9-4.2c-3.2-0.1-6.2,1.4-8.8,3.2c-3.2,2.2-5.5,3.9-6.8,6.3
			c-0.4,0.7-0.8,1.5-1,2.6c-0.1,0.5-0.2,2.3,0.7,4c1.6,2.9,5.2,2.3,8.4,2.2c16.4-0.4,18.1-0.2,20.6-1.6
			C-217.9,94.2-216.8,91.3-218.6,88.6z"/>
		<path class="st1" d="M244.3-143.5c-2.7-5.2-9.1-8.2-14-6.8c-0.6,0.2-4,1.1-5.3,4.2c-1.1,2.6-0.6,6,3,9.5c2.6,2.5,1.5,3.7,2,6.8
			c0.7,4.8,7.9,8.4,13.1,0.3C243.7-130.3,247.8-136.9,244.3-143.5z"/>
		<path class="st4" d="M205.8-143.4c-0.1-1.5-0.4-3.1-1.6-4.2c-1.1-1-2.7-1.2-4.1-1.3c-3-0.1-7.1,0.2-9.8,1.6
			c-0.4,0.2-1.1,0.7-1.7,1.4c-0.7,0.8-1.3,1.9-1.8,5.3c-0.3,2.3-1.3,12.4,0.8,13.4c3.5,1.7,11.6-0.3,14.8-2.6c2.9-2,3.4-4.8,3.6-8.3
			C206-139.7,206-141.6,205.8-143.4z"/>
		<path class="st5" d="M-179,83.8c-2.7-2.7-5.2-1.1-11.2-2.3c-4.9-0.9-5.4-2.4-9.5-2.4c-1.6,0-4.5,0-6.8,1.9
			c-3.1,2.5-3.1,6.5-3.1,7.3s0,3.8,2.3,6.2c1.8,1.9,4,2.3,5.6,2.6c5.4,0.9,6.1-2,12-1.4c2.2,0.2,4.2,0.8,7-0.1
			c0.6-0.2,1.5-0.5,2.5-1.2c0.3-0.2,3.9-3,3.3-6.9C-177.4,85.5-178.7,84.1-179,83.8z"/>
		<path class="st3" d="M280.3-148.2c-0.8-1.8-3.3-3.1-6.5-2c-2.7,0.9-4.4,2.6-10.4,7.4c-1.7,1.4-3.4,2.1-4.4,4.2
			c-0.9,1.9-0.7,3.7-0.6,4.4c0.6,4.8,5,10.1,9.1,9.5c2.1-0.3,3.5-2,4-2.6c1.8-2.1,1.1-3.6,2.6-7.1c1-2.4,2.4-4.7,3.9-6.9
			C279.5-143.2,281.5-145.6,280.3-148.2z"/>
		<path class="st6" d="M151.8-142.5c-1.6,3.2-1.4,6.1-1,9.7c0.3,2.9,0.5,5.8,2.6,6.9c1.7,1,3.9,0.2,4,0.2c1.1-0.4,1.6-1,3.2-2.6
			c2-2,1.8-1.5,3.7-3.4c3.1-3.1,4.7-4.6,5.4-6.7c0.3-0.9,1.1-3.1,0.3-5.6c-1.1-3.2-4.4-5.2-7.3-5.5
			C157.6-150.1,153.5-145.8,151.8-142.5z"/>
		<path class="st5" d="M330.6-77.4c-1.1-4.8-4.1-9.3-7.6-10.8c-0.6-0.3-1.9-0.8-3.4-0.5c-1.7,0.3-2.7,1.4-3.1,1.7
			c-1.5,1.6-1.1,3-1.9,5.9c-1.3,4.4-3.6,5.4-4.5,10c-0.1,0.7-0.3,1.7,0,2.9c0,0,0.4,1.8,2,3.3c3.4,3.2,11.5,2.8,15.9-1.2
			c1.2-1.2,1.9-2.3,2.1-2.7C331.7-72.1,331-75.4,330.6-77.4z"/>
		<path class="st1" d="M236.8,292.7c0.4-2,1.7-2.9,1.2-4.6c-0.5-1.8-2.5-2.7-3.1-2.9c-0.8-0.4-2.8-1.1-7.5,0.1
			c-4.5,1.1-6.7,1.6-8.5,3.6c-3,3.4-3.3,9.1-0.9,12.5c1.5,2.1,2.6,1.1,8.2,4.1c5.1,2.8,8.2,5.7,11,5.1c1.7-0.4,2.7-1.5,2.7-1.5
			s0.6-0.7,0.9-1.8C241.8,303.3,235.6,298,236.8,292.7z"/>
		<path class="st2" d="M319.5,285.2c-4.6-0.1-11.2,1.7-15.8,7.2c-5,6-6.4,15-3.9,17c0.5,0.4,1.4,0.8,2.5,0.8c1.7-0.1,2.9-1.4,3.5-2
			c0,0,2.3-2.4,7.2-5.7c5.6-3.8,9.3-0.7,13.1-4.6c0.6-0.6,2.3-2.4,2.3-5c0.1-3.4-2.6-5.5-2.9-5.8
			C324.9,286.5,323.2,285.2,319.5,285.2z"/>
		<path class="st5" d="M365.6,297.9c0-0.3-0.2-1.5-1.3-3c-2.1-2.7-4-1.7-6.5-4c-2.1-2-1.5-3.6-4.1-5.5c-0.6-0.4-1.6-1.2-2.9-1.4
			c-3.3-0.7-6.4,2.1-7.9,3.4c-2.7,2.4-7.8,8.4-6,12.9c1,2.5,3.6,2.9,4.4,6.5c0.3,1.6,0.1,2.4,0.9,3.3c1.2,1.4,3.5,1.7,5.5,0.8
			c1.6-0.8,2.8-2.2,3.9-3.4c0.5-0.5,2.1-1.7,3.7-2.6c4.6-2.5,7.5-0.7,9.3-3.2C365.8,300.1,365.7,298.1,365.6,297.9z"/>
		<path class="st2" d="M433.9,296.8c-1.9-8.8-12-13.8-15.4-12.7c-0.3,0.1-1.1,0.4-1.5,1.1c-0.7,1.3,0.6,3.1,0.9,3.7
			c3,5.1-4.2,12.6-1.3,18.2c1.5,2.9,5,4.3,7.8,4.2c5.7-0.1,8.7-6.3,8.8-6.6C434.8,301.2,434.1,297.9,433.9,296.8z"/>
		<path class="st2" d="M-229,37.4c-5.3-0.7-19.3,8.8-16.9,18.7c0.9,3.7,3.8,6.7,7.1,8c6.3,2.5,13.8-1.4,16-6.3
			c0.7-1.6,0.9-3.1,0.9-3.4c0.2-3.4-1.6-4.2-2.8-8.6c-1.1-4-0.4-6.3-2.4-7.7C-227.1,38.1-227.9,37.5-229,37.4z"/>
		<path class="st7" d="M284.9,287.5c-0.8-2-3.1-3.3-5.1-3.5c-2.9-0.2-5.2,1.9-6.6,3.2c-1.7,1.7-1.6,2.5-3.4,3.7
			c-1.7,1.2-2.6,0.9-4.7,1.9c-0.7,0.3-3.5,1.6-5.4,4.2c-0.6,0.8-3.6,5.2-1.5,9.6c1.5,3.1,4.6,4.1,5,4.3c4.3,1.3,7.8-1.6,8.6-2.2
			c1.6-1.4,2.3-2.9,3.5-5.5c1.8-3.8,1-3.9,2.2-5.8c2.7-4.3,7.3-4.5,7.6-7.8C285.3,288.6,285,287.9,284.9,287.5z"/>
		<path class="st2" d="M236.8,249.7c-0.1-1.7-0.4-3.6-1.7-4.8s-3.2-1.4-4.9-1.4c-2.6,0-4.5,0.2-5.9,1.3c-1.3,0.9-1.9,2.2-2.4,3.6
			c-1.3,3.3-1.9,7-1.7,16.3c0.1,4.9,0.4,6.4,1.6,7.5c1.7,1.4,4,1,5.2,0.9c4.9-0.7,8-4.5,8.3-5C237.6,263.2,237.2,255,236.8,249.7z"
			/>
		<path class="st3" d="M328.7,243.2c-1.7-1-4.6,1-8.3,3.7c-6.3,4.6-9.4,9.1-10.4,10.5c-1.3,1.9-3.3,5.3-3.5,9.2c0,0.8,0,1.4,0.2,1.9
			c0.9,2.7,4.3,3.6,7.7,4.5c2.6,0.7,3.9,1,5.1,0.3c1.4-0.8,1.7-2.4,2-3.7c0.8-3.3,2.6-10.6,5.9-15.8c1.2-1.9,2.3-3.1,2.6-5.4
			C330,248.3,330.5,244.3,328.7,243.2z"/>
		<path class="st6" d="M-269.6,11.8c-0.6-5.3-2.4-10.6-5.4-13.3c-1.5-1.4-3.4-2.2-5.1-1.2c-1.9,1.2-2.5,4.3-3.1,7.2
			c-1.3,6.7-2.5,10.1-1.2,15.2c0.7,2.9,2.2,5,4,6.1c1.9,1.2,3.9,0.9,5.7-0.2C-270.6,23.1-268.5,21.2-269.6,11.8z"/>
		<path class="st7" d="M-300.2,4.4c-2.2-2.9-5.5-3.9-8.1-4.1c-3.9-0.4-7.9,0-11.7,0.8c-4.8,1-6.3,2.7-6.8,3.2
			c-0.5,0.6-2.6,2.7-2.4,5.3c0.1,1.6,1,2.8,5.9,6.7c6.2,4.9,9.4,7.3,12.8,7.2c2.3-0.1,4-0.9,5.4-1.6c1.8-0.8,6.2-3,7.2-7.2
			c0.5-2.1,0-3.9-0.4-5.7C-298.6,7.8-299,6-300.2,4.4z"/>
		<path class="st5" d="M-185.2,3.7c-2.8-4-7.5-5-9.1-5.4c-4.1-1.1-10.6-1.3-12,1.5c-0.4,0.9-0.2,1.8,0.2,3.1
			c2.5,8.5,3.7,12.8,4.2,14c3.3,7.8,4.8,8.7,5.8,9c0.8,0.3,2.3,0.2,5.1,0c1.1-0.1,1.3-0.1,9.5-2.1c0.7-0.2,1.5-0.4,2-1.1
			c0.5-0.8,0.2-2.1-0.2-4c-0.2-1.1-0.5-2.2-0.8-3.2C-181.4,12.3-183.3,6.3-185.2,3.7z"/>
		<path class="st1" d="M358.1,252.5c-1.6-1.6-2.5-2.5-3.8-2.7c-2-0.4-3.7,0.5-5.3,1.5c-1.6,1-3,2.1-4.5,3.3
			c-1.6,1.3-3.1,2.7-4.5,4.3c-1.4,1.6-2.8,4-2.1,5.6c0.5,1.3,2.1,1.4,14.4,2.4c3.3,0.3,7.2,0.6,10-1.5c1.2-0.9,1.5-1.7,1.7-2.1
			c0.1-0.5,0.4-1.5-1.6-5.1C361.3,256.5,360.2,254.6,358.1,252.5z"/>
		<path class="st5" d="M-178.1,203.2c-0.8-2.1-2.8-3-3.4-3.3c-3-1.5-6.1-0.5-7.4-0.1c-2.8,0.9-2.6,1.9-6.5,3.7
			c-2.8,1.3-5.7,2.2-6.2,2.3c-3.2,0.9-4.7,0.9-5.8,2.3c-1,1.3-0.9,2.9-0.9,3.3c0.2,3.1,2.9,5,4,5.8c0.4,0.3,2.3,1.6,5.3,2
			c4.1,0.6,7.3-0.7,9.9-1.8c2.9-1.3,5.8-3,8-5.3C-179.7,210.9-176.6,206.8-178.1,203.2z"/>
		<path class="st1" d="M-304.1,201.5c-4.3-1.1-7.6,0.8-20.3,4.5c-1.3,0.4-3,0.9-3.7,2.2c-1,1.8,0.9,4.1,1.9,5.2
			c1.1,1.3,2.9,3.4,5.9,3.9c2.8,0.4,4.1-1,11-4.4c7.4-3.7,11-4.4,11-6.5c0-1.5-1.8-3-2.1-3.2C-301.9,202-303.4,201.6-304.1,201.5z"
			/>
		<path class="st2" d="M277.5-30.9c-0.7-0.3-1.8-0.6-3.1-0.3c-1.7,0.4-2.5,1.9-2.8,2.7c-2.7,6.2-9.7,22.2-2.6,25.7
			c0.3,0.2,1.7,0.9,3.2,0.6c2.2-0.3,3.4-2.4,4-4.3c1.3-4.2,2.6-8.3,3.8-12.5c1.4-4.7,2.5-5.9,1.7-7.9
			C281.1-28.7,279.3-30.2,277.5-30.9z"/>
		<path class="st5" d="M243.6-28.3c-1.4-1-2.7-1.2-4.2-1.4c-4-0.7-7,0.3-12.2,2c-5.3,1.7-6.1,2.7-6.4,3.4c-0.8,1.6-0.4,3.2,0.7,6.5
			c2.7,8,4.1,12,5.8,13.2c4.9,3.4,11.7,0.7,13.3,0.1c0.4-0.2,9.5-3.9,9.7-9.9c0-0.7-0.8-2.8-2.5-6.8C245.8-26.1,245-27.4,243.6-28.3
			z"/>
		<path class="st2" d="M168.7-14.1c-0.2-1.4-0.4-1.3-0.5-2.5c-0.4-4.9,4.1-7.1,3.3-10.6c-0.4-1.6-1.9-2.8-3.1-3.2
			c-2.7-0.9-5.5,1.1-7,2.3c-4.2,3.1-3.3,5.3-6.9,9.2c-4.6,5-8.8,4.6-10.9,9.4c-0.4,0.9-1.2,2.9-0.3,4.5c0.1,0.2,0.8,1.2,2.6,1.7
			c5.1,1.3,7.7-3.9,14.2-3.9c3.2,0,4.1,1.1,5.9,0.3C167.8-7.6,169.4-9.9,168.7-14.1z"/>
		<path class="st1" d="M352.9,165.6c-2.1-0.8-4.2,0-6.1,0.9c-1.7,0.8-3.4,1.4-5.3,1c-1.9-0.3-3.6-1.2-5.1-2.4
			c-0.9-0.7-1.6-1.5-2.2-2c-1.2-1.3-1.6-1.9-2-2.4c-2-2.1-7.8-2.4-11,0.9c-1.6,1.7-2.6,3.8-2.7,5.9c-0.1,0.7-0.2,2.7,0.9,4.8
			c0.3,0.5,1.3,2.4,4.2,4c3.9,2.1,7.6,1.7,15.2,1.4c11.8-0.5,13.7-0.3,16-2.1C358,173.1,357.7,167.3,352.9,165.6z"/>
		<path class="st4" d="M411.1,125.7c-0.8-1.5-2.5-0.9-3.2-2.2c-1.3-2.4,2.5-5.4,1.1-8.5c-0.1-0.2-0.6-1.4-1.8-1.9
			c-1.2-0.5-2.3-0.2-2.7-0.1c-3.2,0.9-6.3,6-9.9,9.9c-4.3,4.7-8,6.6-9.7,10.8c-0.4,0.9-1.2,3.1-0.2,4.8c0.5,0.8,1.1,1.1,1.4,1.3
			c2.8,1.5,9.3,0.6,16.8-3.2c5.5-2.8,7.2-4.9,8-6.8C411.2,129,411.9,127.2,411.1,125.7z"/>
		<path class="st3" d="M-226.3,202.8c-1.1-1.8-4.7-5.3-10-5.8c-6.3-0.6-10.7,3.3-11.6,4.1c-1.3,1.2-4.9,4.4-4.4,8.2
			c0.2,1.2,0.8,2.5,2.6,4.6c1.5,1.6,6.4,6.7,8.2,7.4s3.6-0.6,4.5-2.1c0.6-1,1.2-3.1,2.9-5.7c0.6-0.8,0.8-1.3,1.3-1.7
			c2.2-2.2,4-1.5,5.8-3.5c0.3-0.3,1.4-1.6,1.3-3.3C-225.7,204-226.1,203.2-226.3,202.8z"/>
		<path class="st1" d="M187.4-48.4c-0.5-0.4-0.7-0.9-0.9-1.1c-1.7-2.9-0.4-6.4,0.6-9c1.6-4.1,2.6-6.7,5.4-8.2c4-2.1,8.5-0.1,11.2,1
			c0.5,0.2,9,4,8.7,9.2c0,0.8-0.3,1.4-0.4,1.7c-1,2.2-3.1,3.5-12.3,5.8C191.4-46.9,189-46.9,187.4-48.4z"/>
		<path class="st4" d="M269.7-60.9c0.9-1.1,1.9-2.3,1.9-2.3c1.6-2.2,1.7-2.7,2.4-3.6c1.6-2,4.8-3.8,7.6-2.9c0.1,0,2.3,0.8,3,2.9
			c0.1,0.4,0.4,1.6-0.5,3.8c-1.2,2.6-2.8,3.1-4.9,5.4c-2.5,2.7-1.5,3.2-4.8,7.5c-2.1,2.8-3.2,4.2-5.3,5c-0.5,0.2-3.3,1.2-6-0.3
			c-1.4-0.8-3.2-2.5-3.2-4.5c0-0.7,0.2-1.4,0.7-2.2C262.7-56.2,266.1-56.8,269.7-60.9z"/>
		<path class="st4" d="M-323.7,158.1c-0.8,0.9-0.6,2.6-0.2,6c0.6,5.4,1.1,9.3,4,11.7c1,0.9,2.3,1.3,4.7,2c3.4,1,12.2,3.7,15,0
			c0.6-0.8,0.7-1.6,0.9-2.3c0.2-1.3,0.2-3.2-1.9-6.6c-3.3-5.4-8-8.2-8.4-8.4C-313.6,158.3-321.3,155.3-323.7,158.1z"/>
		<path class="st6" d="M148.1-47.4c-1.4-0.9-1.9-2.2-2.1-2.8c-1.5-3.9,1.2-8.1,2.2-9.7c3.1-4.9,7.8-6.7,9-7.1
			c2.4-0.8,7.6-2.7,11.4,0.2c0.2,0.2,3.1,2.5,3,6.3c-0.1,3.5-2.7,6.4-5.4,7.1c-2.2,0.6-2.8-0.7-4.9-0.1c-2.9,0.9-2.5,3.8-5.8,5.8
			C153.4-46.6,150.3-45.9,148.1-47.4z"/>
		<path class="st3" d="M238.5-46.5c3.7-1.1,6-3.6,7.1-4.7c2-2.1,4-4.3,3.9-7.1c-0.1-1.9-1.6-3.7-4.6-7.3c-1.5-1.7-2.2-2.6-2.9-3
			c-3.6-1.9-8.2,0.6-10.5,1.8c-2.7,1.4-5.6,3-7.2,6.5c-0.2,0.4-2.9,6.4,0.4,10.9C228-44.7,235-45.4,238.5-46.5z"/>
		<path class="st7" d="M329.5,134.4c3,3,4.6,4.6,6.9,5.4c5.6,2.1,14.3-0.9,16.3-6.7c1-2.9,0.4-6.9-1.9-8.8c-1.3-1.1-2.3-0.6-6.4-1.7
			c-4.3-1.1-4.4-1.9-6.3-2.1c-5.6-0.7-12.7,4.9-12.3,9.1C326,130.9,327.2,132,329.5,134.4z"/>
		<path class="st2" d="M-179.9,154.9c2.1,1.1,2.8,3.4,3,4c0.2,0.7,0.6,2,0.1,3.5c-0.8,2.3-3.1,3.2-3.7,3.5c-1.4,0.5-1.6,0.2-3.3,0.8
			c-0.6,0.3-1.9,0.7-2.9,1.8c-0.7,0.6-1.2,1.4-2,3.8c-1.4,3.9-1,4.3-2,6.3c-0.7,1.3-1.6,2.8-3.3,3.6c-1.5,0.6-3,0.4-3.6,0.3
			c-0.5-0.1-2.4-0.5-5.3-3.5c-2-2.1-4.7-4.9-5.3-9.1c-0.1-1.1-0.3-2.5,0.4-4c0.9-2.2,2.9-3.2,4-3.8c2.6-1.3,3.5-0.4,7.2-1.7
			c1-0.3,2.3-1,4.9-2.3c4.1-2,4.5-2.5,6.4-3C-183.6,154.4-181.7,153.9-179.9,154.9z"/>
		<path class="st3" d="M291.6,43.2c2.5-2.2,5.9-5.1,10-4.6c2.3,0.3,4.2,1.7,6.1,3c3.2,2.2,2.6,3.1,5.1,4.5c2.3,1.3,3.4,0.9,6.8,2.8
			c1.9,1,2.4,1.6,2.8,2.2c0.9,1.6,0.7,3.9-0.1,5.2c-1.5,2.4-5.3,2.2-10.3,2.3c-15.4,0.4-21,3.6-25.3-0.6c-0.5-0.5-1.4-1.4-1.8-2.8
			C283.5,50.1,289.8,44.7,291.6,43.2z"/>
		<path class="st6" d="M-292,174.6c-0.1-0.5-0.5-3.1,1.2-6.9c0.5-1.2,4.3-9.4,12.2-10.7c1.4-0.2,5.2-0.8,7.8,1.3
			c1.3,1,1.3,1.8,3.1,3.3c2,1.6,2.9,1.2,4.1,2.7c0.3,0.3,1.7,2.1,1.4,4.4c-0.2,1.5-1.2,2.6-1.6,3c-2.2,2.3-4.5,1.6-8.7,3.6
			c-1.9,0.9-1.6,1.2-3.4,2.1c-4.6,2.4-12.1,3.6-14.9,0.2C-291.6,176.7-291.8,175.5-292,174.6z"/>
		<path class="st4" d="M-247.8,180.3c-0.4-0.1-2.2-0.6-3.2-2.4c-0.1-0.3-0.7-1.3-0.6-3c0.1-2.4,1.3-3.5,2.1-5.2
			c2.2-4.6-1.4-7.5,0.9-10.9c1-1.5,2.9-2.7,4.7-2.6c2,0.1,2.2,1.6,4.8,2.7c3,1.4,5.6-0.2,8.8,1.5c3.8,1.9,5.7,8.7,3.5,13.4
			c-0.2,0.5-1.9,4.5-5,4.7c-2.7,0.2-3.5-2-6.3-1.6c-2,0.3-1.9,1.5-5.4,2.7C-245,180.3-246.3,180.7-247.8,180.3z"/>
		<path class="st5" d="M-263.1,120.1c-1-1.4-2.6-1.9-3.6-2.1c-2.5-0.7-3.3,0.2-6.5,0.1c-3.4-0.1-4.4-1.5-7.1-0.9
			c-1.4,0.3-2.3,0.9-2.4,1.1c-0.8,0.6-1.2,1.2-2.2,2.5c-0.7,1-1.5,2-2.2,2.9c-2.4,2.7-3.8,2.6-4.6,4.6c-0.2,0.4-0.6,1.4-0.4,2.6
			c0.3,2.4,2.4,3.8,2.8,4.1c4.8,3.2,12.6-0.7,13.8-1.4c2.2-1.2,2.6-1.9,5.2-3c3.7-1.5,4.9-0.9,6.4-2.3
			C-262.1,126.3-261.5,122.4-263.1,120.1z"/>
		<path class="st6" d="M-174.9,124.2c0-0.6-0.2-2.8-1.9-4.7c-5.2-5.7-17.1,1-24.2-3.3c-0.5-0.3-2.2-1.4-3.9-0.9
			c-1.3,0.4-2.3,1.8-2.5,3.2c-0.2,1.9,1.3,2.4,1.6,4.3c0.4,3.1-3.3,3.9-4.2,8.4c-0.1,0.4-0.8,4.3,1.4,6c1.2,0.9,2.8,0.7,3.2,0.6
			c3.9-0.6,4.2-6,7.9-6c2.1,0,4.1,1,6.1,1.6c3.9,1.1,8.3,1.5,11.9-0.5C-176.7,131.4-174.6,127.7-174.9,124.2z"/>
		<path class="st7" d="M-227.6,123.9c0.3-2,0.8-2.6,1-4.6c0.1-1.5-0.5-3-1.9-3.7c-3.1-1.5-6.1,1-7.9,1.8c-1.8,0.7-3,0.4-4.4,0
			c-1.9-0.5-2.6-1.5-4.2-1.3c-0.3,0-1.5,0.2-2.2,1.2c-0.8,1-0.6,2.2-0.5,3.2c0,0.5,0.4,5.2-1.5,8.8c-0.6,1.1-1.5,2.5-1.9,4.7
			c-0.1,0.6-0.1,1,0,1.5c0.5,1.8,2.8,2.6,3.3,2.6c1.7,0.2,3.5,0.1,5.2-0.3c2.5-0.6,2.8-1.3,4.7-1.7c1.9-0.3,3.6,0,5.1,0.5
			c0.6,0.2,3.9,1.1,6-0.8c0.1-0.1,0.6-0.6,1-1.4C-224.5,131.1-228.3,128.5-227.6,123.9z"/>
		<path class="st7" d="M238.8-94.1c4.2-0.9,8.7-0.5,10.9-2.4c0.7-0.6,0.9-1.2,1-1.4c0.6-1.5-0.3-3.1-0.4-3.3c-0.2-0.3-0.6-1-1.4-1.5
			c-2.3-1.4-4.3,0.3-7.3-0.5c-1.6-0.4-2-1.1-3.3-1.9c-5.2-3.3-14-2.8-16.2,3c-1,2.5-0.8,6.2,0.7,8.2c0.1,0.2,0.2,0.3,0.3,0.3
			c2.2,2.4,5.9,2.2,7.3,2.1C234.4-91.6,234.2-93.1,238.8-94.1z"/>
		<path class="st2" d="M208.2-111.4c-6.5-4.7-17.5,2.4-21.1,8.8c-1.1,1.9-1.6,4.1-1.3,6.3c0.3,2.3,1.4,4.4,2.8,6.2
			c3.4,4.5,6.4,6.1,12,3.3c2-1,3.9-2.4,5.7-3.7c1.8-1.4,3.5-3,4.6-4.7C213.6-99.9,212.7-108,208.2-111.4z"/>
		<path class="st2" d="M-300.7,117.3c-0.6-0.6-2.3-1.8-13-0.2c-5.9,0.9-8.9,1.4-10.2,3c-2,2.5-1.7,5.9-0.5,11.1
			c0.6,2.7,1.3,5.3,5.4,5.7c1.9,0.2,3.8-0.3,5.6-0.6c6.1-1.1,5.9-0.4,7.8-1.4c2.3-1.3,3.5-3.3,5-5.8c1.2-2.1,2-3.3,2.1-5.2
			C-298.4,123.6-298.2,119.6-300.7,117.3z"/>
		<path class="st1" d="M383.7,89.5c-0.9-2.7-2.3-5.5-4-8c-1.5-2.1-2.6-3.2-3.9-3.8c-1.5-0.7-2.3-0.5-6.6-0.5c-1.6,0-6-0.1-9-0.1
			c-2,0-4.8-0.1-5.8,1.2c-0.7,0.8-0.8,1.9-0.3,2.9c0.5,0.9,1.4,1.5,2.2,2.1c1.5,1.2,3.3,2.1,5,2.9c4,1.9,8,3.8,12.1,5.6
			c1.9,0.9,3.8,1.9,5.8,2.3c1.7,0.4,4.3,0.6,5-1.5C384.5,91.6,384,90.5,383.7,89.5z"/>
		<path class="st5" d="M173.4-107.9c-2.6-2.2-6.4-1.8-8.7-0.7c-0.4,0.2-1.4,1-3.4,2.7c-1.7,1.4-2.8,2.3-4.5,3c-2.7,1.1-3.4,0-7,0.5
			c-0.8,0.1-4,0.5-6.2,2.9c-1.8,1.9-3.3,5.6-1.6,8.1c2.1,3.2,7.6,2.1,8,2c2-0.4,2.2-1.2,4-1.4c2.9-0.4,4,1.3,6.8,1.9
			c4.3,0.9,9-1.6,11.6-4.5c0.7-0.8,2.7-3.1,3.2-6.6C175.8-101.3,176.3-105.5,173.4-107.9z"/>
		<path class="st4" d="M387.3,13.7c-1.8-1.7-4.1-1.9-4.6-2c-0.5,0-0.7,0-1.3,0c0,0-2.6,0.1-5.5-0.3c-4.5-0.7-9-3.1-10.1-3.8
			c-0.1-0.1-0.5-0.3-0.9-0.4c-1.4-0.4-3.3-0.1-4.4,1.1c-1,1.1-1,2.5-0.9,3.2c0.1,2,1.1,3.7,2.1,5.4c0.9,1.5,1.8,3.1,1.7,4.9
			c-0.1,1.8-0.6,3.7,0.7,5.3c0.9,1.1,2.4,1.6,3.9,1.6c1.7,0,3.2-0.7,4.7-1.3c1.7-0.7,1.9-0.8,2.6-0.8c1.3-0.1,1.8,0.2,3.5,0.5
			c0,0,1.8,0.2,3.4,0.1c1-0.1,5.7-1.1,7.1-5.4C390,18.9,389.4,15.7,387.3,13.7z"/>
	</g>
	<g id="Document">
		<path class="st8" d="M38.7,67.4C39,77.8,50,84.5,59.2,79.8C64.9,76.9,70.4,73.1,74,68c12.5-17.6,0.8-48.5-14.7-57.4
			s-38.9-1.2-45.2,7.1s3.3,10.2,21.6,28.4C37.4,47.8,38.5,59.7,38.7,67.4z"/>
		<g class="st9">
			<g>
				<path class="st10" d="M54.7,22.9h-24c-2.2,0-4,1.8-4,4v40c0,2.2,1.8,4,4,4h30c2.2,0,4-1.8,4-4v-34h-10L54.7,22.9z"/>
				<polygon class="st10" points="54.7,22.9 54.7,32.9 64.7,32.9 				"/>
			</g>
			<path class="st10" d="M49.7,17.9h-24c-2.2,0-4,1.8-4,4v40c0,2.2,1.8,4,4,4h1v-39c0-2.2,1.8-4,4-4h19h5L49.7,17.9z"/>
			<g>
				<path class="st10" d="M56.7,56.9h-22l0,0l0,0H56.7C56.7,56.9,56.8,56.9,56.7,56.9C56.8,56.9,56.7,56.9,56.7,56.9z"/>
				<path class="st10" d="M56.7,50.9h-22l0,0l0,0H56.7C56.7,50.9,56.8,50.9,56.7,50.9C56.8,50.9,56.7,50.9,56.7,50.9z"/>
				<path class="st10" d="M56.7,44.9h-22l0,0l0,0H56.7C56.7,44.9,56.8,44.9,56.7,44.9C56.8,44.9,56.7,44.9,56.7,44.9z"/>
				<path class="st10" d="M56.7,38.9h-22l0,0l0,0H56.7C56.7,38.9,56.8,38.9,56.7,38.9C56.8,38.9,56.7,38.9,56.7,38.9z"/>
			</g>
		</g>
	</g>
	<g id="Calendar">
		<path class="st11" d="M41.3,57.3c-1.9-13.9,18.8-29,18.9-39c0-0.7,0-2.8-1.3-4.4c-1.8-2.1-4.9-2.1-6.3-2.1
			c-6.5,0-13.5,4.1-20.4,8.2C19.3,27.6,13,31.7,9.7,38.6c-0.5,1.1-0.7,1.7-0.8,2c-1.4,5.3,3,11.7,8.6,19.9
			c8.5,12.2,9.8,14.8,14.1,17c1.7,0.8,6.8,3.4,10.1,1.2c1.1-0.7,2.1-2,2.7-4.5C46.3,67.1,42,62.8,41.3,57.3z"/>
		<g class="st9">
			<path class="st12" d="M16.2,35.3v28.2c0,4.1,3.3,7.4,7.4,7.4h39.3c4.1,0,7.4-3.3,7.4-7.4V35.3H16.2z"/>
			<path class="st12" d="M62.9,21.8h-1.5V24c0,1.6-1.3,2.9-2.9,2.9c-1.6,0-2.9-1.3-2.9-2.9v-2.2H31V24c0,1.6-1.3,2.9-2.9,2.9
				s-2.9-1.3-2.9-2.9v-2.2h-1.5c-4.1,0-7.4,3.3-7.4,7.4v6.1h54v-6.1C70.3,25.1,67,21.8,62.9,21.8z"/>
			<g>
				<path class="st12" d="M28,16.7c-1.6,0-2.9,1.3-2.9,2.9V24c0,1.6,1.3,2.9,2.9,2.9s3-1.2,3-2.9v-4.4C31,18,29.7,16.7,28,16.7z"/>
				<path class="st12" d="M58.5,16.7c-1.6,0-2.9,1.3-2.9,2.9V24c0,1.6,1.3,2.9,2.9,2.9c1.6,0,2.9-1.3,2.9-2.9v-4.4
					C61.4,18,60.1,16.7,58.5,16.7z"/>
			</g>
			<g>
				<polygon class="st12" points="50.2,59.3 50.2,47 50.2,47 50.2,47 47.8,49.4 47.8,49.5 50.2,47 50.2,59.3 48.4,59.3 48.4,59.3 
					52.1,59.3 52.1,59.3 				"/>
				<path class="st12" d="M42,53.3c-0.3-0.3-0.6-0.6-1.1-0.8c0.4-0.4,0.8-0.8,1-1.1c0.2-0.4,0.4-0.9,0.4-1.4c0-0.4-0.1-0.8-0.2-1.2
					c-0.2-0.4-0.4-0.7-0.7-1s-0.7-0.5-1.1-0.6C39.7,47,39.2,47,38.7,47c-0.6,0-1.2,0.1-1.7,0.3s-0.9,0.4-1.2,0.7s-0.6,0.6-0.8,0.9
					c-0.2,0.3-0.3,0.6-0.3,0.9l0,0c0-0.3,0.1-0.6,0.3-0.9c0.2-0.3,0.4-0.6,0.8-0.9c0.3-0.3,0.7-0.5,1.2-0.7s1-0.3,1.6-0.3
					c0.5,0,1,0.1,1.4,0.2c0.4,0.1,0.8,0.4,1.1,0.6c0.3,0.3,0.6,0.6,0.7,0.9c0.2,0.4,0.2,0.7,0.2,1.2s-0.1,1-0.4,1.4
					c-0.2,0.4-0.6,0.8-1,1.1H39l0,0h1.8C41.3,52.7,41.7,53,42,53.3s0.5,0.6,0.6,1s0.2,0.7,0.2,1.2s-0.1,1-0.3,1.4
					c-0.2,0.5-0.5,0.9-0.9,1.2c-0.4,0.4-0.8,0.6-1.4,0.9c-0.5,0.2-1.1,0.3-1.8,0.3s-1.2-0.1-1.8-0.4c-0.5-0.2-0.9-0.5-1.3-0.9
					c-0.3-0.4-0.6-0.7-0.8-1.1c-0.2-0.4-0.3-0.7-0.3-0.9l0,0c0,0.2,0.1,0.6,0.3,0.9c0.2,0.4,0.4,0.7,0.8,1.1
					c0.3,0.4,0.8,0.6,1.3,0.9c0.5,0.2,1.1,0.4,1.8,0.4c0.6,0,1.2-0.1,1.8-0.3c0.5-0.2,1-0.5,1.4-0.9s0.7-0.8,0.9-1.2
					c0.2-0.5,0.3-1,0.3-1.4s-0.1-0.8-0.2-1.2C42.5,53.9,42.3,53.6,42,53.3z"/>
			</g>
		</g>
	</g>
	<g id="Events_List_1">
		<path class="st13" d="M19.4,17C5,30.5,9.5,55.1,17.5,67c2,3,6.3,8.4,13,8.9c5.8,0.4,10.9-3.6,13.9-8.8c7.1-12.2,0.5-23.6,6.7-36.6
			c1.5-3.2,3.9-6,5.1-9.4c1.1-3,0.9-6.5-1.4-8.4C48.4,7.4,30.6,6.5,19.4,17z"/>
		<g class="st9">
			<g>
				<path class="st12" d="M61.9,18.6h-1.4v2.1c0,1.6-1.3,2.8-2.8,2.8c-1.6,0-2.8-1.3-2.8-2.8v-2.1H31.4v2.1c0,1.6-1.3,2.8-2.8,2.8
					s-2.8-1.3-2.8-2.8v-2.1h-1.4c-3.9,0-7.1,3.2-7.1,7.1v5.9H69v-5.9C69,21.7,65.8,18.6,61.9,18.6z"/>
				<path class="st12" d="M64.3,49.2c1.7,0,3.3,0.4,4.7,1V31.5H17.2v27.1c0,3.9,3.2,7.1,7.1,7.1h29.2c-0.6-1.4-1-3-1-4.7
					C52.5,54.4,57.8,49.2,64.3,49.2z"/>
				<path class="st12" d="M28.5,13.6c-1.6,0-2.8,1.3-2.8,2.8v4.2c0,1.6,1.3,2.8,2.8,2.8s2.8-1.3,2.8-2.8v-4.2
					C31.4,14.9,30.1,13.6,28.5,13.6z"/>
				<path class="st12" d="M57.7,13.6c-1.6,0-2.8,1.3-2.8,2.8v4.2c0,1.6,1.3,2.8,2.8,2.8c1.6,0,2.8-1.3,2.8-2.8v-4.2
					C60.5,14.9,59.3,13.6,57.7,13.6z"/>
				<g>
					<ellipse class="st14" cx="26.7" cy="41.5" rx="0.6" ry="0.6"/>
					<ellipse class="st14" cx="34.9" cy="41.5" rx="0.6" ry="0.6"/>
					<ellipse class="st14" cx="43.1" cy="41.5" rx="0.6" ry="0.6"/>
					<ellipse class="st14" cx="51.4" cy="41.5" rx="0.6" ry="0.6"/>
					<ellipse class="st14" cx="59.6" cy="41.5" rx="0.6" ry="0.6"/>
					<ellipse class="st14" cx="26.7" cy="48.3" rx="0.6" ry="0.6"/>
					<ellipse class="st14" cx="34.9" cy="48.3" rx="0.6" ry="0.6"/>
					<ellipse class="st14" cx="43.1" cy="48.3" rx="0.6" ry="0.6"/>
					<ellipse class="st14" cx="51.4" cy="48.3" rx="0.6" ry="0.6"/>
					<ellipse class="st14" cx="26.7" cy="55.1" rx="0.6" ry="0.6"/>
					<ellipse class="st14" cx="34.9" cy="55.1" rx="0.6" ry="0.6"/>
					<ellipse class="st14" cx="43.1" cy="55.1" rx="0.6" ry="0.6"/>
				</g>
			</g>
			<g>
				<circle class="st12" cx="64.3" cy="60.9" r="11.8"/>
				<g>
					<g>
						<rect x="64.3" y="52.2" class="st12" width="0" height="0.5"/>
						<rect x="64.3" y="69.6" class="st12" width="0" height="0.5"/>
						<polygon class="st12" points="55.3,61.2 55.8,61.2 55.8,61.2 						"/>
						<polygon class="st12" points="72.8,61.2 73.3,61.2 73.3,61.2 						"/>
					</g>
					<path class="st12" d="M65.6,61.2c0,0.7-0.6,1.3-1.3,1.3c-0.7,0-1.3-0.6-1.3-1.3s0.6-1.3,1.3-1.3C65,59.9,65.6,60.5,65.6,61.2z"
						/>
					<g>
						<rect x="64.3" y="55.4" class="st12" width="0" height="4.5"/>
						<polygon class="st12" points="65.6,61.2 69,61.2 69,61.2 						"/>
					</g>
				</g>
			</g>
		</g>
	</g>
	<g id="Book">
		<path class="st15" d="M54.1,11.1c-6-2-11.3,1-12.3,1.6c-5.9,3.4,1.3,21-5.3,29.8c-6.2,8.2-19.1,2.4-22.1,9.3
			c-0.8,1.9-4.3,7.6-2.3,14.7c2.8,10,17.9,12.5,27,13.3C54.7,81.1,65.9,61,68.6,47.3c0.5-2.5,2.1-12.4-2.8-23
			C63.9,20.3,60.7,13.4,54.1,11.1z"/>
		<g class="st9">
			<g>
				<g>
					<path class="st12" d="M20.8,65V27.6h-4.6V69h29.9v-4c-3.8-1.9-8.1-2.9-12.6-2.9S24.7,63.1,20.8,65z"/>
					<g>
						<path class="st12" d="M46.1,24.8c-3.8-1.9-8.1-2.9-12.6-2.9s-8.8,1-12.6,2.9V65c3.8-1.9,8.1-2.9,12.6-2.9s8.8,1,12.6,2.9V24.8
							z"/>
						<g>
							<path class="st12" d="M40.4,31.8c-2.3-0.6-4.6-0.8-6.9-0.8c-2.3,0-4.6,0.3-6.9,0.8l0,0c2.3-0.6,4.6-0.8,6.9-0.8
								C35.8,30.9,38.1,31.2,40.4,31.8L40.4,31.8z"/>
							<path class="st12" d="M40.4,38.7c-2.3-0.6-4.6-0.8-6.9-0.8c-2.3,0-4.6,0.3-6.9,0.8l0,0c2.3-0.6,4.6-0.8,6.9-0.8
								C35.8,37.8,38.1,38.1,40.4,38.7L40.4,38.7z"/>
							<path class="st12" d="M40.4,45.6c-2.3-0.6-4.6-0.8-6.9-0.8c-2.3,0-4.6,0.3-6.9,0.8l0,0c2.3-0.6,4.6-0.8,6.9-0.8
								C35.8,44.7,38.1,45,40.4,45.6L40.4,45.6z"/>
							<path class="st12" d="M40.4,52.5c-2.3-0.6-4.6-0.8-6.9-0.8c-2.3,0-4.6,0.3-6.9,0.8l0,0c2.3-0.6,4.6-0.8,6.9-0.8
								C35.8,51.6,38.1,51.9,40.4,52.5L40.4,52.5z"/>
						</g>
					</g>
				</g>
				<path class="st12" d="M71.4,65V27.6H76V69H46.1v-4c3.8-1.9,8.1-2.9,12.6-2.9S67.6,63.1,71.4,65z"/>
				<path class="st12" d="M64.5,22.5v33.3L46.1,65l0,0c3.8-1.9,8.1-2.9,12.6-2.9s8.8,1,12.6,2.9V24.8C69.2,23.7,66.9,22.9,64.5,22.5
					z"/>
			</g>
			<g>
				<polygon class="st12" points="64.5,55.8 46.1,65 46.1,24.8 64.5,15.6 				"/>
				<g>
					<polygon class="st12" points="51.9,31.1 51.9,31.1 58.8,27.6 58.8,27.7 					"/>
					<polygon class="st12" points="51.9,38 51.9,38 58.8,34.5 58.8,34.6 					"/>
					<polygon class="st12" points="51.9,44.9 51.9,44.9 58.8,41.4 58.8,41.4 					"/>
					<polygon class="st12" points="51.9,51.8 51.9,51.8 58.8,48.3 58.8,48.3 					"/>
				</g>
			</g>
		</g>
	</g>
	<g id="Podcast">
		<path class="st16" d="M45.4,79.5c3.4,1.9,8.3-1.5,11.5-3.7c0.7-0.5,5.2-3.6,8.4-8.2c8.6-12.5,6-33.4,5.7-35.8
			c-1.2-10-6-20.8-15.9-21.2c-3.4-0.1-6.8,0.9-9,3.5c-2.6,2.9-2.4,6.8-2.3,10.7c-0.6,2.2-1.1,4.4-1.7,6.6c-1.9,2.8-5.2,6.1-5.3,11
			c-0.1,5.2,2.6,10.4,6.1,14c0.7,0.7,1.9,2,2.5,4.1c0.6,2.2,0.2,4.2-0.2,6c-1,4.4-2.6,4.9-2.5,7.5C42.5,75.8,43.4,78.4,45.4,79.5z"
			/>
		<g class="st9">
			<line class="st17" x1="43.5" y1="64.6" x2="43.5" y2="74.5"/>
			<line class="st17" x1="34.3" y1="74.5" x2="52.8" y2="74.5"/>
			<path class="st17" d="M65.8,42.4c0,12.3-10,22.3-22.3,22.3s-22.3-10-22.3-22.3"/>
			<path class="st17" d="M28.6,41.1V28.2c0-8.3,6.7-15,15-15s15,6.7,15,15v12.9"/>
			<path class="st17" d="M58.5,41.1v1.3c0,8.3-6.7,15-15,15s-15-6.7-15-15v-1.3"/>
			<line class="st17" x1="29.5" y1="26.1" x2="36.9" y2="26.1"/>
			<line class="st17" x1="50.2" y1="26.1" x2="58.1" y2="26.1"/>
			<line class="st17" x1="28.6" y1="34.8" x2="36.9" y2="34.8"/>
			<line class="st17" x1="50.2" y1="34.8" x2="58.5" y2="34.8"/>
			<line class="st17" x1="29.5" y1="43.5" x2="36.9" y2="43.5"/>
			<line class="st17" x1="50.2" y1="43.5" x2="58.1" y2="43.5"/>
		</g>
	</g>
	<g id="Activity">
		<path class="st18" d="M57.5,15.4C57.5,15.4,57.4,15.4,57.5,15.4c-1.4-1-2.5-1.5-3.3-1.7c-4.9-1.4-9.8,1.3-19.1,6.7
			c-0.9,0.5-2.2,1.3-3.1,2.8c-0.9,1.6-0.7,3.1-0.6,3.5c0.6,4.3,1.9,32.8,0.5,40.4c-0.7,3.7-0.4,5.9,1.6,7.7c4.6,4,16.1,2,22.5-0.1
			c2.4-0.8,11.3-2.3,14.2-8.5C74.7,56.9,62.1,19.3,57.5,15.4z"/>
		<g class="st9">
			<path class="st19" d="M65.9,18.9c0,2.8-2.3,5.1-5.1,5.1s-5.1-2.3-5.1-5.1s2.3-5.1,5.1-5.1C63.7,13.8,65.9,16.1,65.9,18.9z"/>
			<g>
				<path class="st19" d="M52.8,47.4l12.3,6.9c0.9,0.4,1.5,1.2,1.6,2.2l2.4,15.2c0.3,1.6-0.8,3.1-2.4,3.4c-0.2,0-0.5,0-0.7,0
					c-1.3-0.1-2.5-1.1-2.7-2.5L61.2,59l-12.3-6"/>
			</g>
			<g>
				<path class="st19" d="M60.3,32.5l5,8l6.7-2.3c1.2-0.4,2.6,0.2,3,1.4s-0.2,2.6-1.4,3l-8.4,2.9c-0.3,0.1-0.5,0.1-0.8,0.1
					c-0.8,0-1.6-0.4-2-1.1l-4.5-7.2"/>
			</g>
			<g>
				<line class="st19" x1="34" y1="35.7" x2="21.6" y2="35.7"/>
				<line class="st19" x1="29.2" y1="30.4" x2="19" y2="30.4"/>
				<line class="st19" x1="36.3" y1="24.4" x2="24.5" y2="24.4"/>
			</g>
			<g>
				<path class="st19" d="M55,31.8L43.1,35l-2.4,8.9c-0.3,1-1.2,1.7-2.3,1.7c-0.2,0-0.4,0-0.6-0.1c-1.3-0.3-2-1.6-1.7-2.9l2.7-10.2
					c0.2-0.8,0.8-1.4,1.6-1.7c2.8-0.8,10.4-2.9,13.2-3.6c1.5-0.4,3-0.9,4.5-0.2c2.1,1,3.1,3.5,2.1,5.6L50.5,51
					C48.7,54.3,38,63.3,38,63.3c-0.3,0.2-1.1,0.5-1.9,0.5c0,0,0,0-0.1,0L22.3,63c-1.6,0-2.9-1.4-2.9-3s1.4-2.9,3-2.9l12.4,0.7
					c0,0,8-8.7,9.5-11.2l6.4-13.5"/>
			</g>
		</g>
	</g>
	<g id="Article">
		<path class="st20" d="M20,20.8c-5.5,10-5.6,23.3-1.8,33.6c2.3,6.2,5.6,10.2,6.4,11.1c4.8,5.5,9.8,7.7,17.1,10.2
			c4.3,1.5,8.4,2.7,12.3,3.5c3.4,0.8,5,1.2,7,1.3c3.6,0.2,7.5,0.4,10.1-2.8c1.6-2,2-4.5,2.2-6.1c1.1-10.5-6.5-18.2-10.6-25.2
			c-7.1-12.1-0.3-20.5-5.4-32c-0.9-2.1-2.3-4.1-4-5.3c-2.2-1.6-4.5-1.9-6.9-1.7C26.4,9.8,20,20.8,20,20.8z"/>
		<g class="st9">
			<line class="st21" x1="46.6" y1="29.2" x2="62.2" y2="29.2"/>
			<line class="st21" x1="46.6" y1="35.2" x2="62.2" y2="35.2"/>
			<line class="st21" x1="46.6" y1="41.3" x2="62.2" y2="41.3"/>
			<line class="st21" x1="46.6" y1="47.3" x2="62.2" y2="47.3"/>
			<line class="st21" x1="10.7" y1="55.5" x2="78.2" y2="55.5"/>
			<line class="st21" x1="30.9" y1="47.3" x2="30.9" y2="29.2"/>
			<polyline class="st21" points="22.5,32.8 22.5,29.2 39.3,29.2 39.3,32.8 			"/>
		</g>
		<g class="st9">
			<path class="st21" d="M76.1,60.7H12.8c-1.2,0-2.1-0.9-2.1-2.1V19.3c0-1.2,0.9-2.1,2.1-2.1h63.3c1.2,0,2.1,0.9,2.1,2.1v39.3
				C78.2,59.8,77.2,60.7,76.1,60.7z"/>
			<rect x="34.6" y="60.7" class="st21" width="19.6" height="10.9"/>
			<line class="st21" x1="23.7" y1="71.6" x2="65.1" y2="71.6"/>
		</g>
	</g>
	<g id="Video_Conferencing">
		<path class="st22" d="M34.7,71.4C34.9,82.7,44.9,90,53.3,84.9c5.2-3.2,10.2-7.3,13.5-12.9c11.4-19.2,0.7-52.8-13.4-62.5
			S18,8.2,12.3,17.3s3,11.1,19.6,30.9C33.5,50,34.5,63,34.7,71.4z"/>
		<g class="st9">
			<path class="st23" d="M53.8,53.5c0,1.5-1.2,2.7-2.7,2.7H29.3c-1.5,0-2.7-1.2-2.7-2.7V34.3c0-1.5,1.2-2.7,2.7-2.7h21.8
				c1.5,0,2.7,1.2,2.7,2.7V53.5z"/>
			<path class="st23" d="M53.8,39.8l8.8-5.3c0.2-0.1,0.4-0.2,0.7-0.2c0.7,0,1.4,0.6,1.4,1.4v16.4c0,0.8-0.6,1.4-1.4,1.4
				c-0.3,0-0.5-0.1-0.7-0.2L53.8,48"/>
		</g>
		<circle class="st24" cx="43.6" cy="43.7" r="30.7"/>
		<circle class="st24" cx="43.9" cy="43.9" r="34.9"/>
	</g>
	<g id="Info_Graphic">
		<path class="st25" d="M14.8,62.1c2.1,3.8,7.8,14.4,18.8,18c2.3,0.8,6.2,2,10.5,0.4c4.5-1.6,6.9-5.4,7.6-6.5
			c4.1-6.9,1.7-15.7-0.6-24.1c-1.5-5.4-1.9-4.3-2.5-7.8c-1.8-9.4,1.7-14-1.1-21.1c-0.6-1.4-1.6-4-4-6.1c-6.8-5.9-20.4-3.8-27.8,3.9
			c-6.4,6.6-8.8,12.8-8.4,18.8C8.2,51.9,13.1,58.9,14.8,62.1z"/>
		<g class="st9">
			<circle class="st12" cx="43.7" cy="44.3" r="29.5"/>
			<g>
				<g>
					<g>
						<defs>
							<path id="SVGID_00000134232874624588189700000005559799100810407562_" d="M43.7,14.8v29.5h29.5C73.2,28,60,14.8,43.7,14.8z"
								/>
						</defs>
						<clipPath id="SVGID_00000037670277199242490790000000242427489589892028_">
							<use xlink:href="#SVGID_00000134232874624588189700000005559799100810407562_"  style="overflow:visible;"/>
						</clipPath>
						<g style="clip-path:url(#SVGID_00000037670277199242490790000000242427489589892028_);">
							
								<rect x="-26.6" y="15.6" transform="matrix(0.7066 -0.7076 0.7076 0.7066 -6.6636 15.2405)" class="st27" width="83.3" height="0.1"/>
							
								<rect x="-21.4" y="20.8" transform="matrix(0.7076 -0.7066 0.7066 0.7076 -8.8189 20.3996)" class="st27" width="83.3" height="0.1"/>
							
								<rect x="-16.2" y="26" transform="matrix(0.7071 -0.7071 0.7071 0.7071 -10.9752 25.6151)" class="st27" width="83.3" height="0.1"/>
							
								<rect x="-11" y="31.2" transform="matrix(0.7071 -0.7071 0.7071 0.7071 -13.1312 30.81)" class="st27" width="83.3" height="0.1"/>
							
								<rect x="-5.8" y="36.4" transform="matrix(0.7066 -0.7076 0.7076 0.7066 -15.2876 36.041)" class="st27" width="83.3" height="0.1"/>
							
								<rect x="-0.6" y="41.6" transform="matrix(0.7071 -0.7071 0.7071 0.7071 -17.4431 41.1999)" class="st27" width="83.3" height="0.1"/>
							
								<rect x="4.6" y="46.9" transform="matrix(0.7076 -0.7066 0.7066 0.7076 -19.628 46.4194)" class="st27" width="83.3" height="0.1"/>
							
								<rect x="9.9" y="52" transform="matrix(0.7071 -0.7071 0.7071 0.7071 -21.6829 51.6795)" class="st27" width="83.3" height="0.1"/>
							
								<rect x="15.1" y="57.3" transform="matrix(0.7071 -0.7071 0.7071 0.7071 -23.9299 56.9419)" class="st27" width="83.3" height="0.1"/>
							
								<rect x="20.3" y="62.5" transform="matrix(0.7071 -0.7071 0.7071 0.7071 -26.0842 62.1386)" class="st27" width="83.3" height="0.1"/>
							
								<rect x="25.5" y="67.7" transform="matrix(0.7076 -0.7066 0.7066 0.7076 -28.2394 67.2664)" class="st27" width="83.3" height="0.1"/>
							
								<rect x="30.7" y="72.9" transform="matrix(0.7071 -0.7071 0.7071 0.7071 -30.3959 72.5286)" class="st27" width="83.3" height="0.1"/>
						</g>
					</g>
				</g>
				<g>
					<path id="SVGID_1_" class="st12" d="M43.7,14.8v29.5h29.5C73.2,28,60,14.8,43.7,14.8z"/>
				</g>
			</g>
			<g>
				<path class="st12" d="M22.9,65.1c11.5,11.5,30.2,11.5,41.7,0L43.7,44.3L22.9,65.1z"/>
				<g>
					<g>
						<g>
							<defs>
								<path id="SVGID_00000169545755532998367210000001974411707274352275_" d="M22.9,65.1c11.5,11.5,30.2,11.5,41.7,0L43.7,44.3
									L22.9,65.1z"/>
							</defs>
							<clipPath id="SVGID_00000109738153020535719730000012700324433948377757_">
								<use xlink:href="#SVGID_00000169545755532998367210000001974411707274352275_"  style="overflow:visible;"/>
							</clipPath>
							<g style="clip-path:url(#SVGID_00000109738153020535719730000012700324433948377757_);">
								<path class="st12" d="M57.6,65.4c0,0-0.1,0-0.2-0.1c-0.1-0.1-0.1-0.3,0-0.4s0.1-0.1,0.2-0.1c0,0,0.1,0,0.2,0.1
									c0.1,0.1,0.1,0.3,0,0.4C57.7,65.3,57.7,65.4,57.6,65.4z M54.1,61.9c0,0-0.1,0-0.2-0.1c-0.1-0.1-0.1-0.3,0-0.4
									c0.1-0.1,0.1-0.1,0.2-0.1c0,0,0.1,0,0.2,0.1c0.1,0.1,0.1,0.3,0,0.4C54.3,61.9,54.2,61.9,54.1,61.9z M50.7,58.4
									c0,0-0.1,0-0.2-0.1c-0.1-0.1-0.1-0.3,0-0.4c0.1-0.1,0.1-0.1,0.2-0.1c0,0,0.1,0,0.2,0.1c0.1,0.1,0.1,0.2,0,0.3
									C50.8,58.4,50.7,58.4,50.7,58.4z M47.2,55c0,0-0.1,0-0.2-0.1c-0.1-0.1-0.1-0.2,0-0.3s0.1-0.1,0.2-0.1c0,0,0.1,0,0.2,0.1
									c0.1,0.1,0.1,0.2,0,0.3C47.3,55,47.2,55,47.2,55z M43.7,51.5c-0.1,0-0.1,0-0.2-0.1c-0.1-0.1-0.1-0.2,0-0.3s0.1-0.1,0.2-0.1
									c0,0,0.1,0,0.2,0.1c0.1,0.1,0.1,0.2,0,0.3C43.8,51.5,43.8,51.5,43.7,51.5z M40.2,48c-0.1,0-0.1,0-0.2-0.1
									c-0.1-0.1-0.1-0.2,0-0.3s0.1-0.1,0.2-0.1c0,0,0.1,0,0.2,0.1c0.1,0.1,0.1,0.3,0,0.4C40.4,48,40.3,48,40.2,48z"/>
								<path class="st12" d="M57.6,72.3C57.6,72.3,57.5,72.3,57.6,72.3c-0.2-0.2-0.2-0.2-0.2-0.3s0-0.1,0.1-0.2s0.1-0.1,0.2-0.1
									c0,0,0.1,0,0.2,0.1c0.1,0.1,0.1,0.2,0,0.3C57.7,72.3,57.6,72.3,57.6,72.3z M54.1,68.8c0,0-0.1,0-0.2-0.1
									c-0.1-0.1-0.1-0.3,0-0.4s0.1-0.1,0.2-0.1c0,0,0.1,0,0.2,0.1c0.1,0.1,0.1,0.3,0,0.4C54.3,68.8,54.2,68.8,54.1,68.8z
									 M50.7,65.4c-0.1,0-0.1,0-0.2-0.1c-0.1-0.1-0.1-0.3,0-0.4s0.1-0.1,0.2-0.1c0,0,0.1,0,0.2,0.1c0.1,0.1,0.1,0.3,0,0.4
									C50.8,65.3,50.7,65.4,50.7,65.4z M47.2,61.9c-0.1,0-0.1,0-0.2-0.1c-0.1-0.1-0.1-0.2,0-0.3s0.1-0.1,0.2-0.1
									c0,0,0.1,0,0.2,0.1c0.1,0.1,0.1,0.3,0,0.4C47.3,61.9,47.2,61.9,47.2,61.9z M43.7,58.4c-0.1,0-0.1,0-0.2-0.1
									c-0.1-0.1-0.1-0.3,0-0.3c0.1-0.1,0.1-0.1,0.2-0.1c0,0,0.1,0,0.2,0.1c0.1,0.1,0.1,0.2,0,0.3C43.8,58.4,43.8,58.4,43.7,58.4z
									 M40.2,54.9c0,0-0.1,0-0.2-0.1c-0.1-0.1-0.1-0.2,0-0.3s0.1-0.1,0.2-0.1c0,0,0.1,0,0.2,0.1c0.1,0.1,0.1,0.3,0,0.3
									C40.4,54.9,40.3,54.9,40.2,54.9z M36.8,51.5C36.8,51.5,36.7,51.5,36.8,51.5c-0.2-0.2-0.2-0.4-0.1-0.5
									c0.1-0.1,0.1-0.1,0.2-0.1c0,0,0.1,0,0.2,0.1c0.1,0.1,0.1,0.2,0,0.3C36.9,51.5,36.8,51.5,36.8,51.5z"/>
								<path class="st12" d="M54.1,75.8C54.1,75.8,54,75.8,54.1,75.8c-0.2-0.2-0.2-0.2-0.2-0.3c0,0,0-0.1,0.1-0.2s0.1-0.1,0.2-0.1
									c0,0,0.1,0,0.2,0.1c0.1,0.1,0.1,0.3,0,0.3C54.2,75.8,54.1,75.8,54.1,75.8z M50.7,72.3c-0.1,0-0.1,0-0.2-0.1
									c-0.1-0.1-0.1-0.3,0-0.4s0.1-0.1,0.2-0.1c0,0,0.1,0,0.2,0.1c0.1,0.1,0.1,0.3,0,0.4C50.8,72.3,50.7,72.3,50.7,72.3z
									 M47.2,68.8c-0.1,0-0.1,0-0.2-0.1c-0.1-0.1-0.1-0.2,0-0.3c0.1-0.1,0.1-0.1,0.2-0.1c0,0,0.1,0,0.2,0.1
									c0.1,0.1,0.1,0.1,0.1,0.2c0,0,0,0.1-0.1,0.2C47.3,68.8,47.2,68.8,47.2,68.8z M43.7,65.4c-0.1,0-0.1,0-0.2-0.1
									c-0.1-0.1-0.1-0.3,0-0.3c0.1-0.1,0.1-0.1,0.2-0.1c0,0,0.1,0,0.2,0.1c0.1,0.1,0.1,0.3,0,0.4C43.8,65.3,43.8,65.4,43.7,65.4z
									 M40.2,61.9c-0.1,0-0.1,0-0.2-0.1c0,0-0.1-0.1-0.1-0.2c0,0,0-0.1,0.1-0.2c0.1-0.1,0.1-0.1,0.2-0.1c0,0,0.1,0,0.2,0.1
									c0.1,0.1,0.1,0.1,0.1,0.2c0,0,0,0.1-0.1,0.2C40.4,61.9,40.3,61.9,40.2,61.9z M36.8,58.4C36.8,58.4,36.7,58.4,36.8,58.4
									c-0.2-0.2-0.2-0.4-0.1-0.5c0.1-0.1,0.1-0.1,0.2-0.1c0,0,0.1,0,0.2,0.1c0.1,0.1,0.1,0.3,0,0.3C36.9,58.4,36.9,58.4,36.8,58.4
									z M33.3,55C33.3,55,33.2,55,33.3,55c-0.2-0.2-0.2-0.4-0.1-0.5c0.1-0.1,0.1-0.1,0.2-0.1c0,0,0.1,0,0.2,0.1
									c0.1,0.1,0.1,0.2,0,0.3C33.4,55,33.3,55,33.3,55z"/>
								<path class="st12" d="M47.2,75.8c0,0-0.1,0-0.2-0.1c-0.1-0.1-0.1-0.3,0-0.3c0.1-0.1,0.1-0.1,0.2-0.1c0,0,0.1,0,0.2,0.1
									c0.1,0.1,0.1,0.3,0,0.4C47.3,75.8,47.2,75.8,47.2,75.8z M43.7,72.3c0,0-0.1,0-0.2-0.1c-0.1-0.1-0.1-0.3,0-0.3
									c0.1-0.1,0.1-0.1,0.2-0.1c0,0,0.1,0,0.2,0.1c0.1,0.1,0.1,0.2,0,0.3C43.8,72.3,43.7,72.3,43.7,72.3z M40.2,68.8
									c-0.1,0-0.1,0-0.2-0.1c-0.1-0.1-0.1-0.3,0-0.3c0.1-0.1,0.1-0.1,0.2-0.1c0,0,0.1,0,0.2,0.1c0.1,0.1,0.1,0.3,0,0.4
									C40.4,68.8,40.3,68.8,40.2,68.8z M36.8,65.4c0,0-0.1,0-0.2-0.1c-0.1-0.1-0.1-0.3,0-0.4s0.1-0.1,0.2-0.1c0,0,0.1,0,0.2,0.1
									c0.1,0.1,0.1,0.3,0,0.4C36.9,65.3,36.8,65.4,36.8,65.4z M33.3,61.9c0,0-0.1,0-0.2-0.1C33,61.7,33,61.7,33,61.6
									c0,0,0-0.1,0.1-0.2c0.1-0.1,0.1-0.1,0.2-0.1c0,0,0.1,0,0.2,0.1c0.1,0.1,0.1,0.1,0.1,0.2c0,0,0,0.1-0.1,0.2
									S33.4,61.9,33.3,61.9z M29.8,58.4c0,0-0.1,0-0.2-0.1s-0.1-0.3,0-0.4c0.1-0.1,0.1-0.1,0.2-0.1c0,0,0.1,0,0.2,0.1
									s0.1,0.2,0,0.3C29.9,58.4,29.8,58.4,29.8,58.4z"/>
								<path class="st12" d="M47.2,82.7c-0.1,0-0.1,0-0.2-0.1c-0.1-0.1-0.1-0.2,0-0.3c0.1-0.1,0.1-0.1,0.2-0.1c0,0,0.1,0,0.2,0.1
									c0.1,0.1,0.1,0.3,0,0.4C47.3,82.7,47.2,82.7,47.2,82.7z M43.7,79.3c-0.1,0-0.1,0-0.2-0.1c-0.1-0.1-0.1-0.2,0-0.3
									c0.1-0.1,0.1-0.1,0.2-0.1c0,0,0.1,0,0.2,0.1c0.1,0.1,0.1,0.2,0,0.3C43.8,79.2,43.8,79.3,43.7,79.3z M40.2,75.8
									c0,0-0.1,0-0.2-0.1c0,0,0-0.1,0-0.2c0,0,0-0.1,0.1-0.2s0.1-0.1,0.2-0.1c0,0,0.1,0,0.2,0.1c0.1,0.1,0.1,0.1,0.1,0.2
									c0,0,0,0.1-0.1,0.2C40.3,75.8,40.3,75.8,40.2,75.8z M36.8,72.3C36.8,72.3,36.7,72.3,36.8,72.3c-0.2-0.2-0.2-0.4-0.1-0.5
									s0.1-0.1,0.2-0.1c0,0,0.1,0,0.2,0.1c0.1,0.1,0.1,0.3,0,0.3C36.9,72.3,36.8,72.3,36.8,72.3z M33.3,68.8c0,0-0.1,0-0.2-0.1
									c-0.1-0.1-0.1-0.3,0-0.4s0.1-0.1,0.2-0.1c0,0,0.1,0,0.2,0.1c0.1,0.1,0.1,0.3,0,0.4S33.4,68.8,33.3,68.8z M29.8,65.4
									c-0.1,0-0.1,0-0.2-0.1s-0.1-0.3,0-0.4s0.1-0.1,0.2-0.1c0,0,0.1,0,0.2,0.1s0.1,0.3,0,0.4C29.9,65.3,29.9,65.4,29.8,65.4z
									 M26.3,61.9c-0.1,0-0.1,0-0.2-0.1c0,0-0.1-0.1-0.1-0.2c0,0,0-0.1,0.1-0.2c0.1-0.1,0.1-0.1,0.2-0.1c0,0,0.1,0,0.2,0.1
									s0.1,0.1,0.1,0.2c0,0,0,0.1-0.1,0.2C26.5,61.9,26.4,61.9,26.3,61.9z"/>
							</g>
						</g>
					</g>
					<g>
						<path id="SVGID_00000164496546567386079000000005166099315957177279_" class="st12" d="M22.9,65.1c11.5,11.5,30.2,11.5,41.7,0
							L43.7,44.3L22.9,65.1z"/>
					</g>
				</g>
			</g>
		</g>
	</g>
	<g id="Video">
		<path class="st29" d="M69.1,35.7C68,30.5,50.5,9.3,45.8,11.5c-9,4.2,7.4,16.9-5.1,34.3c-1.5,2.1-20.7,7.3-19.8,12.3
			c0.3,1.5,0.9,2.8,1.1,3.4c1.9,4.1,5,6.2,6.3,7.1c5.5,3.8,11.8,3.5,15.9,3.4c4.4-0.2,10.2-0.4,16-4.4c1.2-0.8,7.8-4.9,9.7-13.1
			C71.4,48.3,70.4,41.8,69.1,35.7z"/>
		<g class="st9">
			<g>
				<path class="st10" d="M18.2,53.2v6.9c0,2.5,2.1,4.6,4.6,4.6h5.7V53.2H18.2z"/>
				<rect x="18.2" y="41.8" class="st10" width="10.3" height="11.5"/>
				<path class="st10" d="M28.6,18.8h-5.7c-2.5,0-4.6,2.1-4.6,4.6v6.9h10.3L28.6,18.8z"/>
				<rect x="18.2" y="30.3" class="st10" width="10.3" height="11.5"/>
				<polygon class="st10" points="63,41.8 63,30.3 63,18.8 28.6,18.8 28.6,30.3 28.6,41.8 28.6,53.2 28.6,64.7 63,64.7 63,53.2 				
					"/>
				<path class="st10" d="M68.7,18.8H63v11.5h10.3v-6.9C73.3,20.9,71.2,18.8,68.7,18.8z"/>
				<rect x="63" y="30.3" class="st10" width="10.3" height="11.5"/>
				<rect x="63" y="41.8" class="st10" width="10.3" height="11.5"/>
				<path class="st10" d="M63,64.7h5.7c2.5,0,4.6-2.1,4.6-4.6v-6.9H63V64.7z"/>
			</g>
			<path class="st10" d="M51.6,41.3l-11-6.4c-0.4-0.2-0.9,0.1-0.9,0.5v12.7c0,0.4,0.5,0.7,0.9,0.5l11-6.4C52,42,52,41.5,51.6,41.3z"
				/>
		</g>
	</g>
	<g id="Blog">
		<path class="st30" d="M18.3,36.4c0.8,2.3,2,4.1,2,4.1c2.2,3.2,4.4,3.7,7.4,7.3c0.9,1.1,1.9,2.2,2.7,3.9c2.4,4.8,2,9.9,1.5,12
			c-0.2,0.8-0.4,1.4-0.6,2.7c-0.3,2.3-0.8,5.1,0.5,7.4c0.2,0.3,1.4,2.4,3.7,3.4c7,3,17.1-5.5,19.1-7.2c2.2-1.9,6.8-5.7,9.5-11.9
			c7.7-17.3-3.5-42.5-18.9-47.5c-4.2-1.4-7.5-0.9-8.6-0.7C24.3,11.8,15.5,27.7,18.3,36.4z"/>
		<g class="st9">
			<path class="st21" d="M76.8,61H13.5c-1.2,0-2.1-0.9-2.1-2.1V19.6c0-1.2,0.9-2.1,2.1-2.1h63.3c1.2,0,2.1,0.9,2.1,2.1v39.3
				C78.9,60.1,77.9,61,76.8,61z"/>
			<rect x="35.3" y="61" class="st21" width="19.6" height="10.9"/>
			<line class="st21" x1="24.5" y1="71.9" x2="65.8" y2="71.9"/>
		</g>
		<g class="st9">
			<rect x="29.6" y="28" class="st21" width="16.9" height="11.7"/>
			<path class="st21" d="M50.2,28h9H50.2z"/>
			<path class="st21" d="M50.2,32h9H50.2z"/>
			<path class="st21" d="M50.2,35.9h9H50.2z"/>
			<path class="st21" d="M50.2,39.8h9H50.2z"/>
			<path class="st21" d="M29.6,43.7h16.9H29.6z"/>
			<path class="st21" d="M29.6,47.6h16.9H29.6z"/>
			<path class="st21" d="M29.6,51.5h16.9H29.6z"/>
			<rect x="50.2" y="43.7" class="st21" width="9" height="7.8"/>
		</g>
		<path class="st31" d="M28.7,23.8h30.6H28.7z"/>
		<path class="st31" d="M11.4,56.7h67.5H11.4z"/>
	</g>
	<g id="Layer_15">
		<path class="st32" d="M70.1,16.3C67.6,9.6,62,0.5,53.4,2.8C49.1,3.9,46.4,8,45,12c-4.3,11.9-0.4,17.2-4.6,30.9
			c-1.3,4.3-3.3,10.7-8.7,16.6c-5.9,6.5-11.8,7.9-13,13.9c-0.6,2.9-0.2,7.4,2.4,9.3C29.9,89,67.4,66.3,72.5,37
			C73,33.9,73.5,25.5,70.1,16.3z"/>
		<path class="st33" d="M78.8,43.1c0-0.1,0-0.1,0-0.2v-0.1c0-0.2,0-0.4,0-0.5s0-0.2,0-0.2V42c0-0.2,0-0.3,0-0.5c0-0.1,0-0.2,0-0.3
			c0-0.2,0-0.3,0-0.5c0-0.1,0-0.2,0-0.3c0-0.2,0-0.3-0.1-0.5v-0.1c0-0.1,0-0.2,0-0.2c0-0.2,0-0.3-0.1-0.5V39c0-0.1,0-0.1,0-0.2
			c0-0.3-0.1-0.5-0.1-0.8v-0.2c0-0.2-0.1-0.4-0.1-0.6c0-0.1,0-0.1,0-0.2v-0.1c0-0.2-0.1-0.3-0.1-0.5c0-0.1,0-0.2-0.1-0.3l0,0
			c0-0.1-0.1-0.3-0.1-0.4c0-0.1-0.1-0.2-0.1-0.3s-0.1-0.3-0.1-0.4c0-0.1-0.1-0.2-0.1-0.3s-0.1-0.3-0.1-0.4v-0.1
			c0-0.1-0.1-0.2-0.1-0.3s-0.1-0.3-0.1-0.4v-0.1c0-0.1,0-0.1-0.1-0.2c-0.1-0.2-0.2-0.5-0.2-0.7c0-0.1,0-0.1-0.1-0.2L77,32.1
			c0-0.1-0.1-0.2-0.1-0.4c0-0.1-0.1-0.2-0.1-0.3v-0.1c0-0.1-0.1-0.2-0.1-0.4c0-0.1-0.1-0.2-0.1-0.4c0-0.1-0.1-0.2-0.2-0.4
			c-0.1-0.1-0.1-0.2-0.2-0.4c-0.1-0.1-0.1-0.2-0.2-0.3c-0.1-0.1-0.1-0.2-0.2-0.4c-0.1-0.1-0.1-0.2-0.2-0.3v-0.1
			c0-0.1-0.1-0.2-0.1-0.3c0-0.1-0.1-0.2-0.1-0.2H75c0-0.1-0.1-0.2-0.1-0.3l-0.1-0.2c-0.1-0.3-0.3-0.5-0.5-0.8l-0.1-0.1
			c0-0.1-0.1-0.1-0.1-0.2c-0.1-0.1-0.1-0.2-0.2-0.3l-0.1-0.1c0-0.1-0.1-0.2-0.1-0.2c-0.1-0.1-0.2-0.2-0.2-0.4
			c-0.1-0.1-0.1-0.2-0.2-0.3c-0.1-0.1-0.2-0.2-0.2-0.4c-0.1-0.1-0.1-0.2-0.2-0.3c-0.1-0.1-0.2-0.2-0.3-0.4c0-0.1-0.1-0.1-0.1-0.2
			l-0.1-0.1c-0.1-0.1-0.2-0.2-0.2-0.3c0-0.1-0.1-0.1-0.1-0.2L72,23.2c-0.6-0.8-1.3-1.6-2-2.4c-0.2-0.2-0.4-0.4-0.5-0.6
			c-0.2-0.2-0.4-0.4-0.6-0.6c-6.4-6.4-14.9-9.9-24-9.9s-17.6,3.5-24,9.9c-0.2,0.2-0.4,0.4-0.6,0.6s-0.3,0.4-0.5,0.6
			c-0.7,0.7-1.3,1.5-2,2.4l-0.1,0.1c0,0.1-0.1,0.1-0.1,0.2c-0.1,0.1-0.2,0.2-0.2,0.3L17.3,24c0,0.1-0.1,0.1-0.1,0.2
			c-0.1,0.1-0.2,0.2-0.3,0.4c-0.1,0.1-0.1,0.2-0.2,0.3c-0.1,0.1-0.2,0.2-0.2,0.4c-0.1,0.1-0.1,0.2-0.2,0.3c-0.1,0.1-0.2,0.2-0.2,0.4
			c-0.1,0-0.1,0-0.2,0.1l-0.1,0.1c-0.1,0.1-0.1,0.2-0.2,0.3c0,0.1-0.1,0.1-0.1,0.2l-0.1,0.1c-0.2,0.3-0.3,0.5-0.5,0.8l-0.1,0.2
			c0,0.1-0.1,0.2-0.1,0.3l-0.1,0.2c0,0.1-0.1,0.2-0.1,0.2c-0.1,0.1-0.1,0.2-0.1,0.3v0.1c-0.1,0.1-0.1,0.2-0.2,0.3
			c-0.1,0.1-0.1,0.2-0.2,0.4c-0.1,0.1-0.1,0.2-0.2,0.3c-0.1,0.1-0.1,0.2-0.2,0.4c-0.1,0.1-0.1,0.2-0.2,0.4c-0.1,0.1-0.1,0.2-0.1,0.4
			c0,0.1-0.1,0.2-0.1,0.4v0.1c0,0.1-0.1,0.2-0.1,0.3c0,0.1-0.1,0.2-0.1,0.4l0,0c0,0.1,0,0.1-0.1,0.2c-0.1,0.2-0.2,0.5-0.2,0.7
			c0,0.1,0,0.1-0.1,0.2v0.1c0,0.1-0.1,0.3-0.1,0.4c0,0.1-0.1,0.2-0.1,0.3v0.1c0,0.1-0.1,0.3-0.1,0.4c0,0.1-0.1,0.2-0.1,0.3
			s-0.1,0.3-0.1,0.4c0,0.1-0.1,0.2-0.1,0.3s-0.1,0.3-0.1,0.4l0,0c0,0.1,0,0.2-0.1,0.3c0,0.2-0.1,0.3-0.1,0.5V37c0,0.1,0,0.1,0,0.2
			c0,0.2-0.1,0.4-0.1,0.6c0,0,0,0.1,0,0.2c0,0.2-0.1,0.5-0.1,0.8c0,0.1,0,0.1,0,0.2v0.1c0,0.2,0,0.3-0.1,0.5c0,0.1,0,0.2,0,0.2v0.1
			c0,0.2,0,0.3-0.1,0.5c0,0.1,0,0.2,0,0.3c0,0.2,0,0.3,0,0.5c0,0.1,0,0.2,0,0.3c0,0.2,0,0.3,0,0.5v0.1c0,0.1,0,0.2,0,0.2
			c0,0.2,0,0.4,0,0.5v0.1c0,0.1,0,0.1,0,0.2c0,0.3,0,0.5,0,0.8s0,0.5,0,0.8c0,0.1,0,0.1,0,0.2V45c0,0.2,0,0.4,0,0.5s0,0.2,0,0.2v0.1
			c0,0.2,0,0.3,0,0.5c0,0.1,0,0.2,0,0.3c0,0.2,0,0.3,0,0.5c0,0.1,0,0.2,0,0.3c0,0.2,0,0.3,0.1,0.5V48c0,0.1,0,0.2,0,0.2
			c0,0.2,0,0.3,0.1,0.5v0.1c0,0.1,0,0.1,0,0.2c0,0.3,0.1,0.5,0.1,0.8V50c0,0.2,0.1,0.4,0.1,0.6c0,0.1,0,0.1,0,0.2v0.1
			c0,0.2,0.1,0.3,0.1,0.5c0,0.1,0,0.2,0.1,0.3l0,0c0,0.1,0.1,0.3,0.1,0.4c0,0.1,0.1,0.2,0.1,0.3s0.1,0.3,0.1,0.4
			c0,0.1,0.1,0.2,0.1,0.3s0.1,0.3,0.1,0.4v0.1c0,0.1,0.1,0.2,0.1,0.3s0.1,0.3,0.1,0.4v0.1c0,0.1,0,0.1,0.1,0.2
			c0.1,0.2,0.2,0.5,0.2,0.7c0,0.1,0,0.1,0.1,0.2l0.1,0.2c0,0.1,0.1,0.2,0.1,0.4c0,0.1,0.1,0.2,0.1,0.3v0.1c0,0.1,0.1,0.2,0.1,0.4
			c0,0.1,0.1,0.2,0.1,0.4c0,0.1,0.1,0.2,0.2,0.4c0.1,0.1,0.1,0.2,0.2,0.4c0.1,0.1,0.1,0.2,0.2,0.3c0.1,0.1,0.1,0.2,0.2,0.4
			c0.1,0.1,0.1,0.2,0.2,0.3v0.1c0,0.1,0.1,0.2,0.1,0.3s0.1,0.2,0.1,0.2l0.1,0.2c0,0.1,0.1,0.2,0.1,0.3l0.1,0.2
			c0.1,0.3,0.3,0.5,0.5,0.8l0.1,0.1c0,0.1,0.1,0.1,0.1,0.2c0.1,0.1,0.1,0.2,0.2,0.3l0.1,0.1c0,0.1,0.1,0.2,0.1,0.2
			c0.1,0.1,0.2,0.2,0.2,0.4c0.1,0.1,0.1,0.2,0.2,0.3s0.2,0.2,0.2,0.4c0.1,0.1,0.1,0.2,0.2,0.3s0.2,0.2,0.3,0.4
			c0,0.1,0.1,0.1,0.1,0.2l0.1,0.1c0.1,0.1,0.2,0.2,0.2,0.3c0,0.1,0.1,0.1,0.1,0.2l0.1,0.1c0.6,0.8,1.3,1.6,2,2.4
			c0.2,0.2,0.4,0.4,0.5,0.6c0.2,0.2,0.4,0.4,0.6,0.6c6.4,6.4,14.9,9.9,24,9.9s17.6-3.5,24-9.9c0.2-0.2,0.4-0.4,0.6-0.6
			s0.3-0.4,0.5-0.6c0.7-0.7,1.3-1.5,2-2.4l0.1-0.1c0-0.1,0.1-0.1,0.1-0.2c0.1-0.1,0.2-0.2,0.2-0.3l0.1-0.1c0-0.1,0.1-0.1,0.1-0.2
			c0.1-0.1,0.2-0.2,0.3-0.4c0.1-0.1,0.1-0.2,0.2-0.3s0.2-0.2,0.2-0.4c0.1-0.1,0.1-0.2,0.2-0.3s0.2-0.2,0.2-0.4
			c0.1-0.1,0.1-0.2,0.1-0.2l0.1-0.1c0.1-0.1,0.1-0.2,0.2-0.3c0-0.1,0.1-0.1,0.1-0.2l0.1-0.1c0.2-0.3,0.3-0.5,0.5-0.8l0.1-0.2
			c0-0.1,0.1-0.2,0.1-0.3l0.1-0.2c0-0.1,0.1-0.2,0.1-0.2c0.1-0.1,0.1-0.2,0.1-0.3v-0.1c0.1-0.1,0.1-0.2,0.2-0.3s0.1-0.2,0.2-0.4
			c0.1-0.1,0.1-0.2,0.2-0.3s0.1-0.2,0.2-0.4c0.1-0.1,0.1-0.2,0.2-0.4c0.1-0.1,0.1-0.2,0.1-0.4c0-0.1,0.1-0.2,0.1-0.4v-0.1
			c0-0.1,0.1-0.2,0.1-0.3s0.1-0.2,0.1-0.4l0.1-0.2c0-0.1,0-0.1,0.1-0.2c0.1-0.2,0.2-0.5,0.2-0.7c0-0.1,0-0.1,0.1-0.2v-0.1
			c0-0.1,0.1-0.3,0.1-0.4c0-0.1,0.1-0.2,0.1-0.3v-0.1c0-0.1,0.1-0.3,0.1-0.4c0-0.1,0.1-0.2,0.1-0.3s0.1-0.3,0.1-0.4
			c0-0.1,0.1-0.2,0.1-0.3s0.1-0.3,0.1-0.4l0,0c0-0.1,0-0.2,0.1-0.3c0-0.2,0.1-0.3,0.1-0.5v-0.1c0-0.1,0-0.1,0-0.2
			c0-0.2,0.1-0.4,0.1-0.6c0,0,0-0.1,0-0.2c0-0.2,0.1-0.5,0.1-0.8c0-0.1,0-0.1,0-0.2v-0.1c0-0.2,0-0.3,0.1-0.5c0-0.1,0-0.2,0-0.2
			v-0.1c0-0.2,0-0.3,0.1-0.5c0-0.1,0-0.2,0-0.3c0-0.2,0-0.3,0-0.5c0-0.1,0-0.2,0-0.3c0-0.2,0-0.3,0-0.5v-0.1c0-0.1,0-0.2,0-0.2
			c0-0.2,0-0.4,0-0.5v-0.1c0-0.1,0-0.1,0-0.2c0-0.3,0-0.5,0-0.8C78.8,43.6,78.8,43.4,78.8,43.1z M63.5,44.7v0.8
			c-0.1,5-1,9.9-2.4,14.2l-0.2,0.7l-0.7-0.2c-4.3-1.3-8.9-2-13.7-2.1h-0.7V44.7H63.5z M69.2,23.7l0.6-0.4l0.5,0.6l0.1,0.1l0.1,0.1
			c0.1,0.1,0.2,0.2,0.3,0.4c0,0.1,0.1,0.1,0.1,0.2v0.1c0.1,0.1,0.2,0.2,0.3,0.3c0.1,0.1,0.1,0.2,0.2,0.3c0.1,0.1,0.2,0.2,0.2,0.3
			c0.1,0.1,0.1,0.2,0.2,0.3c0.1,0.1,0.2,0.2,0.2,0.4l0,0c0,0.1,0.1,0.1,0.1,0.2c0.1,0.1,0.2,0.3,0.2,0.4l0.1,0.2
			c0.1,0.2,0.2,0.3,0.3,0.5l0.1,0.1c0.1,0.2,0.2,0.4,0.4,0.6l0.1,0.2c0.1,0.1,0.1,0.3,0.2,0.4c0,0.1,0.1,0.1,0.1,0.2v0.1
			c0.1,0.1,0.1,0.3,0.2,0.4c0,0.1,0.1,0.2,0.1,0.3c0.1,0.1,0.1,0.3,0.2,0.4c0,0.1,0.1,0.2,0.1,0.3c0.1,0.1,0.1,0.3,0.2,0.4v0.1
			c0,0.1,0.1,0.1,0.1,0.2c0.1,0.1,0.1,0.3,0.2,0.4v0.1c0,0,0,0.1,0.1,0.1c0.1,0.2,0.2,0.4,0.2,0.6v0.1c0.1,0.2,0.2,0.5,0.2,0.7v0.1
			v0.1c0.1,0.2,0.1,0.3,0.2,0.5c0,0.1,0,0.1,0.1,0.2v0.1c0,0.1,0.1,0.3,0.1,0.4c0,0.1,0.1,0.2,0.1,0.3s0.1,0.3,0.1,0.4
			c0,0.1,0.1,0.2,0.1,0.3s0.1,0.3,0.1,0.4v0.1c0,0.1,0,0.1,0,0.2c0,0.2,0.1,0.3,0.1,0.5c0,0,0,0.2,0.1,0.3c0.1,0.2,0.1,0.5,0.1,0.7
			l0,0c0,0.2,0.1,0.5,0.1,0.8V39c0,0.2,0,0.3,0.1,0.5c0,0.1,0,0.1,0,0.2v0.1c0,0.2,0,0.3,0.1,0.5c0,0.1,0,0.2,0,0.3
			c0,0.2,0,0.3,0,0.5c0,0.1,0,0.2,0,0.3c0,0.2,0,0.3,0,0.5v0.2v0.8h-12v-0.7c-0.1-5.2-1-10.3-2.5-14.8l-0.2-0.7l0.7-0.3
			c2-0.8,3.9-1.7,5.6-2.7C68.9,23.8,69,23.8,69.2,23.7z M54.9,13.3c0,0,2.5,0.8,4.4,1.7c0.3,0.2,0.6,0.3,1,0.5
			c0.1,0.1,0.2,0.1,0.3,0.2c2,1.1,3.9,2.5,5.7,4l0,0c0.2,0.2,0.4,0.4,0.6,0.5l0,0c0.2,0.2,0.4,0.3,0.5,0.5l0,0
			c0.2,0.2,0.4,0.4,0.6,0.6l0.7,0.7l-0.8,0.5c-1.6,0.9-3.3,1.8-5.2,2.5L62,25.3l-0.3-0.7c-0.7-1.6-1.4-3.1-2.2-4.5
			c-1.7-3-5-6.3-6.9-7.5L54.9,13.3z M45.7,11.6l0.9,0.1c4.2,0.7,8.3,3.9,11.3,9.1c0.7,1.3,1.4,2.7,2.1,4.1l0.3,0.8L59.5,26
			c-4,1.2-8.4,1.9-13,2h-0.8V11.6z M45.7,29.7h0.7c4.8-0.1,9.4-0.8,13.7-2.1l0.7-0.2l0.2,0.7c1.4,4.3,2.2,9.2,2.4,14.2v0.8H45.7
			V29.7z M44,11.6v16.5h-0.8c-4.6-0.1-9-0.8-13-2l-0.8-0.2l0.3-0.8c0.6-1.5,1.3-2.9,2.1-4.1c3.1-5.2,7.1-8.5,11.3-9.1L44,11.6z
			 M44,29.7V43H26.3v-0.8c0.1-5,1-9.9,2.4-14.2l0.2-0.7l0.7,0.2c4.3,1.3,8.9,2,13.7,2.1L44,29.7z M21.8,21.3
			c0.2-0.2,0.4-0.4,0.6-0.6l0,0c0.2-0.2,0.4-0.3,0.5-0.5l0,0c0.2-0.2,0.4-0.4,0.6-0.5l0,0c1.7-1.5,3.6-2.9,5.7-4
			c0.1,0,0.2-0.1,0.3-0.2c0.3-0.2,0.6-0.3,1-0.5c1.9-0.9,4.4-1.7,4.4-1.7l2.5-0.8c-2,1.2-5.2,4.5-6.9,7.5c-0.8,1.4-1.6,2.9-2.2,4.5
			L28,25.2L27.2,25c-1.9-0.7-3.6-1.5-5.2-2.5L21.1,22L21.8,21.3z M12.6,42.2V42c0-0.2,0-0.3,0-0.5c0-0.1,0-0.2,0-0.3
			c0-0.2,0-0.3,0-0.5c0-0.1,0-0.2,0-0.3c0-0.2,0-0.3,0.1-0.5v-0.1c0-0.1,0-0.1,0-0.2c0-0.2,0-0.3,0.1-0.5v-0.2
			c0-0.3,0.1-0.5,0.1-0.8l0,0c0-0.2,0.1-0.5,0.1-0.7l0.1-0.3c0-0.2,0.1-0.3,0.1-0.5c0-0.1,0-0.1,0-0.2v-0.1c0-0.1,0.1-0.3,0.1-0.4
			c0-0.1,0.1-0.2,0.1-0.3s0.1-0.3,0.1-0.4c0-0.1,0.1-0.2,0.1-0.3s0.1-0.3,0.1-0.4v-0.1c0-0.1,0-0.1,0.1-0.2c0-0.2,0.1-0.3,0.2-0.5
			v-0.1v-0.1c0.1-0.2,0.2-0.5,0.2-0.7v-0.1c0.1-0.2,0.2-0.4,0.2-0.6c0,0,0-0.1,0.1-0.1v-0.1c0.1-0.1,0.1-0.3,0.2-0.4
			c0-0.1,0.1-0.1,0.1-0.2v-0.1c0.1-0.1,0.1-0.3,0.2-0.4c0-0.1,0.1-0.2,0.1-0.3c0.1-0.1,0.1-0.3,0.2-0.4c0-0.1,0.1-0.2,0.1-0.3
			c0.1-0.1,0.1-0.3,0.2-0.4v-0.1c0-0.1,0.1-0.1,0.1-0.2c0.1-0.1,0.1-0.3,0.2-0.4l0.1-0.2c0.1-0.2,0.2-0.4,0.4-0.6l0.1-0.1
			c0.1-0.2,0.2-0.4,0.3-0.5l0.1-0.2c0.1-0.1,0.2-0.3,0.2-0.4s0.1-0.1,0.1-0.2l0,0c0.1-0.1,0.2-0.2,0.2-0.4c0.1-0.1,0.1-0.2,0.2-0.3
			c0.1-0.1,0.2-0.2,0.2-0.3c0.1-0.1,0.1-0.2,0.2-0.3c0.1-0.1,0.2-0.2,0.3-0.3v-0.1c0-0.1,0.1-0.1,0.1-0.2c0.1-0.1,0.2-0.2,0.3-0.4
			l0.1-0.1c0-0.1,0.1-0.1,0.1-0.1l0.5-0.6l0.6,0.4c0.2,0.1,0.3,0.2,0.4,0.3c1.7,1,3.6,1.9,5.6,2.7l0.7,0.3l-0.2,0.7
			c-1.5,4.5-2.3,9.6-2.5,14.8v0.7H12L12.6,42.2z M20.6,64.1L20,64.4l-0.5-0.6l-0.1-0.1l-0.1-0.1c-0.1-0.1-0.2-0.2-0.3-0.4
			c0-0.1-0.1-0.1-0.1-0.2v-0.1c-0.1-0.1-0.2-0.2-0.3-0.3c-0.1-0.1-0.1-0.2-0.2-0.3s-0.2-0.2-0.2-0.3c-0.1-0.1-0.1-0.2-0.2-0.3
			s-0.2-0.2-0.2-0.4l0,0c0-0.1-0.1-0.1-0.1-0.2c-0.1-0.1-0.2-0.3-0.2-0.4l-0.1-0.2c-0.1-0.2-0.2-0.3-0.3-0.5L17,59.9
			c-0.1-0.2-0.2-0.4-0.4-0.6l-0.1-0.2c-0.1-0.1-0.1-0.3-0.2-0.4c0-0.1-0.1-0.1-0.1-0.2v-0.1c-0.1-0.1-0.1-0.3-0.2-0.4
			c0-0.1-0.1-0.2-0.1-0.3c-0.1-0.1-0.1-0.3-0.2-0.4c0-0.1-0.1-0.2-0.1-0.3c-0.1-0.1-0.1-0.3-0.2-0.4v-0.1c0-0.1-0.1-0.1-0.1-0.2
			C15,56.2,15,56,14.9,55.9v-0.1c0,0,0-0.1-0.1-0.1c-0.1-0.2-0.2-0.4-0.2-0.6V55c-0.1-0.2-0.2-0.5-0.2-0.7v-0.1v-0.1
			c-0.1-0.2-0.1-0.3-0.2-0.5c0-0.1,0-0.1-0.1-0.2v-0.1c0-0.1-0.1-0.3-0.1-0.4c0-0.1-0.1-0.2-0.1-0.3s-0.1-0.3-0.1-0.4
			c0-0.1-0.1-0.2-0.1-0.3s-0.1-0.3-0.1-0.4v-0.1c0-0.1,0-0.1,0-0.2c0-0.2-0.1-0.3-0.1-0.5c0,0,0-0.2-0.1-0.3
			c-0.1-0.2-0.1-0.5-0.1-0.7l0,0c0-0.2-0.1-0.5-0.1-0.8v-0.2c0-0.2,0-0.3-0.1-0.5c0-0.1,0-0.1,0-0.2v-0.1c0-0.2,0-0.3-0.1-0.5
			c0-0.1,0-0.2,0-0.3c0-0.2,0-0.3,0-0.5c0-0.1,0-0.2,0-0.3c0-0.2,0-0.3,0-0.5v-0.2v-0.8h12v0.7c0.1,5.2,1,10.3,2.5,14.8l0.2,0.7
			L27,61.3c-2,0.8-3.9,1.7-5.6,2.7C20.9,63.9,20.7,64,20.6,64.1z M34.8,74.5c0,0-2.5-0.8-4.4-1.7c-0.3-0.2-0.6-0.3-1-0.5
			c-0.1-0.1-0.2-0.1-0.3-0.2c-2-1.1-3.9-2.5-5.7-4l0,0c-0.2-0.2-0.4-0.4-0.6-0.5l0,0c-0.2-0.2-0.4-0.3-0.5-0.5l0,0
			c-0.2-0.2-0.4-0.4-0.6-0.6L21,65.8l0.8-0.5c1.6-0.9,3.3-1.8,5.2-2.5l0.7-0.3l0.3,0.7c0.7,1.6,1.4,3.1,2.2,4.5c1.7,3,5,6.3,6.9,7.5
			L34.8,74.5z M44,76.1L43.2,76c-4.2-0.7-8.3-3.9-11.3-9.1c-0.7-1.3-1.4-2.7-2.1-4.1L29.5,62l0.8-0.2c4-1.2,8.4-1.9,13-2h0.8
			L44,76.1L44,76.1z M44,58h-0.7c-4.8,0.1-9.4,0.8-13.7,2.1l-0.7,0.2l-0.2-0.7c-1.4-4.3-2.2-9.2-2.4-14.2v-0.8H44V58z M45.7,76.1
			V59.7h0.8c4.6,0.1,9,0.8,13,2l0.8,0.2L60,62.7c-0.6,1.5-1.3,2.9-2.1,4.1c-3.1,5.2-7.1,8.5-11.3,9.1L45.7,76.1z M67.9,66.4
			c-0.2,0.2-0.4,0.4-0.6,0.6l0,0c-0.2,0.2-0.4,0.3-0.5,0.5l0,0c-0.2,0.2-0.4,0.4-0.6,0.5l0,0c-1.7,1.5-3.6,2.9-5.7,4
			c-0.1,0-0.2,0.1-0.3,0.2c-0.3,0.2-0.6,0.3-1,0.5c-1.9,0.9-4.4,1.7-4.4,1.7l-2.5,0.8c2-1.2,5.2-4.5,6.9-7.5
			c0.8-1.4,1.6-2.9,2.2-4.5l0.3-0.7l0.7,0.3c1.9,0.7,3.6,1.5,5.2,2.5l0.8,0.5L67.9,66.4z M77.1,45.5v0.2c0,0.2,0,0.3,0,0.5
			c0,0.1,0,0.2,0,0.3c0,0.2,0,0.3,0,0.5c0,0.1,0,0.2,0,0.3c0,0.2,0,0.3-0.1,0.5v0.1c0,0.1,0,0.1,0,0.2c0,0.2,0,0.3-0.1,0.5v0.2
			c0,0.3-0.1,0.5-0.1,0.8l0,0c0,0.2-0.1,0.5-0.1,0.7l-0.1,0.3c0,0.2-0.1,0.3-0.1,0.5c0,0.1,0,0.1,0,0.2v0.1c0,0.1-0.1,0.3-0.1,0.4
			c0,0.1-0.1,0.2-0.1,0.3s-0.1,0.3-0.1,0.4c0,0.1-0.1,0.2-0.1,0.3S76,53.1,76,53.2v0.1c0,0.1,0,0.1-0.1,0.2c0,0.2-0.1,0.3-0.2,0.5
			v0.1v0.1c-0.1,0.2-0.2,0.5-0.2,0.7V55c-0.1,0.2-0.2,0.4-0.2,0.6c0,0,0,0.1-0.1,0.1v0.1c-0.1,0.1-0.1,0.3-0.2,0.4
			c0,0.1-0.1,0.1-0.1,0.2v0.1c-0.1,0.1-0.1,0.3-0.2,0.4c0,0.1-0.1,0.2-0.1,0.3c-0.1,0.1-0.1,0.3-0.2,0.4c0,0.1-0.1,0.2-0.1,0.3
			c-0.1,0.1-0.1,0.3-0.2,0.4v0.1c0,0.1-0.1,0.1-0.1,0.2c-0.1,0.1-0.1,0.3-0.2,0.4l-0.1,0.2c-0.1,0.2-0.2,0.4-0.4,0.6L72.8,60
			c-0.1,0.2-0.2,0.4-0.3,0.5l-0.1,0.2c-0.1,0.1-0.2,0.3-0.2,0.4c0,0.1-0.1,0.1-0.1,0.2l0,0c-0.1,0.1-0.2,0.2-0.2,0.4
			c-0.1,0.1-0.1,0.2-0.2,0.3s-0.2,0.2-0.2,0.3c-0.1,0.1-0.1,0.2-0.2,0.3s-0.2,0.2-0.3,0.3V63c0,0.1-0.1,0.1-0.1,0.2
			c-0.1,0.1-0.2,0.2-0.3,0.4l-0.1,0.1c0,0.1-0.1,0.1-0.1,0.1l-0.5,0.6L69.3,64c-0.2-0.1-0.3-0.2-0.4-0.3c-1.7-1-3.6-1.9-5.6-2.7
			l-0.7-0.3l0.2-0.7c1.5-4.5,2.3-9.6,2.5-14.8v-0.7h12L77.1,45.5z"/>
		<g class="st9">
			<path class="st34" d="M61.8,54.1H27.9c-5.4,0-9.8-4.4-9.8-9.8v-0.2c0-5.4,4.4-9.8,9.8-9.8h33.9c5.4,0,9.8,4.4,9.8,9.8v0.2
				C71.6,49.7,67.2,54.1,61.8,54.1z"/>
		</g>
		<path class="st33" d="M27.9,54.5c-5.6,0-10.2-4.6-10.2-10.2v-0.2c0-5.6,4.6-10.2,10.2-10.2h33.9c5.6,0,10.2,4.6,10.2,10.2v0.2
			c0,5.6-4.6,10.2-10.2,10.2H27.9z M27.9,34.7c-5.2,0-9.4,4.2-9.4,9.4v0.2c0,5.2,4.2,9.4,9.4,9.4h33.9c5.2,0,9.4-4.2,9.4-9.4v-0.2
			c0-5.2-4.2-9.4-9.4-9.4L27.9,34.7z"/>
		<polygon class="st33" points="32.8,49.2 31.1,42.8 30.7,42.8 29,49.2 27.2,49.2 24.3,39.7 26.3,39.7 28.4,46.7 30.2,39.7 
			31.9,39.7 33.8,46.7 35.8,39.7 37.3,39.7 34.5,49.2 		"/>
		<polygon class="st33" points="46.7,49.2 45,42.8 44.5,42.8 42.9,49.2 41.1,49.2 38.2,39.7 40.2,39.7 42.2,46.7 44.1,39.7 
			45.8,39.7 47.7,46.7 49.7,39.7 51.2,39.7 48.4,49.2 		"/>
		<polygon class="st33" points="60.6,49.2 58.9,42.8 58.4,42.8 56.8,49.2 55,49.2 52.1,39.7 54.1,39.7 56.1,46.7 57.9,39.7 
			59.7,39.7 61.5,46.7 63.6,39.7 65.1,39.7 62.3,49.2 		"/>
	</g>
	<g id="Layer_16">
		<rect x="-2.4" y="-4.2" class="st35" width="92.3" height="96.5"/>
	</g>
	<g id="Layer_14">
		<g class="st9">
			<path class="st36" d="M42.5,74.4C35.2,74,28,70.9,22.7,65.3c1.9-2.3,2.1-5.6,0.4-8.2c-1.6-2.4-4.4-3.5-7.1-3
				c-2.2-6.8-1.7-14.2,1.1-20.6c0.1-0.1,0.2-0.3,0.3-0.4l2.1,1.8l1.9,1.7l-1.2,4.3c-0.4,1.8-0.7,3.7-0.3,5.8l10.3-3.1v0.1
				c-0.4,3.1,0.3,6.4,2.1,9.3c1.7,2.6,4.1,4.4,6.7,5.4c-1.6,1.4-6.9,6.2-7.5,7.5c1.7,1.1,3.5,1.9,5.4,2.4l4.5,0.9l0.3,1.1L42.5,74.4
				z"/>
			<path class="st37" d="M31.2,18.8c1.3-0.6,2.7-1.2,4.1-1.6c0.5-0.1,0.9-0.1,1.3-0.1c0.1,0.2,0.2,0.4,0.4,0.6
				c2.1,3.2,6.4,4.1,9.6,2c0.9-0.6,1.6-1.4,2.2-2.3c0.8-0.7,0.6-0.6,1.6-0.5c6.3,1.2,13.7,6.2,17.3,11.7L66.8,29l-4.5,1.4
				c-2.6-2.7-4.7-5.5-7.8-6.3l-2.1,10c-0.3,0-0.6-0.1-0.9-0.2c-4.4-2.9-10.3-3.1-15,0c-0.2,0.1-0.4,0.2-0.6,0.4
				c-0.2,0.1-0.4,0.2-0.7,0.3l-3-10.2c-3.9,1.8-5.3,4.1-7.6,6.6l-3.3-1l-1.8-0.7c0.1-0.5,0-0.3,0.5-0.9l0.1-0.1
				c0.5-0.7,1.1-1.4,1.7-2.1C24.1,23.4,27.9,20.6,31.2,18.8"/>
			<path class="st38" d="M67.4,45.7l-10-2.3c0.8,5.1-1.4,10.5-6.1,13.5c-0.8,0.5-1.6,0.9-2.4,1.3l7.9,7.1c-4.4,2.8-5.4,2.5-9.4,3.6
				c0,0.4-0.1,1.1-0.3,1.8l-0.4,3.5c0.1,0,0.2,0,0.3,0c2.5-0.3,5-0.8,7.4-1.8c4.4-1.9,9.2-5,11.2-8c0.1-0.1,0.1-0.2,0.1-0.3
				c-0.2-0.2-0.4-0.4-0.5-0.7c-2.1-3.2-1.2-7.5,2-9.6c1.4-0.9,3.1-1.3,4.7-1.1c0.2-0.6,0.4-1.6,0.7-3.4c0.5-4.3,0.3-13.3-2.9-16.9
				l-1.2,0.9l-2.9,2.3C67.1,39.2,67.5,42.5,67.4,45.7"/>
			<path class="st36" d="M13.9,55.8c2.8-1.8,6.6-1,8.4,1.8s1,6.6-1.8,8.4s-6.6,1-8.4-1.8C10.3,61.4,11.1,57.6,13.9,55.8"/>
			<path class="st38" d="M67.6,54.6c2.8-1.8,6.6-1,8.4,1.8s1,6.6-1.8,8.4c-2.8,1.8-6.6,1-8.4-1.8C64,60.3,64.8,56.5,67.6,54.6"/>
			<path class="st37" d="M39.4,8.8c2.8-1.8,6.6-1,8.4,1.8s1,6.6-1.8,8.4s-6.6,1-8.4-1.8C35.8,14.4,36.6,10.6,39.4,8.8"/>
		</g>
		<circle class="st39" cx="44" cy="45.3" r="15.6"/>
		<g class="st9">
			<path class="st40" d="M50.7,49.3c-0.2,0-0.2,0-0.2,0.2s0.1,0.2,0.2,0.2c0.1,0,0.2,0,0.2-0.2C50.8,49.4,50.9,49.3,50.7,49.3z"/>
			<path class="st40" d="M49.7,49.7c0.2,0,0.3-0.1,0.5,0c0.2,0,0.2,0,0.2-0.2s-0.1-0.2-0.2-0.2c-0.1,0-0.2,0.1-0.2,0.1
				c-0.3-0.1-0.3-0.1-0.4,0.2C49.6,49.7,49.6,49.7,49.7,49.7z"/>
			<path class="st40" d="M49.8,50.1c0.1,0,0.2,0,0.2-0.2s-0.1-0.2-0.2-0.2c-0.1,0-0.2,0-0.2,0.2C49.5,50.1,49.6,50.1,49.8,50.1z"/>
			<path class="st40" d="M52,46.9C52,47,52,47,52,46.9c0.1,0.1,0.2,0.1,0.2,0C52.1,46.9,52.1,46.8,52,46.9C52,46.8,52,46.9,52,46.9z
				"/>
			<path class="st40" d="M52.1,53.6c-0.4,0-0.7-0.1-1.1-0.3c-0.7-0.3-1.2-0.9-1.4-1.7c-0.2-0.7-0.3-1.5-0.2-2.2
				c0-0.8,0.2-1.6,0.4-2.4c0.3-1.5,0.8-3,1.3-4.4c0.4-1.2,0.8-2.3,1.1-3.5c0.1-0.4,0.2-0.7,0.2-1.1l0,0v-0.2H49l-5,6.8l-5-6.9
				c0,0-3.3,0.1-3.4,0.1l0.1,15.8h2.9V42.2l5,6.8h0.6l5.1-6.9v11.5H52.1z"/>
			<path class="st40" d="M50.2,49.8C50,49.8,50,49.9,50,50c0,0.2,0.1,0.2,0.2,0.2c0.1,0,0.2,0,0.2-0.2S50.4,49.8,50.2,49.8z"/>
		</g>
		<rect x="49.3" y="37.9" class="st41" width="3.1" height="15.7"/>
	</g>
	<g id="Layer_17">
		<g class="st9">
			<path class="st42" d="M42.4,18.7c-9.8,0-17.4,1-22.5,2.2v15.9c0,19.4,14.5,27.8,22.5,31V18.7z"/>
			<path class="st43" d="M53.3,73.4c-4.6,2.7-8.6,4.3-10.7,5C35.9,76.4,9.9,66.8,9.9,37V13.7c7.1-2.6,16.6-5,32-5
				c12.4,0,23.6,1.7,33.3,5v23.2c0,5.3-0.9,10-2.4,14.2"/>
			<ellipse class="st44" cx="64.5" cy="63.2" rx="15" ry="15.6"/>
			<polyline class="st45" points="70.1,58.2 62.8,68.1 57.4,63.9 			"/>
			<path class="st42" d="M76.2,62.7c0,6.7-5.4,12.1-12.1,12.1S52,69.4,52,62.7s5.4-12.1,12.1-12.1C70.8,50.7,76.2,56.1,76.2,62.7z"
				/>
		</g>
	</g>
	<g id="Layer_18">
		<g class="st9">
			<path class="st46" d="M44.8,41.4c0.2,1.7,1.2,2.4,2.7,2.4c1.7,0,2.3-0.8,2.3-2c0-1.3-0.6-2-3-2.8c-3.4-1.2-4.8-2.5-4.8-4.9
				c0-2.9,2.1-4.5,5.2-4.5c3.6,0,5.4,1.8,5.5,4.4h-3.2c-0.1-1-0.5-2.1-2.3-2.1c-1.1,0-1.9,0.7-1.9,1.8c0,1.1,0.5,1.7,3,2.6
				c3.3,1.2,4.8,2.7,4.8,5.1c0,3.4-2.3,4.8-5.7,4.8c-3.5,0-5.6-1.7-5.8-4.7L44.8,41.4L44.8,41.4z"/>
			<polygon class="st46" points="46.5,28.1 46.5,45.7 46.5,47 46.5,48.2 48.3,48.2 48.3,47 48.3,45.7 48.3,28.1 			"/>
			<path class="st46" d="M25.2,35.7v-2.8c4.1,0,7.4-3.3,7.4-7.4h2.8c0,2.7-1.1,5.3-3,7.2S27.9,35.7,25.2,35.7z"/>
			<path class="st46" d="M70,35.7c-2.7,0-5.3-1.1-7.2-3c-1.9-1.9-3-4.5-3-7.2h2.8c0,4.1,3.3,7.4,7.4,7.4V35.7z"/>
			<g>
				<g>
					<path class="st47" d="M14.9,73H8.4c-2.1,0-3.8-1.7-3.8-3.8V43.4c0-2.1,1.7-3.8,3.8-3.8h6.4c2.1,0,3.8,1.7,3.8,3.8v25.8
						C18.7,71.3,17,73,14.9,73z M8.4,42.4c-0.6,0-1,0.5-1,1v25.8c0,0.6,0.5,1,1,1h6.4c0.6,0,1-0.5,1-1V43.4c0-0.6-0.5-1-1-1H8.4z"/>
				</g>
			</g>
			<g>
				<g>
					<path class="st47" d="M60.2,58.1h-2.8v-1.6c0-2.4-2-4.4-4.4-4.4h-7.7c-2.9,0-5.7-0.6-8.4-1.7l-2.3-1c-2.3-1-4.8-1.5-7.3-1.5
						h-9.9v-2.8h9.9c2.9,0,5.7,0.6,8.4,1.7l2.3,1c2.3,1,4.8,1.5,7.3,1.5H53c4,0,7.2,3.2,7.2,7.2V58.1z"/>
				</g>
			</g>
			<g>
				<g>
					<path class="st47" d="M46.3,73c-1.3,0-2.6-0.2-3.9-0.6c-1.1-0.3-15-3.5-16.3-3.8c-0.9-0.2-1.7-0.4-2.6-0.4h-6.2v-2.8h6.2
						c1.2,0,2.3,0.2,3.4,0.5c1.6,0.4,15.5,3.6,16.5,3.9c1.9,0.5,3.9,0.6,5.8,0c0.9-0.3,1.7-0.6,2.5-1.1L78,55.5
						c1.3-0.8,1.8-2.5,1.1-3.9c-0.4-0.7-1-1.3-1.8-1.5S75.7,50,75,50.4l-16,9.2c-2.1,1.2-4.4,1.8-6.8,1.8H41.8
						c-0.8,0-1.4-0.6-1.4-1.4l0,0c0-0.8,0.6-1.4,1.4-1.4h10.3c1.9,0,3.8-0.5,5.4-1.5l16-9.2c1.4-0.8,3-1,4.5-0.5s2.8,1.5,3.5,2.9
						c1.4,2.7,0.4,6-2.2,7.6L53.1,71.1c-1,0.6-2,1.1-3.2,1.4C48.8,72.9,47.6,73,46.3,73z"/>
				</g>
			</g>
			<path class="st46" d="M26.6,26.9h42v19.4v3.2l2.8-1.6V26.7c0-1.4-1.2-2.6-2.6-2.6H26.3c-1.4,0-2.6,1.2-2.6,2.6V44h2.8V26.9H26.6z
				"/>
			<path class="st46" d="M76.4,46c0.2,0,0.4,0,0.6,0V21c0-1.4-1.2-2.6-2.6-2.6H32c-1.4,0-2.6,1.2-2.6,2.6v1.9h2.8v-1.6h42v22.2v2.9
				C75,46.1,75.7,46,76.4,46L76.4,46z"/>
			<path class="st46" d="M82.8,49V15.4c0-1.4-1.2-2.6-2.6-2.6H37.7c-1.4,0-2.6,1.2-2.6,2.6v1.9H38v-1.6h42v14.8V47
				C80.7,47.2,81.9,47.9,82.8,49z"/>
		</g>
	</g>
	<g id="Layer_19">
		<g class="st9">
			<g>
				<path class="st48" d="M48.1,32.2c0,2.1-1.7,3.8-3.8,3.8s-3.8-1.7-3.8-3.8v-3c0-2.1,1.7-3.8,3.8-3.8s3.8,1.7,3.8,3.8V32.2z"/>
				<path class="st48" d="M34.5,46.5c0.4-3.9,3.7-6.8,7.6-6.8h4.4c3.9,0,7.1,2.9,7.6,6.8"/>
			</g>
			<line class="st48" x1="31.9" y1="52.3" x2="57.1" y2="52.3"/>
			<line class="st48" x1="31.7" y1="55.8" x2="56.9" y2="55.8"/>
			<line class="st48" x1="31.9" y1="59.6" x2="57.1" y2="59.6"/>
			<line class="st49" x1="40.6" y1="74.9" x2="48.1" y2="74.9"/>
		</g>
		<path class="st50" d="M63.6,79.3H25.1c-3.3,0-6-2.7-6-6V12.2c0-3.3,2.7-6,6-6h38.5c3.3,0,6,2.7,6,6v61.1
			C69.6,76.6,66.9,79.3,63.6,79.3z"/>
		<circle class="st51" cx="70" cy="27.2" r="14.6"/>
		<g class="st9">
			<path class="st47" d="M70.1,30.3c-1.3,0-2.4-1.1-2.4-2.4s1.1-2.4,2.4-2.4s2.4,1.1,2.4,2.4C72.4,29.2,71.4,30.3,70.1,30.3z
				 M70.1,26.7c-0.7,0-1.2,0.5-1.2,1.2s0.5,1.2,1.2,1.2s1.2-0.5,1.2-1.2C71.2,27.3,70.7,26.7,70.1,26.7z"/>
		</g>
		<g class="st9">
			<path class="st47" d="M70,32.1c-0.3,0-0.6-0.3-0.6-0.6v-1.2c0-0.3,0.3-0.6,0.6-0.6c0.3,0,0.6,0.3,0.6,0.6v1.2
				C70.6,31.8,70.4,32.1,70,32.1z"/>
		</g>
		<g class="st9">
			<path class="st47" d="M74.5,33.9h-8.9c-0.8,0-1.5-0.7-1.5-1.5v-7.7c0-0.8,0.7-1.5,1.5-1.5h8.9c0.8,0,1.5,0.7,1.5,1.5v7.7
				C76,33.2,75.3,33.9,74.5,33.9z M65.6,24.4c-0.2,0-0.3,0.1-0.3,0.3v7.7c0,0.2,0.1,0.3,0.3,0.3h8.9c0.2,0,0.3-0.1,0.3-0.3v-7.7
				c0-0.2-0.1-0.3-0.3-0.3L65.6,24.4z"/>
		</g>
		<g class="st9">
			<path class="st47" d="M73,24.4h-5.9c-0.3,0-0.6-0.3-0.6-0.6v-1.5c0-1.8,1.4-3.3,3-3.3h1c1.7,0,3,1.5,3,3.3v1.5
				C73.6,24.1,73.3,24.4,73,24.4z M67.7,23.2h4.7v-0.9c0-1.2-0.8-2.1-1.9-2.1h-1c-1,0-1.9,0.9-1.9,2.1v0.9H67.7z"/>
		</g>
		<circle class="st50" cx="70" cy="27.2" r="11.7"/>
	</g>
	<g id="Layer_20">
		<g class="st9">
			<rect x="36.6" y="36.2" class="st52" width="16.9" height="13"/>
			<line class="st52" x1="40" y1="23.2" x2="50.2" y2="23.2"/>
			<line class="st52" x1="40" y1="27.5" x2="45.1" y2="27.5"/>
			<line class="st52" x1="40" y1="40.6" x2="50.2" y2="40.6"/>
			<line class="st52" x1="40" y1="44.9" x2="45.1" y2="44.9"/>
			<line class="st52" x1="40" y1="58" x2="50.2" y2="58"/>
			<line class="st52" x1="40" y1="62.3" x2="45.1" y2="62.3"/>
			<polyline class="st52" points="31.6,48.2 34.1,51.4 31.6,54.7 			"/>
			<path class="st52" d="M33.8,51.4H29c-0.9,0-1.6-1-1.6-2.2V27.5c0-1.2,0.7-2.2,1.6-2.2h7.3"/>
			<polyline class="st52" points="58.7,37.3 56.1,34.1 58.7,30.8 			"/>
			<path class="st52" d="M56.6,34.1h4.8c0.9,0,1.6,1,1.6,2.2V58c0,1.2-0.7,2.2-1.6,2.2h-7.1"/>
			<rect x="36.6" y="53.6" class="st52" width="16.9" height="13"/>
			<rect x="36.6" y="18.9" class="st52" width="16.9" height="13"/>
		</g>
		<path class="st53" d="M64.6,80.4H26c-3.3,0-6-2.7-6-6V13.3c0-3.3,2.7-6,6-6h38.5c3.3,0,6,2.7,6,6v61.1
			C70.6,77.7,67.9,80.4,64.6,80.4z"/>
		<line class="st53" x1="41.2" y1="76.1" x2="48.7" y2="76.1"/>
	</g>
	<g id="Interoperability" class="st9">
		<path class="st54" d="M51.3,19.6c-1-10-12.6-17.3-21.6-13.7c-5.5,2.3-10.9,5.4-14.1,9.9C4,31.5,17.9,62.1,34.3,72
			c16.4,10,39.5,4.8,45.3-2.6c5.8-7.4-4-10.1-23.8-29.1C54,38.4,52,26.9,51.3,19.6z"/>
	</g>
	<g id="BCA">
		<g class="st9">
			<path class="st55" d="M57.7,74.3c-0.3,0-0.6-0.1-0.9-0.4L46.2,62c-0.1-0.1-0.3-0.2-0.4-0.2c-0.1,0-0.1,0-0.2,0
				c-0.2,0.1-0.4,0.3-0.4,0.5v10.8c0,0.6-0.5,1.1-1.1,1.1S43,73.7,43,73.1V62.4c0-0.2-0.1-0.4-0.4-0.5c-0.1,0-0.1,0-0.2,0
				c-0.2,0-0.3,0.1-0.4,0.2L31.4,74c-0.2,0.2-0.5,0.4-0.9,0.4c-0.3,0-0.5-0.1-0.8-0.3c-0.2-0.2-0.4-0.5-0.4-0.8s0.1-0.6,0.3-0.8
				l9.6-10.7c0.1-0.2,0.2-0.4,0.1-0.6c-0.1-0.2-0.3-0.3-0.5-0.3H18.7c-0.6,0-1.1-0.5-1.1-1.1V22.3c0-0.6,0.5-1.1,1.1-1.1h50.9
				c0.6,0,1.1,0.5,1.1,1.1v37.3c0,0.6-0.5,1.1-1.1,1.1H49.4c-0.2,0-0.4,0.1-0.5,0.3s-0.1,0.4,0.1,0.6l9.6,10.7
				c0.2,0.2,0.3,0.5,0.3,0.8s-0.2,0.6-0.4,0.8C58.2,74.2,58,74.3,57.7,74.3z M20.4,23.4c-0.3,0-0.6,0.2-0.6,0.6v33.9
				c0,0.3,0.2,0.6,0.6,0.6h47.5c0.3,0,0.6-0.2,0.6-0.6V24c0-0.3-0.2-0.6-0.6-0.6H20.4z"/>
			<path class="st55" d="M25.5,29.4c-0.6,0-1.1-0.5-1.1-1.1s0.5-1.1,1.1-1.1h37.3c0.6,0,1.1,0.5,1.1,1.1s-0.5,1.1-1.1,1.1H25.5z"/>
			<path class="st55" d="M25.5,34.9c-0.6,0-1.1-0.5-1.1-1.1s0.5-1.1,1.1-1.1h18.1c0.6,0,1.1,0.5,1.1,1.1s-0.5,1.1-1.1,1.1H25.5z"/>
			<path class="st55" d="M25.5,54c-0.6,0-1.1-0.5-1.1-1.1v-8.5c0-0.6,0.5-1.1,1.1-1.1H34c0.6,0,1.1,0.5,1.1,1.1v8.5
				c0,0.6-0.5,1.1-1.1,1.1H25.5z M27.2,45.5c-0.3,0-0.6,0.2-0.6,0.6v5.1c0,0.3,0.2,0.6,0.6,0.6h5.1c0.3,0,0.6-0.2,0.6-0.6v-5.1
				c0-0.3-0.2-0.6-0.6-0.6H27.2z"/>
			<path class="st55" d="M39,54c-0.6,0-1.1-0.5-1.1-1.1V39.3c0-0.6,0.5-1.1,1.1-1.1h10.2c0.6,0,1.1,0.5,1.1,1.1v13.6
				c0,0.6-0.5,1.1-1.1,1.1H39z M40.7,40.4c-0.3,0-0.6,0.2-0.6,0.6v10.2c0,0.3,0.2,0.6,0.6,0.6h6.8c0.3,0,0.6-0.2,0.6-0.6V41
				c0-0.3-0.2-0.6-0.6-0.6H40.7z"/>
			<path class="st55" d="M54.3,54c-0.6,0-1.1-0.5-1.1-1.1V34.2c0-0.6,0.5-1.1,1.1-1.1h8.5c0.6,0,1.1,0.5,1.1,1.1v18.7
				c0,0.6-0.5,1.1-1.1,1.1H54.3z M56,35.3c-0.3,0-0.6,0.2-0.6,0.6v15.3c0,0.3,0.2,0.6,0.6,0.6h5.1c0.3,0,0.6-0.2,0.6-0.6V35.9
				c0-0.3-0.2-0.6-0.6-0.6L56,35.3z"/>
		</g>
		<path class="st56" d="M10.7,32.9C7.6,44.4,9,57.4,14.9,64.6c1.1,1.3,3.1,3.7,6.7,4.9c4,1.3,7.5,0.1,8.5-0.3
			c5.1-1.8,5.7-5.3,10.7-10.5c7.7-8,13.9-7.6,21-16.3c1-1.3,2.6-3.3,3.3-6.3c0,0,1.1-4.4-0.6-9.3C60.7,16.2,43,7.9,29,11.7
			c-4,1.1-6.7,2.9-7.4,3.4C14.2,20.2,12,28.1,10.7,32.9z"/>
	</g>
	<g id="EHR">
		<g class="st9">
			<path class="st57" d="M32.5,61.5l9.4-9.4c0.5,0.2,1,0.4,1.5,0.5l0,0c3.7,1,7.9,0,10.8-2.9c2.4-2.4,3.5-5.6,3.3-8.8
				c0-0.6-0.7-0.8-1.1-0.4l-5.7,5.7l-7.3-1.7l-1.7-7.3l5.7-5.7c0.4-0.4,0.1-1.1-0.4-1.1c-3.7-0.3-7.6,1.3-10,4.8
				c-1.9,2.7-2.5,6.2-1.7,9.3l0,0c0.1,0.5,0.3,1,0.5,1.5l-9.4,9.4"/>
			<path class="st57" d="M70.1,37.7l5.2,1.8c0.5,0.2,0.8,0.6,0.8,1.1v6.7c0,0.5-0.3,1-0.8,1.1l-5.2,1.8l-2.2,5.9l2.8,4.7
				c0.3,0.4,0.2,1-0.1,1.4l-4.3,5.2c-0.3,0.4-0.9,0.5-1.3,0.3l-5.1-2l-5.5,3.2l-0.8,5.4c-0.1,0.5-0.5,0.9-1,1L46,76.5
				c-0.5,0.1-1-0.2-1.2-0.6l-2.7-4.8L35.9,70l-4.1,3.6c-0.4,0.3-0.9,0.4-1.4,0.1l-5.8-3.4c-0.4-0.3-0.7-0.8-0.6-1.2l1.1-5.4l-4-4.8
				L15.5,59c-0.5,0-1-0.3-1.1-0.8L12,51.9c-0.2-0.5,0-1,0.4-1.3l4.3-3.4v-6.3l-4.3-3.4c-0.4-0.3-0.5-0.8-0.4-1.3l2.3-6.3
				c0.2-0.5,0.6-0.8,1.1-0.8l5.5,0.1l4-4.8L23.8,19c-0.1-0.5,0.1-1,0.6-1.2l5.8-3.4c0.4-0.3,1-0.2,1.4,0.1l4.1,3.6l6.2-1.1l2.7-4.8
				c0.2-0.4,0.7-0.7,1.2-0.6l6.6,1.2c0.5,0.1,0.9,0.5,1,1l0.8,5.4l5.5,3.2l5.1-2c0.5-0.2,1,0,1.3,0.3l4.3,5.2
				c0.3,0.4,0.4,0.9,0.1,1.4L67.7,32L70.1,37.7z M43.6,23.1C32,23.1,22.7,32.5,22.7,44s9.4,20.9,20.9,20.9
				c11.6,0,20.9-9.4,20.9-20.9S55.2,23.1,43.6,23.1z"/>
		</g>
		<path class="st58" d="M38.2,35c10.9,8.8,6.1,34.1,12.9,41.4c0.5,0.5,1.9,2.1,4,2.3c2.7,0.3,5-1.8,6-2.8c4.8-4.5,7.1-12.2,9.3-20
			c4.1-14.4,5.9-21.7,3.6-29c-0.4-1.2-0.7-1.7-0.8-2C70.6,20,63,18.4,53.3,16.3c-14.6-3-17.2-4.1-21.9-2.7c-1.8,0.5-7.2,2.2-8.2,6.1
			c-0.3,1.3-0.2,2.8,1.1,5.1C27.9,31.2,33.9,31.4,38.2,35z"/>
	</g>
	<g id="Physician_Advisor_Services">
		<path class="st20" d="M9,43.5c0.7,10.2,6.9,20.8,14.6,27.4c4.7,4,9,5.8,10.1,6.2c6.2,2.4,11,2.1,17.6,1.1
			c3.9-0.6,7.5-1.3,10.9-2.3c2.9-0.8,4.3-1.1,5.8-1.8c2.8-1.3,5.8-2.8,6.2-6.4c0.2-2.2-0.6-4.4-1.3-5.8C68.7,53.2,59.4,50.2,53,46.3
			c-11-6.7-10-16.1-19.3-23.1c-1.7-1.3-3.6-2.3-5.5-2.6c-2.4-0.4-4.3,0.3-5.9,1.5C8.6,32.2,9,43.5,9,43.5z"/>
		<g class="st9">
			<path class="st57" d="M41.6,51C32.4,50.7,27,45.5,27,36.3V19.6c0-4.1,3.4-7.5,7.5-7.5"/>
			<path class="st57" d="M53.1,12.1c4.1,0,7.5,3.4,7.5,7.5v16.6c0,9.2-5.4,14.5-14.5,14.8"/>
			<path class="st57" d="M60.6,27.9c0,9.4-5.4,14.8-14.8,14.8h-4c-9.4,0-14.8-5.4-14.8-14.8"/>
			<path class="st57" d="M33.8,12.1c0-1.6,1.3-2.9,2.9-2.9c1.6,0,2.9,1.3,2.9,2.9S38.3,15,36.7,15C35.1,15.1,33.8,13.7,33.8,12.1z"
				/>
			<circle class="st57" cx="51" cy="12.1" r="2.9"/>
			<polyline class="st57" points="41.2,51 41.2,47.5 46.5,47.5 46.5,54.5 41.2,54.5 41.2,51 			"/>
			<path class="st57" d="M43.8,54.9v17.3c0,5.1-2.4,9.2-5.8,10.7c-7.8,3.4-15.6-1.7-15.6-9.2c0-11.4,19.1-9.8,33.3-4.7"/>
			<path class="st57" d="M54.3,71.9c0-4.8,3.9-8.7,8.7-8.7s8.7,3.9,8.7,8.7s-3.9,8.7-8.7,8.7S54.3,76.7,54.3,71.9z"/>
			<path class="st57" d="M59.7,70.7c0.7-1.8,2.7-2.6,4.5-1.9c1.8,0.7,2.6,2.7,1.9,4.5s-2.7,2.6-4.5,1.9C59.9,74.4,59,72.4,59.7,70.7
				z"/>
		</g>
	</g>
	<g id="Implementation">
		<path class="st13" d="M21,20.4c-14.4,13.5-9.9,38.1-1.8,49.9c2,3,6.3,8.4,13,8.9c5.8,0.4,10.9-3.6,13.9-8.8
			c7.1-12.2,0.5-23.6,6.7-36.6c1.5-3.2,3.9-6,5.1-9.4c1.1-3,0.9-6.5-1.4-8.4C50.1,10.8,32.3,9.9,21,20.4z"/>
		<path class="st59" d="M66.8,33.7H62c-0.6,0-1.1,0.5-1.1,1.1c0,0.3,0.1,0.6,0.3,0.8s0.5,0.3,0.8,0.3h4.8c0.6,0,1.1-0.5,1.1-1.1
			S67.4,33.7,66.8,33.7z M73,27.6H30.7c-1.9,0-3.5,1.6-3.5,3.5v20.8h2.2V31.1c0-0.7,0.6-1.3,1.3-1.3H73c0.7,0,1.3,0.6,1.3,1.3v25.6
			c0,0.7-0.6,1.3-1.3,1.3H52.8c0.2,0.6,0.3,1.1,0.3,1.7v0.6h2.6l1.1,3.6h-3.7v2.2h5.2l0,0l0,0h4.6l0.1,0.1l0.7,1.6H53.1v0.3
			c0,0.7-0.1,1.3-0.4,1.9h12c0.6,0,1.1-0.3,1.4-0.7c0.3-0.5,0.3-1,0.1-1.6l-1.1-2.5c-0.4-0.8-1.3-1.4-2.1-1.4h-3.8L58,60.2h15
			c1.9,0,3.5-1.6,3.5-3.5V31.1C76.6,29.1,75,27.6,73,27.6z M62.1,43.1c-0.6,0-1.1,0.5-1.1,1.1c0,0.3,0.1,0.6,0.3,0.8
			s0.5,0.3,0.8,0.3h4.8c0.6,0,1.1-0.5,1.1-1.1s-0.5-1.1-1.1-1.1H62.1z M70,38.4H58.9c-0.6,0-1.1,0.5-1.1,1.1c0,0.3,0.1,0.6,0.3,0.8
			s0.5,0.3,0.8,0.3H70c0.6,0,1.1-0.5,1.1-1.1S70.6,38.4,70,38.4z M47.1,55.5c-0.5-0.5-1.4-0.8-2.1-0.8H22.7c-0.7,0-1.6,0.3-2.1,0.8
			l-2.2,2c-0.6,0.5-1,1.4-1,2.2v8.5c0,1.1,0.9,1.9,1.9,1.9h29c1.1,0,1.9-0.9,1.9-1.9v-8.5c0-0.7-0.4-1.7-1-2.2L47.1,55.5z M48,62.5
			H28.2v2.2H48v3H19.7v-8.1c0-0.1,0.1-0.4,0.2-0.5l2.2-2c0.1-0.1,0.5-0.2,0.6-0.2H45c0.2,0,0.5,0.1,0.6,0.2l2.2,2
			c0.1,0.1,0.2,0.4,0.2,0.5V62.5z M24,61.9c-1,0-1.8,0.8-1.8,1.8c0,1,0.8,1.8,1.8,1.8s1.8-0.8,1.8-1.8C25.7,62.7,24.9,61.9,24,61.9z
			"/>
	</g>
	<g class="st9">
		<path class="st60" d="M85.4,66.7c0,9.1-7.4,16.4-16.4,16.4s-16.4-7.4-16.4-16.4s7.4-16.4,16.4-16.4S85.4,57.7,85.4,66.7z"/>
		<g>
			<path class="st60" d="M68.4,66.7c0,0.3,0.2,0.5,0.5,0.5c0.3,0,0.5-0.2,0.5-0.5c0-0.3-0.2-0.5-0.5-0.5
				C68.6,66.3,68.4,66.5,68.4,66.7z"/>
			<polyline class="st60" points="61.5,71 68.9,66.7 68.9,55.8 			"/>
		</g>
		<path class="st60" d="M52.3,64.7H9c-2.4,0-4.4-2-4.4-4.4V21.1c0-2.4,2-4.4,4.4-4.4h54.6c2.4,0,4.4,2,4.4,4.4v29.2"/>
		<line class="st60" x1="4.5" y1="26.6" x2="68" y2="26.6"/>
		<g>
			<line class="st60" x1="27.1" y1="33.5" x2="31.5" y2="33.5"/>
			<line class="st60" x1="40.7" y1="33.5" x2="45.1" y2="33.5"/>
			<line class="st60" x1="54.3" y1="33.5" x2="58.8" y2="33.5"/>
		</g>
		<g>
			<line class="st60" x1="13.4" y1="41.3" x2="17.8" y2="41.3"/>
			<line class="st60" x1="27.1" y1="41.3" x2="31.5" y2="41.3"/>
			<line class="st60" x1="40.7" y1="41.3" x2="45.1" y2="41.3"/>
			<line class="st60" x1="54.3" y1="41.3" x2="58.8" y2="41.3"/>
		</g>
		<g>
			<line class="st60" x1="13.4" y1="49" x2="17.8" y2="49"/>
			<line class="st60" x1="27.1" y1="49" x2="31.5" y2="49"/>
			<line class="st60" x1="40.7" y1="49" x2="45.1" y2="49"/>
			<line class="st60" x1="54.3" y1="49" x2="58.8" y2="49"/>
		</g>
		<g>
			<line class="st60" x1="13.4" y1="56.4" x2="17.8" y2="56.4"/>
			<line class="st60" x1="27.1" y1="56.4" x2="31.5" y2="56.4"/>
			<line class="st60" x1="40.7" y1="56.4" x2="45.1" y2="56.4"/>
		</g>
		<line class="st60" x1="13.9" y1="21.4" x2="13.9" y2="10.1"/>
		<line class="st60" x1="58.6" y1="21.4" x2="58.6" y2="10.1"/>
		<line class="st60" x1="43.7" y1="21.4" x2="43.7" y2="10.1"/>
		<line class="st60" x1="28.8" y1="21.4" x2="28.8" y2="10.1"/>
	</g>
</g>
<g id="Layer_2" class="st0">
	<path class="st61" d="M70.2,69c8.2-9.7,12-23,8.4-32.7c-0.7-1.8-1.9-5-5.4-7.9c-3.9-3.1-8.3-3.6-9.5-3.7c-6.4-0.6,1.7,17.5-6,20.2
		C45.8,49,29,30.7,17.5,35.8c-1.6,0.8-4.2,2-6.2,4.6c0,0-3,3.8-3.2,9.3C7.9,61.7,24.1,78.1,41.2,81c4.9,0.8,8.6,0.3,9.6,0.2
		C61.1,79.7,66.7,73,70.2,69z"/>
	<g class="st9">
		<path class="st62" d="M78.9,50.9c-3.3,3.5-3.3,9,0.2,12.5c0.1,0.1,0.2,0.2,0.3,0.2"/>
		<path class="st62" d="M57.3,61.2l-7.7,1.4l0,0c1.4,0,2.6,1.1,2.6,2.6v8.5l3.8-3.8l3.8,2.6v-8.6C59.8,62.4,58.7,61.2,57.3,61.2
			L57.3,61.2z"/>
		<polyline class="st62" points="59.8,67.3 80.3,63.5 77.7,61.7 		"/>
		<path class="st62" d="M18.9,40.1l-2.4,0.5c-3.5,0.6-5.8,3.9-5.2,7.4c0.3,1.5,1,2.8,2.1,3.7l20.4,17.9"/>
		<line class="st62" x1="11.2" y1="22.5" x2="11.2" y2="35.3"/>
		<path class="st62" d="M12.3,24.3l31,13.1c0.8,0.3,1.6,0.5,2.5,0.5l0,0c0.8,0,1.7-0.2,2.5-0.5l31-13.1c0.7-0.3,1.1-1,1.1-1.7l0,0
			c0-0.8-0.5-1.5-1.3-1.8L48.2,10.2c-0.8-0.3-1.6-0.4-2.5-0.4l0,0c-0.8,0-1.7,0.1-2.5,0.4L12.4,20.8c-0.7,0.3-1.3,1-1.3,1.8l0,0
			C11.2,23.3,11.6,24,12.3,24.3z"/>
		<path class="st62" d="M24,29.2v11.9c0,1.2,0.6,2.4,1.6,3.1c11.5,8.5,28.8,8.5,40.3,0c1-0.7,1.6-1.9,1.6-3.1V29.2"/>
		<path class="st62" d="M71.8,44.8l8.5,5.9L37,58.5c-3.5,0.6-5.8,3.9-5.2,7.4c0.6,3.5,3.9,5.8,7.4,5.2l13-2.4"/>
	</g>
	<rect x="15.3" y="79.4" class="st63" width="60.7" height="10.8"/>
	<text transform="matrix(1 0 0 1 15.3268 83.0863)" class="st9 st64 st65">Education</text>
</g>
<g id="Layer_3" class="st0">
	<path class="st66" d="M17.4,48.6c3.9,11.8,12.2,22.8,20.9,26.4c1.6,0.6,4.5,1.8,8,1.1c3.9-0.8,6-3.6,6.6-4.4
		c3.1-4.1-13.6-9.7-12.5-16.9c1.7-11,22.1-11.5,22.9-22.8c0.1-1.7,0.2-4.2-0.9-7.3c0,0-1.6-4.5-5.6-8c-8.9-7.6-27.6-6.4-36.6,3.9
		c-2.6,3-3.7,5.9-4,6.7C13.1,35.4,15.8,43.6,17.4,48.6z"/>
	<g class="st9">
		<path class="st62" d="M47.7,70.5"/>
		<g>
			<path class="st62" d="M43.2,47.3c0,2.4,2.3,4.4,5.2,4.4s5.2-1.9,5.2-4.4c0-2.4-1.8-4.4-5.2-4.4c-3.5,0-5.2-1.9-5.2-4.4
				c0-2.4,2.3-4.4,5.2-4.4s5.2,1.9,5.2,4.4"/>
			<line class="st62" x1="48.4" y1="33.4" x2="48.4" y2="30.4"/>
			<line class="st62" x1="48.4" y1="55.5" x2="48.4" y2="52.5"/>
		</g>
		<path class="st62" d="M35.9,70.5H23.2c-0.1,0-0.2-0.1-0.2-0.2v-6.2c0-0.1,0.1-0.2,0.2-0.2h12.7c0.1,0,0.2,0.1,0.2,0.2v6.2
			C36.1,70.4,36,70.5,35.9,70.5z"/>
		<path class="st62" d="M35.9,63.9H23.2c-0.1,0-0.2-0.1-0.2-0.2v-6.2c0-0.1,0.1-0.2,0.2-0.2h12.7c0.1,0,0.2,0.1,0.2,0.2v6.2
			C36.1,63.8,36,63.9,35.9,63.9z"/>
		<path class="st62" d="M22.7,70.5H10c-0.1,0-0.2-0.1-0.2-0.2v-6.2c0-0.1,0.1-0.2,0.2-0.2h12.7c0.1,0,0.2,0.1,0.2,0.2v6.2
			C22.9,70.4,22.9,70.5,22.7,70.5z"/>
		<path class="st62" d="M22.7,63.9H10c-0.1,0-0.2-0.1-0.2-0.2v-6.2c0-0.1,0.1-0.2,0.2-0.2h12.7c0.1,0,0.2,0.1,0.2,0.2v6.2
			C22.9,63.8,22.9,63.9,22.7,63.9z"/>
		<path class="st62" d="M35.9,57.3H23.2c-0.1,0-0.2-0.1-0.2-0.2V51c0-0.1,0.1-0.2,0.2-0.2h12.7c0.1,0,0.2,0.1,0.2,0.2v6.2
			C36.1,57.3,36,57.3,35.9,57.3z"/>
		<path class="st62" d="M35.9,50.8H23.2c-0.1,0-0.2-0.1-0.2-0.2v-6.2c0-0.1,0.1-0.2,0.2-0.2h12.7c0.1,0,0.2,0.1,0.2,0.2v6.2
			C36.1,50.7,36,50.8,35.9,50.8z"/>
		<path class="st62" d="M74.6,70.5H61.8c-0.1,0-0.2-0.1-0.2-0.2v-6.2c0-0.1,0.1-0.2,0.2-0.2h12.7c0.1,0,0.2,0.1,0.2,0.2v6.2
			C74.8,70.4,74.7,70.5,74.6,70.5z"/>
		<path class="st62" d="M74.6,63.9H61.8c-0.1,0-0.2-0.1-0.2-0.2v-6.2c0-0.1,0.1-0.2,0.2-0.2h12.7c0.1,0,0.2,0.1,0.2,0.2v6.2
			C74.8,63.8,74.7,63.9,74.6,63.9z"/>
		<path class="st62" d="M74.6,57.3H61.8c-0.1,0-0.2-0.1-0.2-0.2V51c0-0.1,0.1-0.2,0.2-0.2h12.7c0.1,0,0.2,0.1,0.2,0.2v6.2
			C74.8,57.3,74.7,57.3,74.6,57.3z"/>
		<g>
			<path class="st62" d="M39.2,9.8c-0.5-1.5,0.4-3.1,1.8-3.2c0,0,0,0,0,0c0.8,0,4.1,4,6.1,3.7c4-0.6,7.8-3.7,8.6-3.7c0,0,0,0,0,0
				c1.4,0,2.2,1.7,1.8,3.2l-1.9,4.8c-0.4,1-0.6,2-0.6,3v2.6H41.7v-2.6c0-1-0.2-2-0.6-3L39.2,9.8z"/>
			<path class="st62" d="M28.7,44.2c0.5-10.8,3.6-19.9,13-24"/>
			<line class="st62" x1="71.5" y1="70.5" x2="25.3" y2="70.5"/>
			<path class="st62" d="M55.1,20.2C65.7,24.8,68.2,35.5,68.2,48v2.8"/>
		</g>
		<g>
			<polyline class="st62" points="70.1,15.6 74.8,20.2 70.1,24.9 			"/>
			<line class="st62" x1="73.5" y1="20.2" x2="65.9" y2="20.2"/>
		</g>
		<line class="st62" x1="30.3" y1="20.2" x2="9.8" y2="20.2"/>
	</g>
	<rect x="15.3" y="79.4" class="st63" width="60.7" height="10.8"/>
	<text transform="matrix(1 0 0 1 15.3268 83.0863)" class="st9 st64 st65">Economic Stability</text>
</g>
<g id="Layer_4" class="st0">
	<g id="Interoperability_00000029766093572399065370000007533310051497297313_" class="st9">
		<path class="st67" d="M33.2,63.5C33.7,74,45.2,81.9,54.8,78.3C60.6,76,66.4,72.9,70,68.2C82.8,52,81.5,28.1,65.1,17.4
			c-16.4-10.8-46.7-1.6-38.6,4.2C61.7,46.5,32.8,55.8,33.2,63.5z"/>
	</g>
	<g class="st9">
		<path class="st62" d="M35.1,23.3c3.6,0,6.4-2.9,6.4-6.4c0-3.6-2.9-6.4-6.4-6.4c-3.6,0-6.4,2.9-6.4,6.4
			C28.6,20.4,31.5,23.3,35.1,23.3z"/>
		<path class="st62" d="M57.2,23.3c3.6,0,6.4-2.9,6.4-6.4c0-3.6-2.9-6.4-6.4-6.4c-3.6,0-6.4,2.9-6.4,6.4
			C50.8,20.4,53.7,23.3,57.2,23.3z"/>
		<path class="st62" d="M26.4,38.1c3.7,0,6.7-3,6.7-6.7c0-3.7-3-6.7-6.7-6.7c-3.7,0-6.7,3-6.7,6.7C19.7,35.1,22.7,38.1,26.4,38.1z"
			/>
		<path class="st62" d="M19.6,46.8c1.8-1.2,2.1-3.2,1.1-5.1c-0.7-1.2-1.2-1.7-2.2-1.6c-0.8,0.1-1.7,0.8-2.6,1.4
			c-1.8,1.3-3,2.1-1.8,4.2C14.6,46.6,17,48.5,19.6,46.8z"/>
		<path class="st62" d="M46.1,36.9c3.7,0,6.7-3,6.7-6.7c0-3.7-3-6.7-6.7-6.7c-3.7,0-6.7,3-6.7,6.7C39.4,33.9,42.4,36.9,46.1,36.9z"
			/>
		<path class="st62" d="M53.7,73.6V48.9c0-3.6,1.6-5.7,2.5-7c-1.5-1.3-3.4-1.5-6.3-1.6l-3.9,3.5l-3.9-3.5c-2.8,0-4.8,0.3-6.3,1.6
			c0,0,2.5,2.7,2.5,7v24.7"/>
		<path class="st62" d="M38.5,52.1c0,0-3.3-0.8-4.5-1.2v22.7"/>
		<path class="st62" d="M18.8,73.6c0,0,0-6.4,0-6.4c-2.3,0-4-1.2-4-3.5v-13c0-1.1,0.1-2.1,0.4-2.9c0-0.2,0.1-0.5,0.3-0.8"/>
		<path class="st62" d="M21,42.1c0.6-0.2,1.3-0.3,2.1-0.3l3.7,3.2l3.7-3.9c2,0,4.1,0.2,5.5,0.8"/>
		<path class="st62" d="M65.9,38.1c-3.7,0-6.7-3-6.7-6.7c0-3.7,3-6.7,6.7-6.7c3.7,0,6.7,3,6.7,6.7C72.6,35.1,69.6,38.1,65.9,38.1z"
			/>
		<path class="st62" d="M72.7,46.8c-1.8-1.2-2.1-3.2-1.1-5.1c0.7-1.2,1.2-1.7,2.2-1.6c0.8,0.1,1.7,0.8,2.6,1.4
			c1.8,1.3,3,2.1,1.8,4.2C77.7,46.6,75.3,48.5,72.7,46.8z"/>
		<path class="st62" d="M53.8,52.1c0,0,3.3-0.8,4.5-1.2v22.7"/>
		<path class="st62" d="M73.5,73.6c0,0,0-6.4,0-6.4c2.3,0,4-1.2,4-3.5v-13c0-1.1-0.1-2.1-0.4-2.9c0-0.2-0.1-0.5-0.3-0.8"/>
		<path class="st62" d="M71.3,42.1c-0.6-0.2-1.3-0.3-2.1-0.3L65.5,45l-3.7-3.9c-2,0-4.1,0.2-5.5,0.8"/>
	</g>
	<rect x="7.3" y="81.4" class="st63" width="81.7" height="10.8"/>
	<text transform="matrix(1 0 0 1 7.3268 85.0873)" class="st9 st64 st65">Neighboorhood Environment</text>
</g>
<g id="Layer_5" class="st0">
	<g id="Interoperability_00000062898823456331681550000008317685064105675673_" class="st9">
		<path class="st68" d="M63.1,50.4c9.4,0.8,17.9-8.5,15.8-17.4c-1.3-5.5-3.4-11-7.1-14.8c-12.8-13.4-43.2-6.1-54.7,7.1
			C5.4,38.6,6.9,60.8,12.9,67.5s9.9-1.9,30.4-16.7C45.3,49.5,56.2,49.8,63.1,50.4z"/>
	</g>
	<g class="st9">
		<g>
			<path class="st62" d="M44.6,54.7c-4.8,0-8.5,3.1-9.7,7.4"/>
			<path class="st62" d="M54.2,62.1c-1.2-4.3-4.9-7.4-9.7-7.4"/>
			<path class="st62" d="M47.1,51.2h-5c-0.8,0-1.5-0.7-1.5-1.5v-6.5c0-0.8,0.7-1.5,1.5-1.5h5c0.8,0,1.5,0.7,1.5,1.5v6.5
				C48.6,50.5,47.9,51.2,47.1,51.2z"/>
			<path class="st62" d="M25.3,54.8L25.3,54.8c-2.2,0-4-1.8-4-4v-1.5c0-2.2,1.8-4,4-4l0,0c2.2,0,4,1.8,4,4v1.5
				C29.2,53,27.5,54.8,25.3,54.8z"/>
			<polyline class="st62" points="26.9,66 22.9,73.6 26.3,73.6 			"/>
			<path class="st62" d="M14.8,73.5c0,0,1.6-18.3,9.2-15.3c2.8,1.2,7.3,4.6,16.2,4.4c2.3,0,2.4,4.5,0.1,4.5
				c-7.2,0.1-12.2-0.7-15.8-2.6"/>
			<line class="st62" x1="42" y1="65.3" x2="49.5" y2="65.3"/>
			<path class="st62" d="M64.2,54.8L64.2,54.8c2.2,0,4-1.8,4-4v-1.5c0-2.2-1.8-4-4-4l0,0c-2.2,0-4,1.8-4,4v1.5
				C60.2,53,62,54.8,64.2,54.8z"/>
			<polyline class="st62" points="62.5,66 66.5,73.6 63.1,73.6 			"/>
			<path class="st62" d="M74.7,73.5c0,0-1.6-18.3-9.2-15.3c-2.8,1.2-5.3,4.6-14.2,4.4c-2.3,0-2.4,4.5-0.1,4.5
				c7.2,0.1,10.2-0.7,13.8-2.6"/>
		</g>
		<path class="st62" d="M52.5,14.3v11.8c0,2.1-1.7,3.9-3.9,3.9H36.4l-7.5,6v-6h-0.8c-2.1,0-3.8-1.7-3.8-3.9V14.3
			c0-2.1,1.7-4.6,3.8-4.6h20.5C50.8,9.8,52.5,12.2,52.5,14.3z"/>
		<path class="st62" d="M38.7,30v3.3c0,1.8,1.4,3.3,3.3,3.3h10.4l6.3,5.1v-5.1h0.7c1.8,0,3.3-1.5,3.3-3.3V21.6
			c0-1.8-1.4-3.3-3.3-3.3h-6.8"/>
		<line class="st62" x1="12.8" y1="73.6" x2="76.6" y2="73.6"/>
		<g>
			<line class="st62" x1="32.4" y1="20.6" x2="35.1" y2="20.6"/>
			<line class="st62" x1="37.4" y1="20.6" x2="40.1" y2="20.6"/>
			<line class="st62" x1="42.4" y1="20.7" x2="45.1" y2="20.7"/>
		</g>
	</g>
	<rect x="8.3" y="79.4" class="st63" width="82.1" height="10.8"/>
	<text transform="matrix(1 0 0 1 8.3268 83.0873)" class="st9 st64 st65">Social &amp; Community Context</text>
</g>
<g id="Layer_6" class="st0">
	<g class="st9">
		<g>
			<g>
				<path class="st60" d="M115.9,112.9c0-2.2-0.7-2.9-2.1-4.6l-6.6-8.6c-2.3-3.1-3.6-6.9-3.6-10.8V74.6c0-1.8,1.5-3.3,3.3-3.3l0,0
					c1.8,0,3.3,1.5,3.3,3.3l-0.1,11.3c0,2.7,1,5.3,2.8,7.4l5.7,6.3l0,0l-6.1-6.8c-1.2-1.3-1.4-3.3-0.3-4.7c1.4-1.7,4-1.8,5.4-0.2
					l7.5,6.7c2.2,2,3.4,4.7,3.4,7.7v10.6"/>
				<path class="st60" d="M128.1,118.2h-11.9c-1.2,0-2.2-1-2.2-2.2v-0.9c0-1.2,1-2.2,2.2-2.2h11.9c1.2,0,2.2,1,2.2,2.2v0.9
					C130.2,117.2,129.2,118.2,128.1,118.2z"/>
			</g>
			<g>
				<path class="st60" d="M148.8,112.9c0-2.2,0.7-2.9,2.1-4.6l6.6-8.6c2.3-3.1,3.6-6.9,3.6-10.8V74.6c0-1.8-1.5-3.3-3.3-3.3h0
					c-1.8,0-3.3,1.5-3.3,3.3l0.1,11.3c0,2.7-1,5.3-2.8,7.4l-5.7,6.3l0,0l6.1-6.8c1.2-1.3,1.4-3.3,0.3-4.7c-1.4-1.7-4-1.8-5.4-0.2
					l-7.5,6.7c-2.2,2-3.4,4.7-3.4,7.7v10.6"/>
				<path class="st60" d="M136.7,118.2h11.9c1.2,0,2.2-1,2.2-2.2v-0.9c0-1.2-1-2.2-2.2-2.2h-11.9c-1.2,0-2.2,1-2.2,2.2v0.9
					C134.5,117.2,135.5,118.2,136.7,118.2z"/>
			</g>
		</g>
		<g>
			<path class="st60" d="M132.4,60.1c0,0,3.8-4.9,10.7-4.9c6.3,0,10.7,5.4,10.7,11.9c0,8.9-8.7,14.8-21.4,26
				C119.7,81.9,111,76,111,67.1c0-6.4,4.4-11.9,10.7-11.9C128.6,55.2,132.4,60.1,132.4,60.1z"/>
		</g>
		<polygon class="st69" points="140.5,76 135.3,76 135.3,81.2 130,81.2 130,76 124.8,76 124.8,70.6 130,70.6 130,65.4 135.3,65.4 
			135.3,70.6 140.5,70.6 		"/>
	</g>
	<rect x="5" y="78.3" class="st63" width="60.7" height="10.8"/>
	<text transform="matrix(1 0 0 1 4.985 81.9967)" class="st9 st64 st65">Health &amp; Healthcare</text>
</g>
<g id="Layer_11" class="st0">
	<ellipse class="st70" cx="43.9" cy="44.1" rx="43.3" ry="42.4"/>
</g>
<g id="Layer_7">
	<path class="st71" d="M72,60c6.5-11.8,7.7-26.5,2-35.9c-1.1-1.7-3-4.9-7.2-7.1c-4.6-2.5-9.2-2-10.6-1.8c-6.7,0.7,5.2,17.9-2.1,22.3
		c-11.3,6.8-32.4-8.7-43.2-1c-1.5,1.2-4,3-5.5,6.1c0,0-2.4,4.6-1.4,10.4c2.3,12.6,22.3,26.3,40.4,25.7c5.2-0.2,8.9-1.5,9.9-1.8
		C64.8,73.1,69.3,64.9,72,60z"/>
	<circle class="st72" cx="25.7" cy="57" r="2.8"/>
	<circle class="st72" cx="47" cy="52.2" r="2.8"/>
	<circle class="st72" cx="34.6" cy="36.7" r="2.8"/>
	<circle class="st72" cx="63.2" cy="39.9" r="2.8"/>
	<circle class="st72" cx="53.4" cy="28" r="2.8"/>
	<g>
		<g>
			<polyline class="st62" points="17.6,20.2 17.6,64.4 78.2,64.4 			"/>
		</g>
		<g>
			<path class="st62" d="M60,39.9c0-1.6,1.4-2.9,3.2-2.9c1.8,0,3.2,1.3,3.2,2.9c0,1.6-1.4,2.9-3.2,2.9C61.5,42.8,60,41.5,60,39.9z"
				/>
			<path class="st62" d="M31.4,36.7c0-1.6,1.4-2.9,3.2-2.9c1.8,0,3.2,1.3,3.2,2.9c0,1.6-1.4,2.9-3.2,2.9
				C32.8,39.6,31.4,38.3,31.4,36.7z"/>
			<path class="st62" d="M43.8,52.2c0-1.6,1.4-2.9,3.2-2.9c1.8,0,3.2,1.3,3.2,2.9c0,1.6-1.4,2.9-3.2,2.9
				C45.3,55.1,43.8,53.8,43.8,52.2z"/>
			<path class="st62" d="M50.2,28c0-1.6,1.4-2.9,3.2-2.9c1.8,0,3.2,1.3,3.2,2.9c0,1.6-1.4,2.9-3.2,2.9C51.6,30.9,50.2,29.6,50.2,28z
				"/>
			<path class="st62" d="M22.7,56.8c0-1.6,1.4-2.9,3.2-2.9c1.8,0,3.2,1.3,3.2,2.9c0,1.6-1.4,2.9-3.2,2.9
				C24.2,59.8,22.7,58.5,22.7,56.8z"/>
			<line class="st62" x1="55.2" y1="30.4" x2="61.2" y2="37.6"/>
			<line class="st62" x1="47.7" y1="49.4" x2="52.4" y2="30.8"/>
			<line class="st62" x1="36.3" y1="39.2" x2="45.3" y2="49.7"/>
			<line class="st62" x1="27.4" y1="54.2" x2="33.2" y2="39.4"/>
		</g>
	</g>
</g>
<g id="Layer_8" class="st0">
	<g id="Interoperability_00000105419064138769064660000009062677990571631498_" class="st73">
		<path class="st74" d="M56.4,31.1c6.6-6.7,4.7-19.2-3.5-23.3c-5.1-2.5-10.7-4.3-16-3.8C18.4,5.4,4.8,33.5,7.9,50.8
			c2.9,17.4,21,30.3,30,29.9c9-0.4,4.8-8.9,6.3-34.1C44.4,44.3,51.5,36,56.4,31.1z"/>
	</g>
	<g class="st9">
		<path class="st62" d="M44,74.9c8.5-2.7,25.5-13.4,25.5-22.9c0-5.4,0-30.5,0-30.5c-18.4,0-25.5-8.5-25.5-8.5s-7.1,8.5-25.5,8.5
			c0,0,0,25.2,0,30.5C18.5,61.5,35.5,72.2,44,74.9z"/>
		<polygon class="st75" points="57.4,40 48,40 48,30.6 40,30.6 40,40 30.6,40 30.6,48 40,48 40,57.4 48,57.4 48,48 57.4,48 		"/>
	</g>
</g>
<g id="Layer_9" class="st0">
	<path class="st76" d="M65.9,50.9L65.9,50.9c0-0.1-0.1-0.2-0.1-0.3c0,0-3.5-8.8-5.4-12.3c-0.1-0.3-0.3-0.6-0.6-1
		c-0.9-1.3-2.8-1.6-4.1-1.1c-1.1,0.4-1.7,1.1-2,2.1c-0.9-2.1-3.1-2.9-5.1-2.2c-1.3,0.5-2.1,1.5-2.4,2.8c-1.1-1.7-3.1-2.4-5-1.7
		c-1.6,0.6-2.6,2.1-2.6,3.8l-5.1-13.3c-0.9-2.3-3.2-3.6-5.2-2.9c-2,0.8-2.8,3.3-1.9,5.6l8.9,23.3c-1.1-1.3-2-2.4-2.7-3.2
		c-2.5-2.8-5.8-3.9-7.6-2.7c-2.8,1.8,1.3,5.7,3.5,9.1c1.9,2.7,5.6,7.8,6.7,9c1.9,2,3.7,3.7,5.3,4.7c5.1,3.7,10.9,3.9,16.4,1.8
		C63.4,69.9,70.4,62.7,65.9,50.9z"/>
	<path class="st77" d="M39.1,27.1c-0.5-4.9-4.7-8.8-9.7-8.8c-5.4,0-9.8,4.4-9.8,9.8c0,2.4,0.8,4.5,2.2,6.2"/>
	<path class="st77" d="M42.1,25.8c-0.7-6.9-6.5-12.3-13.6-12.3c-7.5,0-13.6,6.1-13.6,13.6c0,3.3,1.2,6.3,3.1,8.6"/>
	<path class="st78" d="M63.6,27.5c-5.1-9-14.2-15.7-22.7-15.8c-1.6,0-4.4,0-7.6,1.9c-3.5,2.1-5.1,5.3-5.5,6.2
		c-2.3,4.7,13.9,3.7,13.7,10.4c-0.2,10.2-19,17.9-18.3,28.1c0.1,1.5,0.3,3.8,1.7,6.1c0,0,2,3.4,6.2,5.1c9.2,3.6,26.3-4.2,33.4-16.4
		c2-3.5,2.7-6.5,2.9-7.3C69.2,37.5,65.8,31.3,63.6,27.5z"/>
</g>
<g id="Layer_10" class="st0">
	<g id="Interoperability_00000107569955624605468040000015615924826154935710_" class="st73">
		<path class="st79" d="M16.9,49.6C8.3,54.6,6.8,67.8,14,74.3c4.5,3.9,9.7,7.4,15.3,8.3c19.4,3.7,41-21.3,42.8-39.8
			C73.9,24.3,58.9,6.1,49.6,4.1s-7.4,7.7-15.9,33C32.8,39.4,23.3,45.9,16.9,49.6z"/>
	</g>
	<rect x="-17.2" y="-7.5" class="st63" width="123.6" height="123.6"/>
	<g class="st9">
		<path class="st80" d="M53,29.9c3.7,0.9,6.3,3.4,6.3,6.4c0,1.2-0.4,3.2-3.2,3.9c-2.6,0.6-4.1,1.6-4.4,3c-0.2,0.8,0,1.5,0.3,2
			c-2.6-0.7-9-2.9-11-6.6"/>
		<path class="st80" d="M30.7,30.5c-3.7-0.9-4.3-3.6-4.3-5.2c0-5,5.6-9,12.6-9c4.2,0,8.1,1.5,10.5,4c1.4,1.5,2.1,3.2,2.1,5
			C51.5,32.2,40.3,36,36.2,37.1c0.4-0.7,0.6-1.6,0.4-2.6C36.2,32.7,34.2,31.4,30.7,30.5z"/>
		<path class="st62" d="M61.3,42.4c-3.2,0-5.8,2.6-5.8,5.8c0,3.2,2.6,5.8,5.8,5.8c3.2,0,5.8-2.6,5.8-5.8
			C67.1,45,64.5,42.4,61.3,42.4z"/>
		<path class="st62" d="M51.3,66.6v-1.9c0-4.7,4.5-7.3,10-7.3c5.5,0,10,2.7,10,7.3v1.9"/>
		<line class="st80" x1="47" y1="22.4" x2="31.6" y2="22.4"/>
		<line class="st80" x1="47" y1="27" x2="31.6" y2="27"/>
		<path class="st62" d="M22.4,53.7c-0.4,1.1-0.7,1.9-0.7,3.1v5.3"/>
		<path class="st62" d="M32.4,53.7c0.5,1.1,0.7,1.9,0.7,3.2v2.4"/>
		<path class="st62" d="M36.2,66.5c0.6,0,0.5-0.4,0.5-0.9v-3.5c0-1.6-1.6-2.8-3.6-2.8c-2,0-3.6,1.3-3.6,2.8v3.5
			c0,0.5-0.1,0.9,0.5,0.9"/>
		<path class="st62" d="M24,64.5c0,1.3-1,2.3-2.3,2.3c-1.3,0-2.3-1-2.3-2.3c0-1.3,1-2.3,2.3-2.3C23,62.2,24,63.2,24,64.5z"/>
		<path class="st62" d="M27.7,50.5c3.9,0,7.1-3.2,7.1-7.1c0-3.9-3.2-7.1-7.1-7.1c-3.9,0-7.1,3.2-7.1,7.1
			C20.5,47.3,23.7,50.5,27.7,50.5z"/>
		<path class="st62" d="M40.4,66.1v-2.6c0-6.7-2.9-9.5-8.4-9.8l-4.3,3.6l-4.3-3.6C17.9,54,15,56.7,15,63.5v2.6"/>
	</g>
</g>
</svg>
