<?xml version="1.0" encoding="utf-8"?>
<!-- Generator: Adobe Illustrator 26.3.1, SVG Export Plug-In . SVG Version: 6.00 Build 0)  -->
<svg version="1.1" id="Layer_1" xmlns="http://www.w3.org/2000/svg" xmlns:xlink="http://www.w3.org/1999/xlink" x="0px" y="0px"
	 viewBox="0 0 162.1 163.7" style="enable-background:new 0 0 162.1 163.7;" xml:space="preserve">
<style type="text/css">
	.st0{opacity:0.1;fill:#AAAF45;enable-background:new    ;}
	.st1{fill:none;stroke:#2C2865;stroke-width:3;stroke-miterlimit:10;}
</style>
<path class="st0" d="M65.8,11.7c-21.6,7.8-31.2,28.1-34.9,36.6C13,89,26.3,145.2,49.3,151.7c7.9,2.2,18.3-0.9,25.1-4.9
	c10.2-5.8,15-14.7,16.1-17.1c7.1-14.2,0.9-23,9.8-35.1c1.4-2,4.1-5.6,8.7-8.4c9.1-5.6,16.1-2.2,23.1-7.9c4-3.2,5.5-7.3,6.6-10.6
	c5.1-14.2-2.1-28.2-3.4-30.9C124.4,15.7,92,2.3,65.8,11.7z"/>
<path class="st1" d="M9.3,138.9c-4.1,4.6-3.7,11.7,1,15.8s11.7,3.7,15.8-1l32-36.1l-11.8-11.7l-36.1,32
	C9.9,138.2,9.6,138.5,9.3,138.9z"/>
<path class="st1" d="M15.1,143.4L15.1,143.4"/>
<path class="st1" d="M47.3,114.9l-31.1,28.5"/>
<path class="st1" d="M47.4,101.8L47.4,101.8c-0.6,0.6-0.6,1.5,0,2.1l12.7,12.7l0,0c0.6,0.6,1.5,0.6,2.1,0l4.3-4.3
	c0.2-0.2,0.3-0.4,0.4-0.6c9.4,6.5,20.6,9.9,32,9.9c13.6,0,26.7-4.8,37-13.7c23.7-20.4,26.3-56.1,6-79.8c-0.9-1-1.8-2-2.8-3
	c-19.3-19.2-49.5-22-72-6.6C41.3,36.2,34.8,71.4,52.4,97.1c-0.2,0.1-0.5,0.2-0.7,0.4L47.4,101.8z M65.3,98.6
	C46.7,80,46.6,49.8,65.2,31.2s48.8-18.7,67.4-0.1s18.7,48.8,0.1,67.4l-0.1,0.1C114,117.1,83.9,117.1,65.3,98.6z"/>
<path class="st1" d="M102.6,26.7c-1.2-0.1-2.3-0.1-3.5-0.1s-2.4,0.1-3.6,0.2c-21.2,1.8-36.8,20.6-34.8,41.8"/>
</svg>
