<?xml version="1.0" encoding="utf-8"?>
<!-- Generator: Adobe Illustrator 24.0.1, SVG Export Plug-In . SVG Version: 6.00 Build 0)  -->
<svg version="1.1" xmlns="http://www.w3.org/2000/svg" xmlns:xlink="http://www.w3.org/1999/xlink" x="0px" y="0px"
	 viewBox="0 0 88 88" style="enable-background:new 0 0 88 88;" xml:space="preserve">
<style type="text/css">
	.st0{display:none;}
	.st1{display:inline;fill:#047B64;}
	.st2{display:inline;fill:#FFFFFF;stroke:#047B64;stroke-width:2.25;stroke-miterlimit:10;}
	.st3{display:inline;}
	.st4{fill:#047B64;}
	.st5{fill:none;stroke:#047B64;stroke-width:4;stroke-linecap:round;stroke-linejoin:round;}
	.st6{fill:#FFFFFF;}
	.st7{fill:none;stroke:#0E7868;stroke-width:4.0001;stroke-linecap:round;stroke-linejoin:round;stroke-miterlimit:4.0001;}
	.st8{fill:#0075A8;}
	.st9{display:inline;fill:none;stroke:#0375A8;stroke-width:2;stroke-linejoin:round;stroke-miterlimit:10;}
	.st10{display:inline;fill:none;stroke:#0375A8;stroke-width:2;stroke-miterlimit:10;}
	.st11{display:inline;fill:none;stroke:#0375A8;stroke-width:2;stroke-linecap:round;stroke-miterlimit:10;}
	.st12{fill:none;stroke:#0375A8;stroke-width:2;stroke-linejoin:round;stroke-miterlimit:10;}
	.st13{display:inline;opacity:0.56;}
	.st14{fill:none;stroke:#FFFFFF;stroke-miterlimit:10;}
	.st15{fill:none;stroke:#0075A8;stroke-miterlimit:10;}
	.st16{fill:none;stroke:#0075A8;stroke-width:1;stroke-miterlimit:9.9999;}
	.st17{fill:none;stroke:#0075A8;stroke-width:1;stroke-miterlimit:9.9995;}
	.st18{fill:none;stroke:#0075A8;stroke-width:2;stroke-miterlimit:10;}
	.st19{fill:none;stroke:#0075A8;stroke-width:2;stroke-linecap:round;stroke-miterlimit:10;}
	.st20{fill:none;stroke:#0075A8;stroke-width:2;stroke-linejoin:round;stroke-miterlimit:10;}
</style>
<g id="Layer_1" class="st0">
	<g id="Layer_2_1_">
		<path class="st1" d="M40.99,57.29c3.33,0,6.03-2.7,6.03-6.03V30.51c0-2.28-1.46-4.32-3.63-5.03l-3.91-1.34l-7.53,7.53l-7.53-7.53
			l-3.9,1.34c-2.16,0.71-3.63,2.75-3.63,5.03v20.75c0,3.33,2.7,6.03,6.03,6.03"/>
		<path class="st2" d="M74.15,18.11l-6.03,6.03l-6.03,6.03l-6.02-6.03 M74.15,38.59l-6.03,6.03l-6.03,6.03l-6.02-6.03 M69.63,79.56
			H57.57c-0.83,0-1.51-0.67-1.51-1.51V66c0-0.83,0.67-1.51,1.51-1.51h12.06c0.83,0,1.51,0.67,1.51,1.51v12.05
			C71.13,78.88,70.46,79.56,69.63,79.56z"/>
		<path class="st1" d="M31.95,54.27V81.4 M40.99,36.19v43.7c0,0.83-0.67,1.51-1.51,1.51H24.42c-0.83,0-1.51-0.67-1.51-1.51v-43.7
			 M39.49,13.58c0,4.16-3.38,7.53-7.53,7.53c-4.16,0-7.53-3.37-7.53-7.53s3.38-7.53,7.53-7.53C36.11,6.05,39.49,9.42,39.49,13.58"/>
	</g>
	<g id="Layer_3">
		<path class="st1" d="M48.43,13.01c7.74,4.98,13.42,13.13,13.44,23.27H51.7l17.24,17.24l17.24-17.24h-9.79
			C76.54,26.65,66.41,10.74,48.43,13.01"/>
		<path class="st1" d="M32.49,38.57c-6.37-0.83-8.65-2.59-9.82-3.64c-2.55-2.28-1.22-10.72,7.82-10.72c4.98,0,9.03,3.42,9.03,7.62
			H53.6c-0.01-8.78-6.88-16.2-16.35-18.64V6.22H23.7l-0.01,6.98C2.73,18.43-1.27,47.54,30.25,51.18c4.4,0.51,6.89,1.89,7.92,2.83
			c2.94,2.68,1.35,10.57-7.7,10.57c-3.7,0-6.88-1.89-8.28-4.59H7.66c1.37,7.42,7.68,13.44,16.02,15.6l0.01,6.31h13.54v-6.3
			C56.07,71.91,63.93,42.67,32.49,38.57"/>
	</g>
	<g id="Layer_4">
		<g class="st3">
			<path class="st4" d="M80.66,17.38c-0.9-2.14-3.19-3.54-4.81-3.15c-1.51,0.36-3.33,1.1-3.84,1.27v11.37l5.88-2.74
				C80.51,23.03,81.75,20.01,80.66,17.38"/>
			<path class="st4" d="M39.6,80.62l21.3-9.02c-3.73,0.31-6.83,0.46-10.96,0.46c-5.36,0-10.65-0.26-16.19-0.78
				c-4.28-0.44-7.48-4.28-7.48-8.67V18.99c-1.79-8.07-8.53-9.23-10.92-7.81c-2.24,1.33,2.72,9.82-2.61,25.56
				c-2.21,6.49-4.25,12.82-4.66,18.2C6.48,75.7,26.41,86.2,39.6,80.62"/>
			<path class="st4" d="M46.01,10.9h6.25c0.58,0,1.05,0.47,1.05,1.05S52.84,13,52.26,13h-6.25c-0.58,0-1.05-0.47-1.05-1.05
				S45.43,10.9,46.01,10.9 M44.61,60.71h3.45v2.87h-3.45c-0.79,0-1.44-0.64-1.44-1.43C43.17,61.35,43.81,60.71,44.61,60.71
				 M50.21,60.71h3.45c0.79,0,1.44,0.64,1.44,1.43s-0.64,1.43-1.44,1.43h-3.45V60.71z M34.09,67.7c5.43,0.52,10.61,0.77,15.85,0.77
				s8.82-0.25,14.3-0.77c1.33-0.18,2.49-0.99,3.24-2.12c-2.23-0.62-4.09-2.2-5.01-4.39c-0.74-1.77-0.75-3.66-0.19-5.36H33.64V16.82
				h30.89v13.02l3.88-1.78V12.84c0-2.55-1.84-4.78-4.23-5.09c-5.43-0.51-10.23-0.77-15.04-0.77s-9.63,0.26-15.11,0.78
				c-2.34,0.3-4.18,2.54-4.18,5.08v49.77C29.86,65.15,31.69,67.39,34.09,67.7"/>
			<path class="st4" d="M71.12,62.4l4.44-1.88c2.11-0.88,3.1-3.3,2.22-5.41c-0.97-2.32-3.58-2.98-5.41-2.22l-4.44,1.88
				c-2.11,0.88-3.1,3.3-2.22,5.41C66.69,62.5,69.3,63.16,71.12,62.4"/>
			<path class="st4" d="M65.1,37.97c1.08,2.57,3.96,3.3,5.98,2.45l3.33-1.47c2.33-0.97,3.43-3.65,2.46-5.98
				c-1.07-2.57-3.96-3.3-5.98-2.46l-3.33,1.48C65.22,32.96,64.13,35.64,65.1,37.97"/>
			<path class="st4" d="M71.06,51.91l4.92-2.08c2.33-0.97,3.43-3.65,2.45-5.98c-1.07-2.57-3.96-3.3-5.98-2.46l-4.91,2.08
				c-2.33,0.97-3.43,3.65-2.46,5.98C66.15,52.02,69.04,52.75,71.06,51.91"/>
			<path class="st4" d="M47.82,45.3c-0.84,0.07-1.46-0.25-1.93-0.72l-5.14-5.05c-0.99-0.97-1-2.57-0.03-3.56s2.57-1.01,3.56-0.03
				L47.4,39l7.51-9.65c0.85-1.1,2.44-1.3,3.53-0.44c1.1,0.85,1.3,2.44,0.44,3.54l-9.24,11.88C49.19,44.89,48.53,45.23,47.82,45.3"/>
		</g>
	</g>
	<g id="Layer_5">
		<g class="st3">
			<g>
				<path class="st5" d="M81.44,27.88H25.13v40.74h52.7c1.99,0,3.6-1.61,3.6-3.6V27.88H81.44z"/>
				<path class="st5" d="M81.44,27.88H25.13v-9.15c0-1.99,1.61-3.6,3.6-3.6h49.1c1.99,0,3.6,1.61,3.6,3.6v9.15H81.44z"/>
				<g>
					<line class="st5" x1="40.3" y1="18.73" x2="40.3" y2="9.72"/>
					<line class="st5" x1="66.27" y1="18.73" x2="66.27" y2="9.72"/>
				</g>
				<g>
					<g>
						<line class="st5" x1="51.48" y1="51.73" x2="55.09" y2="51.73"/>
						<line class="st5" x1="38.87" y1="51.73" x2="42.47" y2="51.73"/>
						<line class="st5" x1="64.1" y1="51.73" x2="67.7" y2="51.73"/>
					</g>
					<g>
						<line class="st5" x1="51.48" y1="40.92" x2="55.09" y2="40.92"/>
						<line class="st5" x1="38.87" y1="40.92" x2="42.47" y2="40.92"/>
						<line class="st5" x1="64.1" y1="40.92" x2="67.7" y2="40.92"/>
					</g>
				</g>
			</g>
			<g>
				<ellipse class="st6" cx="25.13" cy="59.72" rx="23.57" ry="23.57"/>
				<ellipse class="st7" cx="25.13" cy="59.72" rx="18.16" ry="18.16"/>
				<polyline class="st5" points="25.13,50.64 25.13,59.72 31.31,59.72 				"/>
			</g>
		</g>
	</g>
	<g id="Layer_6">
		<g class="st3">
			<g>
				<g>
					<path class="st8" d="M53.06,10.37c-0.61,0-1.11-0.49-1.11-1.11c0-2.05-1.67-3.71-3.71-3.71c-2.05,0-3.71,1.67-3.71,3.71
						c0,0.61-0.49,1.11-1.11,1.11c-0.61,0-1.11-0.49-1.11-1.11c0-3.27,2.66-5.93,5.93-5.93s5.93,2.66,5.93,5.93
						C54.17,9.88,53.67,10.37,53.06,10.37z"/>
					<path class="st8" d="M60.97,22.65H35.51c-0.61,0-1.11-0.49-1.11-1.11v-8.71c0-0.61,0.49-1.11,1.11-1.11h25.46
						c0.61,0,1.11,0.49,1.11,1.11v8.71C62.08,22.16,61.58,22.65,60.97,22.65z M36.62,20.44h23.24v-6.49H36.62V20.44z"/>
					<path class="st8" d="M23.66,28.97c-0.61,0-1.11-0.49-1.11-1.11V15.64c0-0.61,0.49-1.11,1.11-1.11h6.48
						c0.61,0,1.11,0.49,1.11,1.11c0,0.61-0.49,1.11-1.11,1.11h-5.38v11.12C24.76,28.47,24.27,28.97,23.66,28.97z"/>
					<path class="st8" d="M72.47,81.27H33.4c-0.61,0-1.11-0.49-1.11-1.11c0-0.61,0.49-1.11,1.11-1.11h37.96v-62.3h-5.89
						c-0.61,0-1.11-0.49-1.11-1.11c0-0.61,0.49-1.11,1.11-1.11h7c0.61,0,1.11,0.49,1.11,1.11v64.52
						C73.58,80.77,73.09,81.27,72.47,81.27z"/>
				</g>
				<g>
					<path class="st8" d="M35.66,40.66c-0.28,0-0.57-0.11-0.78-0.32l-4.06-4.06c-0.43-0.43-0.43-1.13,0-1.56s1.13-0.43,1.56,0
						L35.66,38l6.11-6.11c0.43-0.43,1.13-0.43,1.56,0s0.43,1.13,0,1.56l-6.89,6.89C36.22,40.55,35.94,40.66,35.66,40.66z"/>
					<path class="st8" d="M37.07,53.4c-0.28,0-0.57-0.11-0.78-0.32c-0.43-0.43-0.43-1.13,0-1.56l5.48-5.48
						c0.43-0.43,1.13-0.43,1.56,0s0.43,1.13,0,1.56l-5.48,5.48C37.64,53.29,37.35,53.4,37.07,53.4z"/>
					<path class="st8" d="M35.66,68.97L35.66,68.97c-0.29,0-0.57-0.12-0.78-0.32l-1.32-1.33c-0.43-0.43-0.43-1.13,0-1.56
						s1.13-0.43,1.56,0l0.54,0.54l6.11-6.11c0.43-0.43,1.13-0.43,1.56,0s0.43,1.13,0,1.56l-6.89,6.89
						C36.23,68.86,35.95,68.97,35.66,68.97z"/>
					<path class="st8" d="M64.24,37.22H48.95c-0.61,0-1.11-0.49-1.11-1.11c0-0.61,0.49-1.11,1.11-1.11h15.28
						c0.61,0,1.11,0.49,1.11,1.11C65.34,36.72,64.85,37.22,64.24,37.22z"/>
					<path class="st8" d="M64.24,51.37H48.95c-0.61,0-1.11-0.49-1.11-1.11c0-0.61,0.49-1.11,1.11-1.11h15.28
						c0.61,0,1.11,0.49,1.11,1.11C65.34,50.88,64.85,51.37,64.24,51.37z"/>
					<path class="st8" d="M64.24,65.53H48.95c-0.61,0-1.11-0.49-1.11-1.11c0-0.61,0.49-1.11,1.11-1.11h15.28
						c0.61,0,1.11,0.49,1.11,1.11C65.34,65.03,64.85,65.53,64.24,65.53z"/>
				</g>
			</g>
			<g>
				<path class="st8" d="M22.26,45.95c-3.41,0-6.18-3.33-6.18-7.43c0-4.09,2.77-7.43,6.18-7.43s6.18,3.33,6.18,7.43
					S25.67,45.95,22.26,45.95z M22.26,33.31c-2.19,0-3.97,2.34-3.97,5.21c0,2.88,1.78,5.22,3.97,5.22s3.96-2.34,3.96-5.22
					C26.22,35.65,24.45,33.31,22.26,33.31z"/>
				<path class="st8" d="M28.37,68.62c-0.44,0-0.86-0.26-1.03-0.7c-0.22-0.57,0.05-1.21,0.62-1.44c2.64-1.04,4.34-3.55,4.34-6.38
					v-3.71c0-3.78-3.08-6.86-6.86-6.86h-6.35c-3.78,0-6.86,3.08-6.86,6.86v3.71c0,2.84,1.7,5.34,4.34,6.38
					c0.57,0.22,0.85,0.87,0.62,1.44c-0.22,0.57-0.87,0.84-1.44,0.62c-3.48-1.38-5.74-4.69-5.74-8.44v-3.71c0-5,4.07-9.08,9.08-9.08
					h6.35c5,0,9.08,4.07,9.08,9.08v3.71c0,3.75-2.25,7.06-5.74,8.44C28.64,68.59,28.5,68.62,28.37,68.62z"/>
				<path class="st8" d="M22.26,83.19c-0.61,0-1.11-0.49-1.11-1.11V67.51c0-0.61,0.49-1.11,1.11-1.11c0.61,0,1.11,0.49,1.11,1.11
					v14.57C23.37,82.7,22.87,83.19,22.26,83.19z"/>
				<path class="st8" d="M25.01,84.41c-0.9,0-1.84-0.24-2.75-0.88c-2.56,1.8-5.4,0.46-6.65-0.61c-0.24-0.21-0.38-0.52-0.38-0.84
					V55.15c0-0.61,0.49-1.11,1.11-1.11c0.61,0,1.11,0.49,1.11,1.11v26.38c0.77,0.5,2.5,1.31,4.04-0.23c0.43-0.43,1.13-0.43,1.56,0
					c1.54,1.54,3.28,0.72,4.03,0.23V55.15c0-0.61,0.49-1.11,1.11-1.11c0.61,0,1.11,0.49,1.11,1.11v26.93c0,0.32-0.14,0.63-0.38,0.84
					C28.1,83.61,26.64,84.41,25.01,84.41z"/>
			</g>
		</g>
	</g>
	<g id="Layer_7">
		<path class="st9" d="M63.18,57.27c-1.32,0-2.46,0.78-2.98,1.9v-1.96c0-1.87-1.52-3.38-3.39-3.38c-1.55,0-2.85,1.04-3.26,2.46
			c0-2.49-1.17-4.12-3.38-4.12c-1.69,0-3.08,1.23-3.34,2.83V41.12c0-1.87-1.52-3.38-3.39-3.38s-3.39,1.51-3.39,3.38v21.53
			c-2.09-3.96-4.48-5.61-6.6-5.61c-0.02,0-0.04,0-0.06,0c-2.01,0.03-3.58,1.27-3.89,1.96c-0.59,1.3,4.23,3.44,7.64,11.87
			c3.69,9.11,6.69,13.7,15.73,13.7c9.9,0,13.59-6.93,13.59-11.4v-12.6C66.47,58.74,65,57.27,63.18,57.27z"/>
		<path class="st10" d="M62.48,38.08c-0.5-1.24-1.62-1.82-2.69-1.82c-0.38,0-0.75,0.07-1.08,0.22l-3.11,1.36
			c-1.47,0.63-2.16,2.38-1.55,3.9c0.5,1.23,1.62,1.82,2.69,1.82c0.38,0,0.75-0.07,1.09-0.22l3.1-1.36
			C62.4,41.34,63.09,39.6,62.48,38.08z"/>
		<path class="st10" d="M57.86,50.18l2.81-1.23c1.33-0.57,1.96-2.15,1.4-3.53c-0.45-1.12-1.47-1.65-2.43-1.65
			c-0.34,0-0.68,0.07-0.98,0.2l-2.81,1.23c-1.33,0.58-1.96,2.15-1.4,3.53c0.45,1.12,1.47,1.65,2.43,1.65
			C57.22,50.38,57.56,50.31,57.86,50.18z"/>
		<path class="st10" d="M54.06,34.24c0.5,1.23,1.63,1.82,2.69,1.82c0.38,0,0.75-0.07,1.08-0.22l2.11-0.96
			c1.47-0.64,2.17-2.38,1.55-3.9c-0.5-1.24-1.63-1.82-2.69-1.82c-0.38,0-0.75,0.07-1.09,0.22l-2.1,0.96
			C54.14,30.98,53.45,32.72,54.06,34.24z"/>
		<line class="st11" x1="42.54" y1="11.82" x2="44.73" y2="11.82"/>
		<line class="st10" x1="30.37" y1="15.16" x2="56.89" y2="15.16"/>
		<path class="st10" d="M56.89,26.43L62.56,24c1.66-0.72,2.45-2.69,1.75-4.41c-0.57-1.4-1.78-2.4-3.84-1.81
			c-0.51,0.15-2.91,1-3.58,1.28"/>
		<path class="st10" d="M47.42,24.41c0-2.09-1.7-3.79-3.79-3.79c-1.85,0-3.4,1.46-3.4,3.25c0,3.84,6.87,1.36,6.87,5.57
			c0,1.69-1.7,2.85-3.47,2.85c-2.09,0-3.79-1.69-3.79-3.79"/>
		<line class="st10" x1="43.63" y1="20.63" x2="43.63" y2="18.61"/>
		<line class="st10" x1="43.63" y1="34.25" x2="43.63" y2="32.3"/>
		<path class="st10" d="M52.84,53.5c0.25-0.02,0.51-0.05,0.78-0.07c1.69-0.26,3.52-1.41,3.52-3.06"/>
		<path class="st10" d="M56.89,29.76v-17.5c0-1.75-1.26-3.29-2.91-3.5c-3.73-0.35-7.03-0.53-10.34-0.53s-6.62,0.18-10.39,0.54
			c-1.61,0.21-2.87,1.74-2.87,3.5v37.6c0,1.75,1.26,3.29,2.91,3.5c2.31,0.22,4.55,0.37,6.78,0.46"/>
		<line class="st10" x1="46.83" y1="45.83" x2="54.98" y2="45.83"/>
		<line class="st10" x1="30.37" y1="45.83" x2="40.06" y2="45.83"/>
		<path class="st10" d="M30.37,18.61c-1.15-3.45-5.5-4.22-6.73-3.48c-1.41,0.84,1.72,6.2-1.65,16.14c-1.39,4.1-2.68,8.1-2.95,11.5
			c-0.66,8.56,4.47,14.35,10.43,16.37"/>
	</g>
	<g id="Layer_8">
		<g class="st3">
			<path class="st12" d="M46.42,21.51c-4.94,0-8.95,4.01-8.95,8.95s4.01,8.95,8.95,8.95s8.95-4.01,8.95-8.95
				S51.37,21.51,46.42,21.51z"/>
			<path class="st12" d="M62.16,65.04V53.13c0-4.63-3.64-9.22-10.37-10.82l-5.57,4.67l-5.52-4.63c-6.49,1.55-10,5.76-10,10.78v11.91
				"/>
			<line class="st12" x1="54.55" y1="64.86" x2="54.55" y2="58.7"/>
			<line class="st12" x1="38.3" y1="64.86" x2="38.3" y2="58.7"/>
			<path class="st12" d="M24.89,27.51c-4.26,0-7.72,3.46-7.72,7.72s3.46,7.72,7.72,7.72s7.72-3.46,7.72-7.72
				S29.15,27.51,24.89,27.51z"/>
			<line class="st12" x1="18.02" y1="64.88" x2="18.02" y2="59.57"/>
			<line class="st12" x1="18.73" y1="53.52" x2="21.31" y2="53.52"/>
			<path class="st12" d="M33,46.72c-1.03-0.54-2.19-0.98-3.49-1.28l-4.8,4.02l-4.76-3.99c-5.59,1.33-8.62,4.97-8.62,9.29v10.27"/>
			<path class="st12" d="M67.7,27.51c4.26,0,7.72,3.46,7.72,7.72s-3.46,7.72-7.72,7.72s-7.72-3.46-7.72-7.72
				C59.99,30.97,63.44,27.51,67.7,27.51z"/>
			<line class="st12" x1="74.57" y1="64.88" x2="74.57" y2="59.57"/>
			<line class="st12" x1="64.74" y1="53.52" x2="62.16" y2="53.52"/>
			<path class="st12" d="M59.59,46.72c1.03-0.54,2.19-0.98,3.49-1.28l4.8,4.02l4.76-3.99c5.59,1.33,8.62,4.97,8.62,9.29v10.27"/>
		</g>
		<line class="st9" x1="40.24" y1="43.02" x2="45.77" y2="54.48"/>
		<line class="st9" x1="52.39" y1="42.73" x2="46.02" y2="54.51"/>
		<circle class="st9" cx="45.95" cy="56.2" r="1.61"/>
		<line class="st9" x1="8.12" y1="65.49" x2="83.63" y2="65.49"/>
	</g>
	<g id="Layer_9">
		<g class="st3">
			<rect x="30.26" y="48.06" class="st12" width="5.43" height="5.43"/>
			<rect x="30.26" y="38.29" class="st12" width="5.43" height="5.43"/>
			<rect x="30.26" y="28.46" class="st12" width="5.43" height="5.43"/>
			<rect x="39.03" y="48.06" class="st12" width="5.43" height="5.43"/>
			<rect x="39.03" y="38.29" class="st12" width="5.43" height="5.43"/>
			<rect x="47.79" y="48.06" class="st12" width="5.43" height="5.43"/>
			<rect x="56.56" y="48.06" class="st12" width="5.43" height="5.43"/>
			<rect x="47.79" y="38.29" class="st12" width="5.43" height="5.43"/>
			<rect x="56.56" y="38.29" class="st12" width="5.43" height="5.43"/>
			<rect x="56.56" y="28.46" class="st12" width="5.43" height="5.43"/>
			<line class="st12" x1="43.33" y1="20.05" x2="43.33" y2="28.46"/>
			<line class="st12" x1="49.17" y1="20.05" x2="49.17" y2="28.46"/>
			<line class="st12" x1="49.17" y1="24.26" x2="43.33" y2="24.26"/>
			<path class="st12" d="M46.25,32.6c-4.61,0-8.35-3.74-8.35-8.35s3.74-8.35,8.35-8.35s8.35,3.74,8.35,8.35
				C54.6,28.87,50.86,32.6,46.25,32.6z"/>
			<path class="st12" d="M66.07,64.34V26.91c0-0.48-0.33-0.88-0.8-0.98c-0.95-0.18-1.88-0.35-2.81-0.51c0-0.52,0-1.08,0-1.69
				c0-0.45-0.53-0.71-0.63-0.74c-2.42-0.85-5.87-1.68-8.04-2.34"/>
			<path class="st12" d="M38.72,20.65c-2.85,0.73-5.75,1.54-8.25,2.42c-0.23,0.08-0.42,0.39-0.42,0.69c0,0.6,0,1.15,0,1.67
				c-0.93,0.16-1.87,0.32-2.82,0.51c-0.47,0.09-0.81,0.5-0.81,0.98v37.43"/>
			<polyline class="st12" points="40.23,64.34 40.23,56.84 52.27,56.84 52.27,64.34 			"/>
			<line class="st12" x1="46.25" y1="56.84" x2="46.25" y2="64.34"/>
			<line class="st12" x1="23.85" y1="64.34" x2="68.65" y2="64.34"/>
		</g>
	</g>
	<g id="Layer_10">
		<g class="st3">
			<path class="st12" d="M30.12,64.66V53.62c0-6.6,5.32-11.53,16.53-11.53c11.22,0,16.54,5.01,16.54,11.53v11.03"/>
			<path class="st12" d="M37.59,55.63"/>
			<path class="st12" d="M46.65,37.98c5.11,0,9.26-4.14,9.26-9.25s-4.14-9.26-9.26-9.26c-5.11,0-9.25,4.14-9.25,9.26
				C37.4,33.84,41.54,37.98,46.65,37.98z"/>
			<line class="st12" x1="38.35" y1="54.66" x2="38.35" y2="64.66"/>
			<line class="st12" x1="54.95" y1="54.66" x2="54.95" y2="64.66"/>
			<line class="st12" x1="13.73" y1="63.99" x2="77.12" y2="63.99"/>
		</g>
	</g>
	<g id="Layer_11">
		<g class="st13">
			<path class="st8" d="M66.29,33.09l5.13-0.29c1.87-0.11,3.48,1.11,3.6,2.73c0.12,1.61-1.3,3-3.16,3.11l-4.22,0.24"/>
			<path class="st8" d="M59.16,55.85v6.36c0,0.75,0.61,1.37,1.37,1.37h7.75c0.76,0,1.37-0.61,1.37-1.37v-7.84"/>
			<path class="st8" d="M65.14,38H23.8c-4.52,0-8.18,4-8.18,8.92c0,4.93,3.66,8.92,8.18,8.92h41.34c4.52,0,8.18-3.99,8.18-8.92
				C73.31,42,69.65,38,65.14,38z"/>
			<path class="st14" d="M64,51.15c2.15,0,3.89-1.74,3.89-3.88c0-2.15-1.74-3.89-3.88-3.89c-2.15,0-3.89,1.74-3.89,3.89
				C60.12,49.41,61.86,51.15,64,51.15z"/>
			<path class="st14" d="M24.93,51.16c2.15,0,3.89-1.74,3.89-3.89c0-2.14-1.74-3.89-3.89-3.89s-3.88,1.74-3.89,3.89
				C21.05,49.42,22.79,51.16,24.93,51.16z"/>
			<path class="st8" d="M20.4,38.88c0,0,2.02-11.28,2.76-15.42c0.08-0.44,0.58-1.39,1.84-1.64c14.44-2.88,25.02-2.81,39.17,0.04
				c1.03,0.21,1.54,1.2,1.63,1.67c0.09,0.52,2.72,15.26,2.72,15.26"/>
			<path class="st8" d="M22.31,32.82l-5.05-0.01c-1.84,0-3.35,1.31-3.38,2.92s1.44,2.93,3.28,2.93h4.15"/>
			<path class="st8" d="M29.77,55.85v6.36c0,0.75-0.61,1.37-1.37,1.37h-7.75c-0.76,0-1.37-0.61-1.37-1.37v-7.84"/>
		</g>
	</g>
	<g id="Layer_12" class="st3">
		<g>
			<path class="st15" d="M56.12,38.91c-0.16,0.43-0.57,0.71-1.03,0.71H40.06v-8.84h5.66c1.81,0,2.24,0.35,4.34,2.01
				c1.44,1.14,5.6,4.77,5.76,4.92C56.16,38,56.28,38.48,56.12,38.91z"/>
			<ellipse class="st16" cx="27.85" cy="53.85" rx="6.1" ry="6.1"/>
			<ellipse class="st17" cx="62.51" cy="53.85" rx="6.1" ry="6.1"/>
			<line class="st15" x1="42.85" y1="44" x2="45.12" y2="44"/>
			<line class="st15" x1="29.95" y1="44" x2="32.21" y2="44"/>
			<line class="st15" x1="72.43" y1="44.62" x2="74.82" y2="44.62"/>
			<line class="st15" x1="33.95" y1="53.85" x2="56.41" y2="53.85"/>
			<path class="st15" d="M68.61,53.85h2.88c0.33,0,0.64-0.14,0.85-0.39l2.32-2.63c0.18-0.21,0.29-0.48,0.29-0.75v-6.26
				c0-1.68-1.23-3.22-2.82-3.55l-9.29-2.92c0,0-6.81-5.62-8.98-7.43c-2.78-2.32-4.31-3.12-7.54-3.12H34.51
				c-2.42,0-3.4,0.67-4.67,1.47c-3.3,2.08-8.71,7.27-9.93,8.46l-3.02,0.54c-1.64,0.27-2.92,1.82-2.92,3.53v8.35
				c0,0.3,0.12,0.58,0.32,0.79l3.46,3.57c0.22,0.22,0.51,0.35,0.82,0.35h3.17"/>
			<path class="st15" d="M40.06,39.62H29.74c-0.37,0-0.72-0.19-0.92-0.51s-0.23-0.71-0.07-1.05c0.03-0.07,0.85-1.82,2.28-3.79
				c2.11-2.91,3.94-3.45,4.14-3.5h4.89V39.62z"/>
		</g>
		<circle class="st15" cx="62.66" cy="53.95" r="3.66"/>
		<circle class="st15" cx="27.95" cy="54" r="3.66"/>
	</g>
	<g id="Layer_1_1_" class="st3">
		<path class="st8" d="M78.96,28.94c-0.95-2.24-2.12-4.4-3.48-6.41c-1.35-2-2.9-3.88-4.61-5.59s-3.59-3.26-5.59-4.61
			c-2.02-1.36-4.18-2.54-6.41-3.48c-4.66-1.97-9.6-2.97-14.7-2.97s-10.04,1-14.7,2.97c-2.24,0.95-4.4,2.12-6.41,3.48
			c-2,1.35-3.88,2.9-5.59,4.61s-3.26,3.59-4.61,5.59c-1.36,2.02-2.54,4.18-3.48,6.41c-1.97,4.66-2.97,9.6-2.97,14.7
			s1,10.04,2.97,14.7c0.95,2.24,2.12,4.4,3.48,6.41c1.35,2,2.9,3.88,4.61,5.59c1.71,1.71,3.59,3.26,5.59,4.61
			c2.02,1.36,4.18,2.54,6.41,3.48c4.66,1.97,9.6,2.97,14.7,2.97s10.04-1,14.7-2.97c2.24-0.95,4.4-2.12,6.41-3.48
			c2-1.35,3.88-2.9,5.59-4.61s3.26-3.59,4.61-5.59c1.36-2.02,2.54-4.18,3.48-6.41c1.97-4.66,2.97-9.6,2.97-14.7
			C81.92,38.54,80.93,33.59,78.96,28.94z M10.54,43.63C10.54,25.09,25.62,10,44.17,10c8.81,0,16.84,3.41,22.84,8.97l-47.5,47.5
			C13.94,60.47,10.54,52.44,10.54,43.63z M44.17,77.26c-8.05,0-15.46-2.85-21.25-7.59l47.3-47.3c4.74,5.8,7.59,13.2,7.59,21.25
			C77.8,62.18,62.71,77.26,44.17,77.26z"/>
	</g>
</g>
<g id="Layer_2" class="st0">
	<g class="st3">
		<path class="st18" d="M26.77,19.53c-1.81-5.44-8.66-6.65-10.61-5.49c-2.23,1.33,2.71,9.77-2.59,25.44
			c-2.19,6.46-4.23,12.76-4.64,18.11C7.33,78.26,27.17,88.71,40.29,83.15l19.3-8.31"/>
		<path class="st18" d="M68.55,37.1V9.52c0-2.76-1.99-5.18-4.58-5.52c-5.88-0.55-11.08-0.84-16.3-0.84
			c-5.21,0-10.44,0.28-16.38,0.84c-2.54,0.33-4.53,2.75-4.53,5.51v59.25c0,2.76,1.99,5.18,4.58,5.51
			c5.89,0.56,11.51,0.83,17.18,0.83s8.92-0.15,14.86-0.71c2.66-0.4,5.54-2.21,5.54-4.83"/>
		<path class="st18" d="M77.36,50.21c-0.79-1.95-2.56-2.87-4.24-2.87c-0.6,0-1.18,0.12-1.71,0.34l-4.89,2.14
			c-2.32,1-3.41,3.75-2.44,6.15c0.79,1.94,2.56,2.87,4.24,2.87c0.6,0,1.18-0.12,1.71-0.35l4.89-2.14
			C77.23,55.36,78.32,52.61,77.36,50.21z"/>
		<path class="st18" d="M70.08,69.28l4.43-1.93c2.1-0.9,3.08-3.39,2.21-5.55c-0.71-1.76-2.31-2.59-3.83-2.59
			c-0.54,0-1.07,0.1-1.55,0.31l-4.42,1.93c-2.1,0.91-3.08,3.39-2.21,5.56c0.71,1.76,2.31,2.59,3.83,2.59
			C69.08,69.59,69.61,69.49,70.08,69.28z"/>
		<path class="st18" d="M64.09,44.17c0.79,1.95,2.56,2.87,4.24,2.87c0.6,0,1.18-0.12,1.71-0.34l3.32-1.51
			c2.32-1,3.41-3.76,2.45-6.15c-0.79-1.95-2.56-2.87-4.24-2.87c-0.6,0-1.18,0.11-1.71,0.34l-3.32,1.52
			C64.21,39.02,63.12,41.77,64.09,44.17z"/>
		<line class="st19" x1="42.66" y1="68.43" x2="52.66" y2="68.43"/>
		<line class="st19" x1="45.93" y1="8.83" x2="49.39" y2="8.83"/>
		<line class="st18" x1="26.77" y1="62.42" x2="65.54" y2="62.42"/>
		<line class="st18" x1="26.77" y1="14.09" x2="68.55" y2="14.09"/>
		<path class="st18" d="M68.55,31.86l8.93-3.82c2.62-1.13,3.85-4.24,2.76-6.95c-0.89-2.2-2.8-3.79-6.05-2.85
			c-0.81,0.23-4.59,1.57-5.65,2.01"/>
	</g>
</g>
<g id="Layer_3_1_">
	<g>
		<path class="st20" d="M65.63,56.1c-1.42,0-2.64,0.83-3.2,2.04v-2.1c0-2-1.63-3.63-3.63-3.63c-1.66,0-3.06,1.12-3.49,2.64
			c0-2.67-1.25-4.41-3.63-4.41c-1.81,0-3.3,1.32-3.58,3.04V38.79c0-2.01-1.63-3.63-3.63-3.63c-2.01,0-3.63,1.62-3.63,3.63v23.08
			c-2.24-4.25-4.8-6.01-7.07-6.01c-0.02,0-0.04,0-0.07,0c-2.15,0.03-3.83,1.36-4.17,2.1c-0.63,1.39,4.53,3.69,8.19,12.72
			c3.96,9.77,7.17,14.68,16.86,14.68c10.62,0,14.58-7.43,14.58-12.22V59.63C69.17,57.68,67.59,56.1,65.63,56.1z"/>
		<path class="st18" d="M64.88,35.52c-0.54-1.32-1.74-1.95-2.89-1.95c-0.41,0-0.8,0.08-1.16,0.23l-3.33,1.46
			c-1.58,0.68-2.32,2.55-1.66,4.18c0.54,1.32,1.74,1.95,2.88,1.95c0.41,0,0.81-0.08,1.16-0.24l3.33-1.45
			C64.8,39.02,65.54,37.15,64.88,35.52z"/>
		<path class="st18" d="M59.94,48.5l3.01-1.32c1.43-0.62,2.1-2.31,1.5-3.78c-0.48-1.2-1.57-1.76-2.61-1.76
			c-0.37,0-0.73,0.07-1.05,0.21l-3.01,1.31c-1.43,0.62-2.1,2.31-1.5,3.78c0.48,1.2,1.57,1.76,2.61,1.76
			C59.25,48.71,59.61,48.64,59.94,48.5z"/>
		<path class="st18" d="M55.86,31.41c0.54,1.32,1.74,1.95,2.88,1.95c0.41,0,0.8-0.08,1.16-0.23l2.26-1.03
			c1.58-0.68,2.32-2.55,1.66-4.18c-0.54-1.33-1.74-1.95-2.88-1.95c-0.41,0-0.81,0.08-1.16,0.24l-2.26,1.03
			C55.94,27.91,55.2,29.78,55.86,31.41z"/>
		<line class="st19" x1="43.5" y1="7.37" x2="45.85" y2="7.37"/>
		<line class="st18" x1="30.46" y1="10.95" x2="58.9" y2="10.95"/>
		<path class="st18" d="M58.9,23.04l6.08-2.6c1.78-0.77,2.62-2.89,1.88-4.73c-0.61-1.5-1.91-2.58-4.11-1.94
			c-0.55,0.16-3.12,1.07-3.84,1.37"/>
		<path class="st18" d="M54.55,52.06c0.27-0.03,0.55-0.05,0.84-0.08c1.81-0.27,3.77-1.51,3.77-3.29"/>
		<path class="st18" d="M58.9,26.6V7.83c0-1.88-1.35-3.52-3.12-3.75c-4-0.38-7.54-0.57-11.09-0.57c-3.54,0-7.1,0.19-11.15,0.57
			c-1.73,0.22-3.08,1.87-3.08,3.75v40.32c0,1.88,1.35,3.52,3.12,3.75c2.47,0.24,4.88,0.4,7.27,0.49"/>
		<line class="st18" x1="48.11" y1="43.83" x2="56.84" y2="43.83"/>
		<line class="st18" x1="30.46" y1="43.83" x2="40.85" y2="43.83"/>
		<path class="st18" d="M30.46,14.65c-1.23-3.7-5.89-4.52-7.22-3.73c-1.52,0.9,1.84,6.65-1.76,17.31
			c-1.49,4.39-2.88,8.68-3.16,12.33c-0.7,9.17,4.79,15.39,11.18,17.55"/>
	</g>
</g>
</svg>
