<?xml version="1.0" encoding="utf-8"?>
<!-- Generator: Adobe Illustrator 24.0.1, SVG Export Plug-In . SVG Version: 6.00 Build 0)  -->
<svg version="1.1" xmlns="http://www.w3.org/2000/svg" xmlns:xlink="http://www.w3.org/1999/xlink" x="0px" y="0px"
	 viewBox="0 0 88 88" style="enable-background:new 0 0 88 88;" xml:space="preserve">
<style type="text/css">
	.st0{display:none;}
	.st1{display:inline;}
	.st2{fill:#047B64;}
	.st3{fill:#FFFFFF;stroke:#047B64;stroke-width:2.25;stroke-miterlimit:10;}
	.st4{fill:none;stroke:#047B64;stroke-width:4;stroke-linecap:round;stroke-linejoin:round;}
	.st5{fill:#FFFFFF;}
	.st6{fill:none;stroke:#0E7868;stroke-width:4.0001;stroke-linecap:round;stroke-linejoin:round;stroke-miterlimit:4.0001;}
	.st7{fill:#0075A8;}
	.st8{fill:none;stroke:#0375A8;stroke-width:2;stroke-linejoin:round;stroke-miterlimit:10;}
	.st9{fill:none;stroke:#0375A8;stroke-width:2;stroke-miterlimit:10;}
	.st10{fill:none;stroke:#0375A8;stroke-width:2;stroke-linecap:round;stroke-miterlimit:10;}
	.st11{opacity:0.56;}
	.st12{fill:none;stroke:#FFFFFF;stroke-miterlimit:10;}
	.st13{fill:none;stroke:#0075A8;stroke-miterlimit:10;}
	.st14{fill:none;stroke:#0075A8;stroke-miterlimit:9.9999;}
	.st15{fill:none;stroke:#0075A8;stroke-miterlimit:9.9995;}
	.st16{display:inline;fill:#25B570;}
	.st17{fill:none;stroke:#25B570;stroke-width:2;stroke-linejoin:round;stroke-miterlimit:10;}
	.st18{fill:none;stroke:#25B570;stroke-width:2;stroke-miterlimit:10;}
	.st19{fill:none;stroke:#25B570;stroke-width:2;stroke-linecap:round;stroke-miterlimit:10;}
	.st20{fill:none;stroke:#25B570;stroke-width:2;stroke-linecap:round;stroke-linejoin:round;stroke-miterlimit:10;}
	.st21{display:inline;fill:none;stroke:#25B570;stroke-width:2;stroke-linecap:round;stroke-linejoin:round;stroke-miterlimit:10;}
	.st22{fill:#25B570;}
	.st23{fill:#10BAB3;}
	.st24{fill:none;stroke:#4491E3;stroke-width:3;stroke-miterlimit:10;}
	.st25{fill:#4667CA;}
	.st26{fill:none;stroke:#4F50B2;stroke-width:3;stroke-miterlimit:10;}
	.st27{fill:#51429C;}
	.st28{fill:none;stroke:#FFFFFF;stroke-width:2;stroke-linecap:round;stroke-linejoin:round;stroke-miterlimit:10;}
	.st29{fill:none;stroke:#FFFFFF;stroke-width:2;stroke-miterlimit:10;}
	.st30{fill:none;stroke:#FFFFFF;stroke-width:2;stroke-linejoin:round;stroke-miterlimit:10;}
	.st31{display:inline;fill:none;stroke:#FFFFFF;stroke-width:2;stroke-linejoin:round;stroke-miterlimit:10;}
	.st32{display:inline;fill:#011520;stroke:#FFFFFF;stroke-miterlimit:10;}
	.st33{fill:none;stroke:#0576A9;stroke-width:2;stroke-linejoin:round;stroke-miterlimit:10;}
	.st34{fill:none;stroke:#FFFFFF;stroke-width:3;stroke-linejoin:round;stroke-miterlimit:10;}
	.st35{fill:#0576A9;}
	.st36{fill:none;stroke:#0576A9;stroke-width:1.5;stroke-linejoin:round;stroke-miterlimit:10;}
	.st37{fill:#0576A9;stroke:#FFFFFF;stroke-width:0.5;stroke-miterlimit:10;}
	.st38{display:inline;fill:none;stroke:#0576A9;stroke-miterlimit:10;}
	.st39{fill:none;stroke:#0A76A9;stroke-width:0.75;stroke-linejoin:round;stroke-miterlimit:10;}
	.st40{display:inline;fill:#0576A9;}
	.st41{display:inline;fill:none;stroke:#E6E9EE;stroke-linecap:round;stroke-linejoin:round;stroke-miterlimit:10;}
	.st42{fill:none;stroke:#E6E9EE;stroke-miterlimit:10;}
	.st43{fill:none;stroke:#E6E9EE;stroke-linejoin:round;stroke-miterlimit:10;}
</style>
<g id="Layer_1" class="st0">
	<g id="Layer_1_2_">
		<g id="Layer_2_1_" class="st1">
			<path class="st2" d="M41,57.3c3.3,0,6-2.7,6-6V30.5c0-2.3-1.5-4.3-3.6-5l-3.9-1.3L32,31.7l-7.5-7.5l-3.9,1.3
				c-2.2,0.7-3.6,2.8-3.6,5v20.8c0,3.3,2.7,6,6,6"/>
			<path class="st3" d="M74.2,18.1l-6,6l-6,6l-6-6 M74.2,38.6l-6,6l-6,6l-6-6 M69.6,79.6h-12c-0.8,0-1.5-0.7-1.5-1.5V66
				c0-0.8,0.7-1.5,1.5-1.5h12.1c0.8,0,1.5,0.7,1.5,1.5v12.1C71.1,78.9,70.5,79.6,69.6,79.6z"/>
			<path class="st2" d="M32,54.3v27.1 M41,36.2v43.7c0,0.8-0.7,1.5-1.5,1.5H24.4c-0.8,0-1.5-0.7-1.5-1.5V36.2 M39.5,13.6
				c0,4.2-3.4,7.5-7.5,7.5c-4.2,0-7.5-3.4-7.5-7.5S27.8,6,32,6C36.1,6.1,39.5,9.4,39.5,13.6"/>
		</g>
		<g id="Layer_3" class="st1">
			<path class="st2" d="M48.4,13c7.7,5,13.4,13.1,13.4,23.3H51.7l17.2,17.2l17.2-17.2h-9.8C76.5,26.6,66.4,10.7,48.4,13"/>
			<path class="st2" d="M32.5,38.6c-6.4-0.8-8.6-2.6-9.8-3.6c-2.5-2.3-1.2-10.7,7.8-10.7c5,0,9,3.4,9,7.6h14.1
				c0-8.8-6.9-16.2-16.3-18.6v-7H23.7v7c-21,5.2-25,34.3,6.6,38c4.4,0.5,6.9,1.9,7.9,2.8c2.9,2.7,1.3,10.6-7.7,10.6
				c-3.7,0-6.9-1.9-8.3-4.6H7.7c1.4,7.4,7.7,13.4,16,15.6V82h13.5v-6.3C56.1,71.9,63.9,42.7,32.5,38.6"/>
		</g>
		<g id="Layer_4" class="st1">
			<g>
				<path class="st2" d="M80.7,17.4c-0.9-2.1-3.2-3.5-4.8-3.1c-1.5,0.4-3.3,1.1-3.8,1.3V27l5.9-2.7C80.5,23,81.8,20,80.7,17.4"/>
				<path class="st2" d="M39.6,80.6l21.3-9c-3.7,0.3-6.8,0.5-11,0.5c-5.4,0-10.6-0.3-16.2-0.8c-4.3-0.4-7.5-4.3-7.5-8.7V19
					c-1.8-8.1-8.5-9.2-10.9-7.8c-2.2,1.3,2.7,9.8-2.6,25.6C10.5,43.3,8.4,49.6,8,55C6.5,75.7,26.4,86.2,39.6,80.6"/>
				<path class="st2" d="M46,10.9h6.3c0.6,0,1,0.5,1,1.1s-0.5,1.1-1,1.1H46c-0.6,0-1-0.5-1-1.1S45.4,10.9,46,10.9 M44.6,60.7h3.5
					v2.9h-3.5c-0.8,0-1.4-0.6-1.4-1.4C43.2,61.3,43.8,60.7,44.6,60.7 M50.2,60.7h3.5c0.8,0,1.4,0.6,1.4,1.4s-0.6,1.4-1.4,1.4h-3.5
					V60.7z M34.1,67.7c5.4,0.5,10.6,0.8,15.9,0.8s8.8-0.3,14.3-0.8c1.3-0.2,2.5-1,3.2-2.1c-2.2-0.6-4.1-2.2-5-4.4
					c-0.7-1.8-0.8-3.7-0.2-5.4H33.6v-39h30.9v13l3.9-1.8V12.8c0-2.6-1.8-4.8-4.2-5.1C58.7,7.2,53.9,7,49.1,7S39.5,7.2,34,7.8
					c-2.3,0.3-4.2,2.5-4.2,5.1v49.8C29.9,65.2,31.7,67.4,34.1,67.7"/>
				<path class="st2" d="M71.1,62.4l4.4-1.9c2.1-0.9,3.1-3.3,2.2-5.4c-1-2.3-3.6-3-5.4-2.2l-4.4,1.9c-2.1,0.9-3.1,3.3-2.2,5.4
					C66.7,62.5,69.3,63.2,71.1,62.4"/>
				<path class="st2" d="M65.1,38c1.1,2.6,4,3.3,6,2.5l3.3-1.5c2.3-1,3.4-3.7,2.5-6c-1.1-2.6-4-3.3-6-2.5L67.6,32
					C65.2,33,64.1,35.6,65.1,38"/>
				<path class="st2" d="M71.1,51.9l4.9-2.1c2.3-1,3.4-3.7,2.4-6c-1.1-2.6-4-3.3-6-2.5l-4.9,2.1c-2.3,1-3.4,3.7-2.5,6
					C66.2,52,69,52.8,71.1,51.9"/>
				<path class="st2" d="M47.8,45.3c-0.8,0.1-1.5-0.3-1.9-0.7l-5.1-5c-1-1-1-2.6,0-3.6s2.6-1,3.6,0l3.1,3.1l7.5-9.6
					c0.8-1.1,2.4-1.3,3.5-0.4s1.3,2.4,0.4,3.5l-9.2,11.9C49.2,44.9,48.5,45.2,47.8,45.3"/>
			</g>
		</g>
		<g id="Layer_5" class="st1">
			<g>
				<g>
					<path class="st4" d="M81.4,27.9H25.1v40.7h52.7c2,0,3.6-1.6,3.6-3.6V27.9L81.4,27.9z"/>
					<path class="st4" d="M81.4,27.9H25.1v-9.1c0-2,1.6-3.6,3.6-3.6h49.1c2,0,3.6,1.6,3.6,3.6V27.9L81.4,27.9z"/>
					<g>
						<line class="st4" x1="40.3" y1="18.7" x2="40.3" y2="9.7"/>
						<line class="st4" x1="66.3" y1="18.7" x2="66.3" y2="9.7"/>
					</g>
					<g>
						<g>
							<line class="st4" x1="51.5" y1="51.7" x2="55.1" y2="51.7"/>
							<line class="st4" x1="38.9" y1="51.7" x2="42.5" y2="51.7"/>
							<line class="st4" x1="64.1" y1="51.7" x2="67.7" y2="51.7"/>
						</g>
						<g>
							<line class="st4" x1="51.5" y1="40.9" x2="55.1" y2="40.9"/>
							<line class="st4" x1="38.9" y1="40.9" x2="42.5" y2="40.9"/>
							<line class="st4" x1="64.1" y1="40.9" x2="67.7" y2="40.9"/>
						</g>
					</g>
				</g>
				<g>
					<ellipse class="st5" cx="25.1" cy="59.7" rx="23.6" ry="23.6"/>
					<ellipse class="st6" cx="25.1" cy="59.7" rx="18.2" ry="18.2"/>
					<polyline class="st4" points="25.1,50.6 25.1,59.7 31.3,59.7 					"/>
				</g>
			</g>
		</g>
		<g id="Layer_6" class="st1">
			<g>
				<g>
					<g>
						<path class="st7" d="M53.1,10.4c-0.6,0-1.1-0.5-1.1-1.1c0-2.1-1.7-3.7-3.7-3.7s-3.7,1.7-3.7,3.7c0,0.6-0.5,1.1-1.1,1.1
							s-1.1-0.5-1.1-1.1c0-3.3,2.7-5.9,5.9-5.9s5.9,2.7,5.9,5.9C54.2,9.9,53.7,10.4,53.1,10.4z"/>
						<path class="st7" d="M61,22.6H35.5c-0.6,0-1.1-0.5-1.1-1.1v-8.7c0-0.6,0.5-1.1,1.1-1.1H61c0.6,0,1.1,0.5,1.1,1.1v8.7
							C62.1,22.2,61.6,22.6,61,22.6z M36.6,20.4h23.2V14H36.6V20.4z"/>
						<path class="st7" d="M23.7,29c-0.6,0-1.1-0.5-1.1-1.1V15.6c0-0.6,0.5-1.1,1.1-1.1h6.5c0.6,0,1.1,0.5,1.1,1.1s-0.5,1.1-1.1,1.1
							h-5.4v11.1C24.8,28.5,24.3,29,23.7,29z"/>
						<path class="st7" d="M72.5,81.3H33.4c-0.6,0-1.1-0.5-1.1-1.1s0.5-1.1,1.1-1.1h38V16.8h-5.9c-0.6,0-1.1-0.5-1.1-1.1
							s0.5-1.1,1.1-1.1h7c0.6,0,1.1,0.5,1.1,1.1v64.5C73.6,80.8,73.1,81.3,72.5,81.3z"/>
					</g>
					<g>
						<path class="st7" d="M35.7,40.7c-0.3,0-0.6-0.1-0.8-0.3l-4.1-4.1c-0.4-0.4-0.4-1.1,0-1.6s1.1-0.4,1.6,0l3.3,3.3l6.1-6.1
							c0.4-0.4,1.1-0.4,1.6,0s0.4,1.1,0,1.6l-6.9,6.9C36.2,40.5,35.9,40.7,35.7,40.7z"/>
						<path class="st7" d="M37.1,53.4c-0.3,0-0.6-0.1-0.8-0.3c-0.4-0.4-0.4-1.1,0-1.6l5.5-5.5c0.4-0.4,1.1-0.4,1.6,0s0.4,1.1,0,1.6
							l-5.5,5.5C37.6,53.3,37.3,53.4,37.1,53.4z"/>
						<path class="st7" d="M35.7,69L35.7,69c-0.3,0-0.6-0.1-0.8-0.3l-1.3-1.3c-0.4-0.4-0.4-1.1,0-1.6s1.1-0.4,1.6,0l0.5,0.5l6.1-6.1
							c0.4-0.4,1.1-0.4,1.6,0s0.4,1.1,0,1.6l-6.9,6.9C36.2,68.9,36,69,35.7,69z"/>
						<path class="st7" d="M64.2,37.2H49c-0.6,0-1.1-0.5-1.1-1.1S48.4,35,49,35h15.3c0.6,0,1.1,0.5,1.1,1.1
							C65.3,36.7,64.8,37.2,64.2,37.2z"/>
						<path class="st7" d="M64.2,51.4H49c-0.6,0-1.1-0.5-1.1-1.1s0.5-1.1,1.1-1.1h15.3c0.6,0,1.1,0.5,1.1,1.1
							C65.3,50.9,64.8,51.4,64.2,51.4z"/>
						<path class="st7" d="M64.2,65.5H49c-0.6,0-1.1-0.5-1.1-1.1s0.5-1.1,1.1-1.1h15.3c0.6,0,1.1,0.5,1.1,1.1
							C65.3,65,64.8,65.5,64.2,65.5z"/>
					</g>
				</g>
				<g>
					<path class="st7" d="M22.3,46c-3.4,0-6.2-3.3-6.2-7.4s2.8-7.4,6.2-7.4s6.2,3.3,6.2,7.4S25.7,46,22.3,46z M22.3,33.3
						c-2.2,0-4,2.3-4,5.2s1.8,5.2,4,5.2s4-2.3,4-5.2C26.2,35.7,24.5,33.3,22.3,33.3z"/>
					<path class="st7" d="M28.4,68.6c-0.4,0-0.9-0.3-1-0.7c-0.2-0.6,0-1.2,0.6-1.4c2.6-1,4.3-3.5,4.3-6.4v-3.7
						c0-3.8-3.1-6.9-6.9-6.9H19c-3.8,0-6.9,3.1-6.9,6.9v3.7c0,2.8,1.7,5.3,4.3,6.4c0.6,0.2,0.9,0.9,0.6,1.4
						c-0.2,0.6-0.9,0.8-1.4,0.6c-3.5-1.4-5.7-4.7-5.7-8.4v-3.7c0-5,4.1-9.1,9.1-9.1h6.4c5,0,9.1,4.1,9.1,9.1v3.7
						c0,3.8-2.3,7.1-5.7,8.4C28.6,68.6,28.5,68.6,28.4,68.6z"/>
					<path class="st7" d="M22.3,83.2c-0.6,0-1.1-0.5-1.1-1.1V67.5c0-0.6,0.5-1.1,1.1-1.1s1.1,0.5,1.1,1.1v14.6
						C23.4,82.7,22.9,83.2,22.3,83.2z"/>
					<path class="st7" d="M25,84.4c-0.9,0-1.8-0.2-2.8-0.9c-2.6,1.8-5.4,0.5-6.6-0.6c-0.2-0.2-0.4-0.5-0.4-0.8V55.2
						c0-0.6,0.5-1.1,1.1-1.1s1.1,0.5,1.1,1.1v26.4c0.8,0.5,2.5,1.3,4-0.2c0.4-0.4,1.1-0.4,1.6,0c1.5,1.5,3.3,0.7,4,0.2V55.2
						c0-0.6,0.5-1.1,1.1-1.1s1.1,0.5,1.1,1.1v26.9c0,0.3-0.1,0.6-0.4,0.8C28.1,83.6,26.6,84.4,25,84.4z"/>
				</g>
			</g>
		</g>
		<g id="Layer_7" class="st1">
			<path class="st8" d="M63.2,57.3c-1.3,0-2.5,0.8-3,1.9v-2c0-1.9-1.5-3.4-3.4-3.4c-1.5,0-2.8,1-3.3,2.5c0-2.5-1.2-4.1-3.4-4.1
				c-1.7,0-3.1,1.2-3.3,2.8V41.1c0-1.9-1.5-3.4-3.4-3.4S40,39.2,40,41.1v21.5c-2.1-4-4.5-5.6-6.6-5.6c0,0,0,0-0.1,0
				c-2,0-3.6,1.3-3.9,2c-0.6,1.3,4.2,3.4,7.6,11.9c3.7,9.1,6.7,13.7,15.7,13.7c9.9,0,13.6-6.9,13.6-11.4V60.6
				C66.5,58.7,65,57.3,63.2,57.3z"/>
			<path class="st9" d="M62.5,38.1c-0.5-1.2-1.6-1.8-2.7-1.8c-0.4,0-0.8,0.1-1.1,0.2l-3.1,1.4c-1.5,0.6-2.2,2.4-1.5,3.9
				c0.5,1.2,1.6,1.8,2.7,1.8c0.4,0,0.8-0.1,1.1-0.2L61,42C62.4,41.3,63.1,39.6,62.5,38.1z"/>
			<path class="st9" d="M57.9,50.2l2.8-1.2c1.3-0.6,2-2.2,1.4-3.5c-0.5-1.1-1.5-1.7-2.4-1.7c-0.3,0-0.7,0.1-1,0.2l-2.8,1.2
				c-1.3,0.6-2,2.2-1.4,3.5c0.5,1.1,1.5,1.7,2.4,1.7C57.2,50.4,57.6,50.3,57.9,50.2z"/>
			<path class="st9" d="M54.1,34.2c0.5,1.2,1.6,1.8,2.7,1.8c0.4,0,0.8-0.1,1.1-0.2l2.1-1c1.5-0.6,2.2-2.4,1.5-3.9
				c-0.5-1.2-1.6-1.8-2.7-1.8c-0.4,0-0.8,0.1-1.1,0.2l-2.1,1C54.1,31,53.5,32.7,54.1,34.2z"/>
			<line class="st10" x1="42.5" y1="11.8" x2="44.7" y2="11.8"/>
			<line class="st9" x1="30.4" y1="15.2" x2="56.9" y2="15.2"/>
			<path class="st9" d="M56.9,26.4l5.7-2.4c1.7-0.7,2.4-2.7,1.8-4.4c-0.6-1.4-1.8-2.4-3.8-1.8c-0.5,0.1-2.9,1-3.6,1.3"/>
			<path class="st9" d="M47.4,24.4c0-2.1-1.7-3.8-3.8-3.8c-1.8,0-3.4,1.5-3.4,3.3c0,3.8,6.9,1.4,6.9,5.6c0,1.7-1.7,2.8-3.5,2.8
				c-2.1,0-3.8-1.7-3.8-3.8"/>
			<line class="st9" x1="43.6" y1="20.6" x2="43.6" y2="18.6"/>
			<line class="st9" x1="43.6" y1="34.3" x2="43.6" y2="32.3"/>
			<path class="st9" d="M52.8,53.5c0.3,0,0.5,0,0.8-0.1c1.7-0.3,3.5-1.4,3.5-3.1"/>
			<path class="st9" d="M56.9,29.8V12.3c0-1.8-1.3-3.3-2.9-3.5c-3.7-0.4-7-0.5-10.3-0.5S37,8.4,33.3,8.8c-1.6,0.2-2.9,1.7-2.9,3.5
				v37.6c0,1.8,1.3,3.3,2.9,3.5c2.3,0.2,4.5,0.4,6.8,0.5"/>
			<line class="st9" x1="46.8" y1="45.8" x2="55" y2="45.8"/>
			<line class="st9" x1="30.4" y1="45.8" x2="40.1" y2="45.8"/>
			<path class="st9" d="M30.4,18.6c-1.1-3.4-5.5-4.2-6.7-3.5c-1.4,0.8,1.7,6.2-1.6,16.1c-1.4,4.1-2.7,8.1-3,11.5
				c-0.7,8.6,4.5,14.4,10.4,16.4"/>
		</g>
		<g id="Layer_8" class="st1">
			<g>
				<path class="st8" d="M46.4,21.5c-4.9,0-9,4-9,8.9s4,9,9,9s9-4,9-9S51.4,21.5,46.4,21.5z"/>
				<path class="st8" d="M62.2,65V53.1c0-4.6-3.6-9.2-10.4-10.8L46.2,47l-5.5-4.6c-6.5,1.5-10,5.8-10,10.8V65"/>
				<line class="st8" x1="54.5" y1="64.9" x2="54.5" y2="58.7"/>
				<line class="st8" x1="38.3" y1="64.9" x2="38.3" y2="58.7"/>
				<path class="st8" d="M24.9,27.5c-4.3,0-7.7,3.5-7.7,7.7s3.5,7.7,7.7,7.7s7.7-3.5,7.7-7.7S29.1,27.5,24.9,27.5z"/>
				<line class="st8" x1="18" y1="64.9" x2="18" y2="59.6"/>
				<line class="st8" x1="18.7" y1="53.5" x2="21.3" y2="53.5"/>
				<path class="st8" d="M33,46.7c-1-0.5-2.2-1-3.5-1.3l-4.8,4l-4.8-4c-5.6,1.3-8.6,5-8.6,9.3V65"/>
				<path class="st8" d="M67.7,27.5c4.3,0,7.7,3.5,7.7,7.7S72,43,67.7,43S60,39.5,60,35.2C60,31,63.4,27.5,67.7,27.5z"/>
				<line class="st8" x1="74.6" y1="64.9" x2="74.6" y2="59.6"/>
				<line class="st8" x1="64.7" y1="53.5" x2="62.2" y2="53.5"/>
				<path class="st8" d="M59.6,46.7c1-0.5,2.2-1,3.5-1.3l4.8,4l4.8-4c5.6,1.3,8.6,5,8.6,9.3V65"/>
			</g>
			<line class="st8" x1="40.2" y1="43" x2="45.8" y2="54.5"/>
			<line class="st8" x1="52.4" y1="42.7" x2="46" y2="54.5"/>
			<circle class="st8" cx="46" cy="56.2" r="1.6"/>
			<line class="st8" x1="8.1" y1="65.5" x2="83.6" y2="65.5"/>
		</g>
		<g id="Layer_9" class="st1">
			<g>
				<rect x="30.3" y="48.1" class="st8" width="5.4" height="5.4"/>
				<rect x="30.3" y="38.3" class="st8" width="5.4" height="5.4"/>
				<rect x="30.3" y="28.5" class="st8" width="5.4" height="5.4"/>
				<rect x="39" y="48.1" class="st8" width="5.4" height="5.4"/>
				<rect x="39" y="38.3" class="st8" width="5.4" height="5.4"/>
				<rect x="47.8" y="48.1" class="st8" width="5.4" height="5.4"/>
				<rect x="56.6" y="48.1" class="st8" width="5.4" height="5.4"/>
				<rect x="47.8" y="38.3" class="st8" width="5.4" height="5.4"/>
				<rect x="56.6" y="38.3" class="st8" width="5.4" height="5.4"/>
				<rect x="56.6" y="28.5" class="st8" width="5.4" height="5.4"/>
				<line class="st8" x1="43.3" y1="20" x2="43.3" y2="28.5"/>
				<line class="st8" x1="49.2" y1="20" x2="49.2" y2="28.5"/>
				<line class="st8" x1="49.2" y1="24.3" x2="43.3" y2="24.3"/>
				<path class="st8" d="M46.3,32.6c-4.6,0-8.3-3.7-8.3-8.4s3.7-8.4,8.3-8.4s8.3,3.7,8.3,8.4S50.9,32.6,46.3,32.6z"/>
				<path class="st8" d="M66.1,64.3V26.9c0-0.5-0.3-0.9-0.8-1c-0.9-0.2-1.9-0.4-2.8-0.5c0-0.5,0-1.1,0-1.7c0-0.5-0.5-0.7-0.6-0.7
					c-2.4-0.9-5.9-1.7-8-2.3"/>
				<path class="st8" d="M38.7,20.6c-2.8,0.7-5.8,1.5-8.3,2.4c-0.2,0.1-0.4,0.4-0.4,0.7c0,0.6,0,1.1,0,1.7c-0.9,0.2-1.9,0.3-2.8,0.5
					c-0.5,0.1-0.8,0.5-0.8,1v37.4"/>
				<polyline class="st8" points="40.2,64.3 40.2,56.8 52.3,56.8 52.3,64.3 				"/>
				<line class="st8" x1="46.3" y1="56.8" x2="46.3" y2="64.3"/>
				<line class="st8" x1="23.9" y1="64.3" x2="68.7" y2="64.3"/>
			</g>
		</g>
		<g id="Layer_10" class="st1">
			<g>
				<path class="st8" d="M30.1,64.7v-11c0-6.6,5.3-11.5,16.5-11.5s16.5,5,16.5,11.5v11"/>
				<path class="st8" d="M37.6,55.6"/>
				<path class="st8" d="M46.7,38c5.1,0,9.3-4.1,9.3-9.3s-4.1-9.3-9.3-9.3c-5.1,0-9.3,4.1-9.3,9.3C37.4,33.8,41.5,38,46.7,38z"/>
				<line class="st8" x1="38.3" y1="54.7" x2="38.3" y2="64.7"/>
				<line class="st8" x1="55" y1="54.7" x2="55" y2="64.7"/>
				<line class="st8" x1="13.7" y1="64" x2="77.1" y2="64"/>
			</g>
		</g>
		<g id="Layer_11" class="st1">
			<g class="st11">
				<path class="st7" d="M66.3,33.1l5.1-0.3c1.9-0.1,3.5,1.1,3.6,2.7c0.1,1.6-1.3,3-3.2,3.1l-4.2,0.2"/>
				<path class="st7" d="M59.2,55.8v6.4c0,0.8,0.6,1.4,1.4,1.4h7.8c0.8,0,1.4-0.6,1.4-1.4v-7.8"/>
				<path class="st7" d="M65.1,38H23.8c-4.5,0-8.2,4-8.2,8.9s3.7,8.9,8.2,8.9h41.3c4.5,0,8.2-4,8.2-8.9C73.3,42,69.7,38,65.1,38z"/>
				<path class="st12" d="M64,51.2c2.2,0,3.9-1.7,3.9-3.9s-1.7-3.9-3.9-3.9c-2.2,0-3.9,1.7-3.9,3.9C60.1,49.4,61.9,51.2,64,51.2z"/>
				<path class="st12" d="M24.9,51.2c2.1,0,3.9-1.7,3.9-3.9c0-2.1-1.7-3.9-3.9-3.9S21,45.1,21,47.3C21,49.4,22.8,51.2,24.9,51.2z"/>
				<path class="st7" d="M20.4,38.9c0,0,2-11.3,2.8-15.4c0.1-0.4,0.6-1.4,1.8-1.6c14.4-2.9,25-2.8,39.2,0c1,0.2,1.5,1.2,1.6,1.7
					s2.7,15.3,2.7,15.3"/>
				<path class="st7" d="M22.3,32.8h-5.1c-1.8,0-3.4,1.3-3.4,2.9s1.4,2.9,3.3,2.9h4.1"/>
				<path class="st7" d="M29.8,55.8v6.4c0,0.8-0.6,1.4-1.4,1.4h-7.8c-0.8,0-1.4-0.6-1.4-1.4v-7.8"/>
			</g>
		</g>
		<g id="Layer_12" class="st1">
			<g>
				<path class="st13" d="M56.1,38.9c-0.2,0.4-0.6,0.7-1,0.7h-15v-8.8h5.7c1.8,0,2.2,0.4,4.3,2c1.4,1.1,5.6,4.8,5.8,4.9
					C56.2,38,56.3,38.5,56.1,38.9z"/>
				<ellipse class="st14" cx="27.8" cy="53.9" rx="6.1" ry="6.1"/>
				<ellipse class="st15" cx="62.5" cy="53.9" rx="6.1" ry="6.1"/>
				<line class="st13" x1="42.8" y1="44" x2="45.1" y2="44"/>
				<line class="st13" x1="30" y1="44" x2="32.2" y2="44"/>
				<line class="st13" x1="72.4" y1="44.6" x2="74.8" y2="44.6"/>
				<line class="st13" x1="34" y1="53.8" x2="56.4" y2="53.8"/>
				<path class="st13" d="M68.6,53.8h2.9c0.3,0,0.6-0.1,0.8-0.4l2.3-2.6c0.2-0.2,0.3-0.5,0.3-0.8v-6.3c0-1.7-1.2-3.2-2.8-3.5
					l-9.3-2.9c0,0-6.8-5.6-9-7.4c-2.8-2.3-4.3-3.1-7.5-3.1H34.5c-2.4,0-3.4,0.7-4.7,1.5c-3.3,2.1-8.7,7.3-9.9,8.5l-3,0.5
					c-1.6,0.3-2.9,1.8-2.9,3.5v8.4c0,0.3,0.1,0.6,0.3,0.8l3.5,3.6c0.2,0.2,0.5,0.3,0.8,0.3h3.2"/>
				<path class="st13" d="M40.1,39.6H29.7c-0.4,0-0.7-0.2-0.9-0.5s-0.2-0.7-0.1-1c0-0.1,0.9-1.8,2.3-3.8c2.1-2.9,3.9-3.5,4.1-3.5H40
					L40.1,39.6L40.1,39.6z"/>
			</g>
			<circle class="st13" cx="62.7" cy="54" r="3.7"/>
			<circle class="st13" cx="28" cy="54" r="3.7"/>
		</g>
		<g id="Layer_1_1_" class="st1">
			<path class="st7" d="M79,28.9c-0.9-2.2-2.1-4.4-3.5-6.4c-1.3-2-2.9-3.9-4.6-5.6s-3.6-3.3-5.6-4.6c-2-1.4-4.2-2.5-6.4-3.5
				c-4.7-2-9.6-3-14.7-3s-10,1-14.7,3c-2.2,0.9-4.4,2.1-6.4,3.5s-3.9,2.9-5.6,4.6s-3.3,3.6-4.6,5.6c-1.4,2-2.5,4.2-3.5,6.4
				c-2,4.7-3,9.6-3,14.7s1,10,3,14.7c0.9,2.2,2.1,4.4,3.5,6.4c1.4,2,2.9,3.9,4.6,5.6s3.6,3.3,5.6,4.6c2,1.4,4.2,2.5,6.4,3.5
				c4.7,2,9.6,3,14.7,3s10-1,14.7-3c2.2-0.9,4.4-2.1,6.4-3.5c2-1.3,3.9-2.9,5.6-4.6s3.3-3.6,4.6-5.6c1.4-2,2.5-4.2,3.5-6.4
				c2-4.7,3-9.6,3-14.7C81.9,38.5,80.9,33.6,79,28.9z M10.5,43.6C10.5,25.1,25.6,10,44.2,10C53,10,61,13.4,67,19L19.5,66.5
				C13.9,60.5,10.5,52.4,10.5,43.6z M44.2,77.3c-8,0-15.5-2.8-21.3-7.6l47.3-47.3c4.7,5.8,7.6,13.2,7.6,21.3
				C77.8,62.2,62.7,77.3,44.2,77.3z"/>
		</g>
	</g>
	<g id="Layer_2_2_">
		<polygon class="st16" points="82.5,22.2 79.7,22 80.3,14 71.9,13.1 72.2,10.3 83.2,11.1 		"/>
		<polygon class="st16" points="56.1,35.4 54.4,33.3 80.6,12.1 82.4,14.3 		"/>
		<polygon class="st16" points="48.3,35.8 27.5,25.1 28.8,22.6 49.4,33.2 		"/>
		<polygon class="st16" points="10.1,34.6 8.8,32.1 21.9,23.6 23.3,26 		"/>
		<path class="st16" d="M6.1,30.1c-3,0-5.4,2.4-5.4,5.4s2.4,5.4,5.4,5.4s5.4-2.4,5.4-5.4l0,0C11.5,32.5,9.1,30.1,6.1,30.1z
			 M6.1,38.8c-1.8,0-3.3-1.5-3.3-3.3s1.5-3.3,3.3-3.3s3.3,1.5,3.3,3.3S7.9,38.8,6.1,38.8L6.1,38.8z"/>
		<path class="st16" d="M25.1,16.9c-3,0-5.4,2.4-5.4,5.4s2.4,5.4,5.4,5.4s5.4-2.4,5.4-5.4S28.1,16.9,25.1,16.9z M25.1,25.5
			c-1.8,0-3.3-1.5-3.3-3.3s1.5-3.3,3.3-3.3s3.3,1.5,3.3,3.3C28.4,24.1,26.9,25.5,25.1,25.5L25.1,25.5z"/>
		<path class="st16" d="M52.3,30.9c-3,0-5.4,2.4-5.4,5.4s2.4,5.4,5.4,5.4s5.4-2.4,5.4-5.4l0,0C57.6,33.3,55.2,30.9,52.3,30.9z
			 M52.3,39.6c-1.8,0-3.3-1.5-3.3-3.3s1.5-3.3,3.3-3.3s3.3,1.5,3.3,3.3S54.1,39.6,52.3,39.6L52.3,39.6z"/>
		<polygon class="st16" points="67.2,53.3 62.7,48.6 64.8,46.5 69.3,51.2 		"/>
		<path class="st16" d="M79.7,71.2L66.5,58v-7.6h7.6l13.2,13.2L79.7,71.2z M69.6,56.8l10.3,10.1l3.8-3.7l-10.5-9.8l-3.7-0.2
			L69.6,56.8z"/>
		<path class="st16" d="M65,23.5c-7-7-18.4-7-25.4,0s-7,18.4,0,25.4s18.4,7,25.4,0c3.4-3.4,5.3-7.9,5.3-12.7
			C70.2,31.4,68.3,26.8,65,23.5z M52.3,50.7c-8,0-14.5-6.5-14.5-14.5s6.5-14.5,14.5-14.5s14.5,6.5,14.5,14.5l0,0
			C66.8,44.2,60.3,50.7,52.3,50.7L52.3,50.7L52.3,50.7z"/>
		<rect x="4.7" y="48.2" class="st16" width="2.9" height="17.9"/>
		<rect x="12.9" y="41.6" class="st16" width="2.9" height="24.5"/>
		<rect x="21.2" y="36.2" class="st16" width="2.9" height="29.9"/>
		<rect x="29.4" y="44" class="st16" width="2.9" height="22.1"/>
		<rect x="37.7" y="53.4" class="st16" width="2.9" height="12.7"/>
		<rect x="45.9" y="56.3" class="st16" width="2.9" height="9.8"/>
		<rect x="54.2" y="57.9" class="st16" width="2.9" height="8.2"/>
		<rect x="62.4" y="56.3" class="st16" width="2.9" height="9.8"/>
		<rect x="4.4" y="69.7" class="st16" width="67.6" height="3.1"/>
	</g>
	<g id="Layer_3_1_">
		<path class="st16" d="M87.6,26.1c0-0.4-0.2-0.8-0.5-1.1l-6.8-6.7l-9-9l0,0l-6.8-6.7c-0.6-0.6-1.6-0.6-2.2,0l-22.2,22V5.2
			c0-0.9-0.7-1.6-1.6-1.6H7c-0.9,0-1.6,0.7-1.6,1.6l0,0v78.6c0,0.9,0.7,1.6,1.6,1.6l0,0h31.6c0.9,0,1.6-0.7,1.6-1.6l0,0v-9.9
			l47-46.7C87.5,26.9,87.6,26.5,87.6,26.1 M27.5,22.5H18V6.8h9.5V22.5z M37,82.2H8.6V6.8h6.3v17.3c0,0.9,0.7,1.6,1.6,1.6h12.7
			c0.9,0,1.6-0.7,1.6-1.6V6.8H37V82.2z M77,19.3L65.7,30.6l-6.8-6.8l11.3-11.3L77,19.3z M40.2,69.4V29L63.5,5.8l4.5,4.5L55.6,22.7
			c-0.6,0.6-0.6,1.6,0,2.2l0,0l9.1,9c0.6,0.6,1.6,0.6,2.2,0l12.4-12.4l4.5,4.5L40.2,69.4z"/>
	</g>
	<g id="Layer_4_1_" class="st1">
		<g id="Layer_3_2_">
			<g>
				<path class="st17" d="M62.6,54.5c-1.2,0-2.3,0.7-2.8,1.8v-1.8c0-1.7-1.5-3.2-3.2-3.2c-1.5,0-2.7,0.9-3.1,2.3
					c0-2.3-1.1-3.9-3.2-3.9c-1.5,0-2.9,1.1-3.1,2.7v-13c0-1.7-1.5-3.2-3.2-3.2s-3.2,1.5-3.2,3.2v20.1c-2-3.7-4.2-5.2-6.2-5.2
					c0,0,0,0-0.1,0c-1.9,0-3.3,1.2-3.6,1.8c-0.5,1.2,3.9,3.3,7.1,11.1c3.4,8.6,6.3,12.9,14.7,12.9c9.3,0,12.8-6.5,12.8-10.7V57.6
					C65.7,55.9,64.3,54.5,62.6,54.5z"/>
				<path class="st18" d="M61.9,36.6c-0.5-1.1-1.5-1.7-2.5-1.7c-0.3,0-0.7,0.1-1,0.2l-2.9,1.3c-1.4,0.6-2.1,2.2-1.5,3.7
					c0.5,1.1,1.5,1.7,2.5,1.7c0.3,0,0.7-0.1,1-0.2l2.9-1.3C61.8,39.6,62.5,37.9,61.9,36.6z"/>
				<path class="st18" d="M57.6,47.9l2.7-1.1c1.3-0.5,1.8-2.1,1.3-3.3c-0.4-1-1.4-1.5-2.3-1.5c-0.3,0-0.6,0.1-0.9,0.2l-2.6,1.1
					c-1.3,0.5-1.8,2.1-1.3,3.3c0.4,1,1.4,1.5,2.3,1.5C57,48.1,57.3,48,57.6,47.9z"/>
				<path class="st18" d="M54,33c0.5,1.1,1.5,1.7,2.5,1.7c0.3,0,0.7-0.1,1-0.2l2-0.9c1.4-0.6,2.1-2.2,1.5-3.7
					c-0.5-1.2-1.5-1.7-2.5-1.7c-0.3,0-0.7,0.1-1,0.2l-2,0.9C54.1,29.9,53.4,31.5,54,33z"/>
				<line class="st19" x1="43.2" y1="12" x2="45.3" y2="12"/>
				<line class="st18" x1="31.8" y1="15.1" x2="56.7" y2="15.1"/>
				<path class="st18" d="M56.7,25.6l5.3-2.2c1.5-0.7,2.3-2.5,1.6-4.1C63.1,18,62,17,60,17.6c-0.5,0.2-2.7,0.9-3.3,1.2"/>
				<path class="st18" d="M52.9,51c0.3,0,0.5-0.1,0.8-0.1c1.5-0.3,3.3-1.3,3.3-2.9"/>
				<path class="st18" d="M56.7,28.8V12.3c0-1.6-1.2-3.1-2.7-3.3c-3.5-0.3-6.6-0.5-9.7-0.5s-6.2,0.2-9.8,0.5
					c-1.5,0.2-2.7,1.6-2.7,3.3v35.2c0,1.6,1.2,3.1,2.7,3.3c2.1,0.2,4.3,0.3,6.3,0.4"/>
				<line class="st18" x1="47.2" y1="43.8" x2="54.9" y2="43.8"/>
				<line class="st18" x1="31.8" y1="43.8" x2="40.9" y2="43.8"/>
				<path class="st18" d="M31.8,18.3c-1.1-3.3-5.1-3.9-6.3-3.3c-1.3,0.8,1.6,5.8-1.5,15.1c-1.3,3.9-2.5,7.5-2.7,10.8
					c-0.6,8,4.2,13.5,9.8,15.3"/>
			</g>
		</g>
	</g>
</g>
<g id="Layer_2" class="st0">
	<g class="st1">
		<g>
			<g>
				<polygon class="st20" points="84.3,45.8 49.7,11.2 49.7,11.1 43.4,4.8 43.4,4.8 43.3,4.8 37,11.1 37,11.2 2.4,45.8 8.8,52.1 
					43.4,17.5 78,52.1 				"/>
				<line class="st20" x1="11.8" y1="82.7" x2="11.8" y2="49.1"/>
				<line class="st20" x1="74.9" y1="49.1" x2="74.9" y2="82.7"/>
				<polyline class="st20" points="59.8,21.2 59.8,8.3 73.4,8.3 73.4,34.9 				"/>
			</g>
			<line class="st20" x1="6" y1="82.7" x2="80.7" y2="82.7"/>
		</g>
	</g>
	<polygon class="st21" points="30.3,51.9 38.4,51.9 38.4,43.7 48.1,43.7 48.1,51.9 56.2,51.9 56.2,61.6 48.1,61.6 48.1,69.7 
		38.4,69.7 38.4,61.6 30.3,61.6 	"/>
</g>
<g id="Better_Outcomes" class="st0">
	<g class="st1">
		<g>
			<g>
				
					<rect x="48.6" y="24.7" transform="matrix(0.8332 -0.5529 0.5529 0.8332 -4.8416 36.2233)" class="st22" width="18" height="2.8"/>
			</g>
			<g>
				
					<rect x="32.3" y="33" transform="matrix(0.9902 -0.1397 0.1397 0.9902 -4.4187 5.7627)" class="st22" width="13.2" height="2.8"/>
			</g>
			<g>
				
					<rect x="17.4" y="40.7" transform="matrix(0.7306 -0.6828 0.6828 0.7306 -22.435 27.2448)" class="st22" width="11.8" height="2.8"/>
			</g>
			<g>
				<path class="st22" d="M17,52.2c-2.3,0-4.2-1.9-4.2-4.2c0-2.3,1.9-4.2,4.2-4.2c2.3,0,4.2,1.9,4.2,4.2
					C21.2,50.3,19.3,52.2,17,52.2z M17,46.6c-0.8,0-1.4,0.6-1.4,1.4c0,0.8,0.6,1.4,1.4,1.4c0.8,0,1.4-0.6,1.4-1.4
					C18.4,47.2,17.8,46.6,17,46.6z"/>
			</g>
			<g>
				<path class="st22" d="M29.6,40.3c-2.3,0-4.2-1.9-4.2-4.2c0-2.3,1.9-4.2,4.2-4.2c2.3,0,4.2,1.9,4.2,4.2
					C33.8,38.4,32,40.3,29.6,40.3z M29.6,34.7c-0.8,0-1.4,0.6-1.4,1.4s0.6,1.4,1.4,1.4c0.8,0,1.4-0.6,1.4-1.4S30.4,34.7,29.6,34.7z"
					/>
			</g>
			<g>
				<path class="st22" d="M48.2,37c-2.3,0-4.2-1.9-4.2-4.2c0-2.3,1.9-4.2,4.2-4.2c2.3,0,4.2,1.9,4.2,4.2C52.4,35.1,50.5,37,48.2,37z
					 M48.2,31.4c-0.8,0-1.4,0.6-1.4,1.4c0,0.8,0.6,1.4,1.4,1.4c0.8,0,1.4-0.6,1.4-1.4C49.6,32,48.9,31.4,48.2,31.4z"/>
			</g>
			<g>
				<path class="st22" d="M67.5,23.9c-2.3,0-4.2-1.9-4.2-4.2c0-2.3,1.9-4.2,4.2-4.2c2.3,0,4.2,1.9,4.2,4.2
					C71.7,22,69.8,23.9,67.5,23.9z M67.5,18.3c-0.8,0-1.4,0.6-1.4,1.4s0.6,1.4,1.4,1.4c0.8,0,1.4-0.6,1.4-1.4S68.2,18.3,67.5,18.3z"
					/>
			</g>
			<g>
				<rect x="15.6" y="54.4" class="st22" width="2.8" height="9.9"/>
			</g>
			<g>
				<rect x="21.2" y="51.9" class="st22" width="2.8" height="12.4"/>
			</g>
			<g>
				<rect x="26.8" y="45.2" class="st22" width="2.8" height="19.1"/>
			</g>
			<g>
				<rect x="32.4" y="42.3" class="st22" width="2.8" height="22.1"/>
			</g>
			<g>
				<rect x="38" y="41.5" class="st22" width="2.8" height="22.8"/>
			</g>
			<g>
				<rect x="43.6" y="40.7" class="st22" width="2.8" height="23.6"/>
			</g>
			<g>
				<rect x="49.2" y="39.9" class="st22" width="2.8" height="24.4"/>
			</g>
			<g>
				<rect x="54.9" y="33.3" class="st22" width="2.8" height="31.1"/>
			</g>
			<g>
				<rect x="60.5" y="29.8" class="st22" width="2.8" height="34.5"/>
			</g>
			<g>
				<rect x="66.1" y="26.4" class="st22" width="2.8" height="37.9"/>
			</g>
		</g>
		<g>
			<rect x="12.8" y="67.2" class="st22" width="58.9" height="2.8"/>
		</g>
	</g>
</g>
<g id="Online_Bill_Pay" class="st0">
	<g class="st1">
		<rect x="57.6" y="58.3" class="st23" width="5.7" height="3.5"/>
		<path class="st23" d="M67.9,61.8h-1.7v-3.5h1.7c1,0,1.8-0.8,1.8-1.8V21.1c0-1-0.8-1.8-1.8-1.8H15.2c-1,0-1.8,0.8-1.8,1.8v35.4
			c0,1,0.8,1.8,1.8,1.8h39.7v3.5H15.2c-2.9,0-5.3-2.4-5.3-5.3V21.1c0-2.9,2.4-5.3,5.3-5.3h52.7c2.9,0,5.3,2.4,5.3,5.3v35.4
			C73.1,59.4,70.8,61.8,67.9,61.8z"/>
		<path class="st23" d="M49.5,69.6H33.5V58.3h16.1V69.6z M37,66.2h9.1v-4.4H37V66.2z"/>
		<rect x="23.6" y="66.2" class="st23" width="35.8" height="3.5"/>
		<rect x="16.6" y="50.6" class="st23" width="49.7" height="3.5"/>
	</g>
</g>
<g id="New_Rev._Streams" class="st0">
	<g class="st1">
		<g>
			<g>
				<path class="st24" d="M38.7,42.5c0,2.9,2.5,5.2,5.6,5.2c3.1,0,5.6-2.3,5.6-5.2s-3-4.1-5.6-5.4c-2.6-1.3-5.6-2.6-5.6-5.4
					c0-2.9,2.5-5.2,5.6-5.2s5.6,2.3,5.6,5.2"/>
				<line class="st24" x1="44.2" y1="26.4" x2="44.2" y2="22.8"/>
				<line class="st24" x1="44.2" y1="51.4" x2="44.2" y2="47.8"/>
			</g>
		</g>
		<g>
			<g>
				<line class="st24" x1="35" y1="66.6" x2="53.6" y2="66.6"/>
				<line class="st24" x1="44.2" y1="8.4" x2="44.2" y2="3.7"/>
				<g>
					<line class="st24" x1="66.2" y1="18.5" x2="70" y2="14.7"/>
					<line class="st24" x1="18.5" y1="14.7" x2="22.3" y2="18.5"/>
				</g>
				<path class="st24" d="M44.3,15.3c-11.4,0-20.6,9.1-20.6,20.2c0,4.7,1.3,8.6,3.7,11.6c0.9,0.9,1.7,1.8,2.6,2.6
					c2.9,2.7,5.6,5.3,6.4,10.8h15.7c0.8-5.5,3.6-8.1,6.5-10.8c0.8-0.8,1.7-1.6,2.5-2.5c2.6-3.1,3.8-6.6,3.8-11.6
					C64.9,24.4,55.7,15.3,44.3,15.3z"/>
				<path class="st24" d="M37.3,72.3H40c0.7,0.9,2.2,2.4,4.3,2.4c2.1,0,3.6-1.4,4.3-2.4h2.7"/>
			</g>
		</g>
	</g>
</g>
<g id="Improved_Provider" class="st0">
	<g class="st1">
		<path class="st25" d="M44.6,63.7c-2.8,0-5.5-1.3-7.3-3.4c-1.4-1.7-2.2-3.8-2.2-6c0-5.2,4.3-9.5,9.5-9.5c2.8,0,5.5,1.3,7.3,3.4
			c1.4,1.7,2.2,3.8,2.2,6C54.1,59.4,49.8,63.7,44.6,63.7z M44.6,48.4c-3.2,0-5.8,2.6-5.8,5.8c0,1.3,0.5,2.7,1.3,3.7
			c1.1,1.3,2.7,2.1,4.5,2.1c3.2,0,5.8-2.6,5.8-5.8c0-1.3-0.5-2.7-1.3-3.7C48,49.2,46.3,48.4,44.6,48.4z"/>
		
			<rect x="46.8" y="37.4" transform="matrix(0.7712 -0.6366 0.6366 0.7712 -10.5916 48.9214)" class="st25" width="31.9" height="3.7"/>
		
			<rect x="32.9" y="59.3" transform="matrix(0.7714 -0.6364 0.6364 0.7714 -30.63 37.0085)" class="st25" width="6.5" height="3.7"/>
		<path class="st25" d="M10.8,68.5C8.9,64,7.9,59.2,7.9,54.2c0-4.9,1-9.7,2.9-14.3c1.8-4.4,4.5-8.3,7.9-11.7c3.4-3.4,7.3-6,11.7-7.9
			c4.5-1.9,9.3-2.9,14.3-2.9c4.9,0,9.7,1,14.3,2.9c3.7,1.6,7.2,3.8,10.2,6.5l-2.5,2.7c-2.7-2.5-5.8-4.4-9.2-5.9
			c-4.1-1.7-8.4-2.6-12.8-2.6c-4.5,0-8.8,0.9-12.8,2.6c-3.9,1.7-7.5,4-10.5,7.1c-3,3-5.4,6.6-7.1,10.5c-1.7,4.1-2.6,8.4-2.6,12.8
			S12.5,63,14.2,67L10.8,68.5z"/>
		<path class="st25" d="M78.4,68.5L75,67c1.7-4.1,2.6-8.4,2.6-12.8c0-4.5-0.9-8.8-2.6-12.8c-0.6-1.5-1.4-2.9-2.2-4.3l3.1-1.9
			c0.9,1.5,1.7,3.1,2.4,4.8c1.9,4.5,2.9,9.3,2.9,14.3C81.2,59.2,80.3,64,78.4,68.5z"/>
		<path class="st25" d="M44.6,54.2"/>
	</g>
</g>
<g id="Fewer_Missed_Apts." class="st0">
	<g class="st1">
		<path class="st26" d="M60.9,18.3h9.8c2.7,0,4.9,2.2,4.9,4.9v41.7c0,2.7-2.2,4.9-4.9,4.9H19.2c-2.7,0-4.9-2.2-4.9-4.9V23.2
			c0-2.7,2.2-4.9,4.9-4.9h9.8"/>
		<line class="st26" x1="34" y1="18.3" x2="56" y2="18.3"/>
		<line class="st26" x1="14.3" y1="30.6" x2="70.7" y2="30.6"/>
		<path class="st26" d="M34,23.2c0,1.4-1.1,2.5-2.5,2.5c-1.4,0-2.5-1.1-2.5-2.5v-7.4c0-1.4,1.1-2.5,2.5-2.5c1.4,0,2.5,1.1,2.5,2.5
			V23.2z"/>
		<path class="st26" d="M60.9,23.2c0,1.4-1.1,2.5-2.5,2.5c-1.4,0-2.5-1.1-2.5-2.5v-7.4c0-1.4,1.1-2.5,2.5-2.5c1.4,0,2.5,1.1,2.5,2.5
			V23.2z"/>
		<line class="st26" x1="24.1" y1="40.4" x2="29.1" y2="40.4"/>
		<line class="st26" x1="36.4" y1="40.4" x2="41.3" y2="40.4"/>
		<line class="st26" x1="48.7" y1="40.4" x2="53.6" y2="40.4"/>
		<line class="st26" x1="60.9" y1="40.4" x2="65.8" y2="40.4"/>
		<line class="st26" x1="24.1" y1="50.2" x2="29.1" y2="50.2"/>
		<line class="st26" x1="36.4" y1="50.2" x2="41.3" y2="50.2"/>
		<line class="st26" x1="48.7" y1="50.2" x2="53.6" y2="50.2"/>
		<line class="st26" x1="60.9" y1="50.2" x2="65.8" y2="50.2"/>
		<line class="st26" x1="24.1" y1="60" x2="29.1" y2="60"/>
		<line class="st26" x1="36.4" y1="60" x2="41.3" y2="60"/>
		<line class="st26" x1="48.7" y1="60" x2="53.6" y2="60"/>
	</g>
</g>
<g id="Virtual_Care_1_" class="st0">
	<g class="st1">
		<g>
			<path class="st27" d="M58.9,46.6c-0.6,0-1.1-0.5-1.1-1.1v-1.4c0-0.6,0.5-1.1,1.1-1.1c0.6,0,1.1,0.5,1.1,1.1v1.4
				C60.1,46.1,59.6,46.6,58.9,46.6z"/>
		</g>
		<g>
			<path class="st27" d="M55.6,64.3h-20c-2.4,0-4.4-2-4.4-4.4V15.5c0-2.4,2-4.4,4.4-4.4h20c2.4,0,4.4,2,4.4,4.4v22.2
				c0,0.6-0.5,1.1-1.1,1.1c-0.6,0-1.1-0.5-1.1-1.1V15.5c0-1.2-1-2.2-2.2-2.2h-20c-1.2,0-2.2,1-2.2,2.2v44.4c0,1.2,1,2.2,2.2,2.2h20
				c1.2,0,2.2-1,2.2-2.2v-0.2c0-0.6,0.5-1.1,1.1-1.1c0.6,0,1.1,0.5,1.1,1.1v0.2C60.1,62.3,58.1,64.3,55.6,64.3z"/>
		</g>
		<g>
			<path class="st27" d="M58.9,54.4c-0.6,0-1.1-0.5-1.1-1.1v-1.4c0-0.6,0.5-1.1,1.1-1.1c0.6,0,1.1,0.5,1.1,1.1v1.4
				C60.1,53.9,59.6,54.4,58.9,54.4z"/>
		</g>
		<g>
			<path class="st27" d="M52.3,59.9H35.7c-2.4,0-4.4-2-4.4-4.4c0-0.6,0.5-1.1,1.1-1.1c0.6,0,1.1,0.5,1.1,1.1c0,1.2,1,2.2,2.2,2.2
				h16.6c0.6,0,1.1,0.5,1.1,1.1S52.9,59.9,52.3,59.9z"/>
		</g>
		<g>
			<path class="st27" d="M47.9,17.7h-4.4c-0.6,0-1.1-0.5-1.1-1.1c0-0.6,0.5-1.1,1.1-1.1h4.4c0.6,0,1.1,0.5,1.1,1.1
				C49,17.2,48.5,17.7,47.9,17.7z"/>
		</g>
		<g>
			<path class="st27" d="M39,73.2c-0.3,0-0.6-0.1-0.8-0.3c-0.4-0.4-0.4-1.1,0-1.6l3.8-3.8c0.5-0.5,1.1-0.9,1.8-1.2l2.7-1.1
				c0.2-0.1,0.4-0.2,0.6-0.3l3.6-2.5c0.5-0.4,1.2-0.2,1.5,0.3c0.4,0.5,0.2,1.2-0.3,1.5l-3.6,2.5c-0.3,0.2-0.7,0.4-1,0.6l-2.7,1.1
				c-0.4,0.2-0.8,0.4-1.1,0.7l-3.8,3.8C39.5,73.1,39.3,73.2,39,73.2z"/>
		</g>
		<g>
			<g>
				<path class="st27" d="M58.9,46.6c-0.6,0-1.1-0.5-1.1-1.1v-1.4c0-0.6,0.5-1.1,1.1-1.1c0.6,0,1.1,0.5,1.1,1.1v1.4
					C60.1,46.1,59.6,46.6,58.9,46.6z"/>
			</g>
			<g>
				<path class="st27" d="M58.9,54.4c-0.6,0-1.1-0.5-1.1-1.1v-1.4c0-0.6,0.5-1.1,1.1-1.1c0.6,0,1.1,0.5,1.1,1.1v1.4
					C60.1,53.9,59.6,54.4,58.9,54.4z"/>
			</g>
			<g>
				<path class="st27" d="M59.8,61c-1,0-2-0.4-2.8-1.2l-0.4-0.4c-1.4-1.5-1.4-3.8,0-5.3l2.1-2.2c0.7-0.7,1.6-1.1,2.6-1.1
					c1,0,1.9,0.4,2.6,1.1l0.5,0.6c0.7,0.7,1.1,1.7,1.1,2.7c0,1-0.4,1.9-1.1,2.7l-2,2C61.9,60.5,60.9,61,59.8,61z M61.4,53
					c-0.4,0-0.7,0.2-1,0.4l-2.1,2.2c-0.6,0.6-0.6,1.6,0,2.2l0.4,0.4c0.3,0.3,0.7,0.5,1.2,0.5c0.4,0,0.8-0.2,1.2-0.5l2-2
					c0.3-0.3,0.4-0.7,0.4-1.1c0-0.4-0.2-0.8-0.4-1.1l-0.5-0.6C62.1,53.1,61.8,53,61.4,53z"/>
			</g>
			<g>
				<path class="st27" d="M59.8,53.2c-1,0-2-0.4-2.8-1.2l-0.4-0.4c-0.7-0.7-1.1-1.7-1.1-2.7c0-1,0.4-1.9,1.1-2.7l2.1-2.2
					c0.7-0.7,1.6-1.1,2.6-1.1c1,0,1.9,0.4,2.6,1.1l0.5,0.6c1.4,1.5,1.4,3.8,0,5.3l-2,2C61.9,52.7,60.9,53.2,59.8,53.2z M61.4,45.2
					c-0.4,0-0.7,0.2-1,0.4l-2.1,2.2c-0.3,0.3-0.4,0.7-0.4,1.1c0,0.4,0.2,0.8,0.4,1.1l0.4,0.4c0.3,0.3,0.7,0.5,1.2,0.5
					c0.4,0,0.8-0.2,1.2-0.5l2-2c0.6-0.6,0.6-1.6,0-2.2l-0.5-0.6C62.1,45.3,61.8,45.2,61.4,45.2z"/>
			</g>
			<g>
				<path class="st27" d="M59.8,45.3c-1,0-2-0.4-2.8-1.2l-0.4-0.4c-0.7-0.7-1.1-1.7-1.1-2.7c0-1,0.4-1.9,1.1-2.7l2.1-2.2
					c0.7-0.7,1.6-1.1,2.6-1.1c1,0,1.9,0.4,2.6,1.1l0.5,0.6c1.4,1.5,1.4,3.8,0,5.3l-2,2C61.9,44.9,60.9,45.3,59.8,45.3z M61.4,37.4
					c-0.4,0-0.7,0.2-1,0.4L58.3,40c-0.3,0.3-0.4,0.7-0.4,1.1c0,0.4,0.2,0.8,0.4,1.1l0.4,0.4c0.3,0.3,0.7,0.5,1.2,0.5
					s0.8-0.2,1.2-0.5l2-2c0.6-0.6,0.6-1.6,0-2.2l-0.5-0.6C62.1,37.5,61.8,37.4,61.4,37.4z"/>
			</g>
			<g>
				<path class="st27" d="M57.3,40.5c-0.3,0-0.6-0.1-0.8-0.3c-0.4-0.4-0.5-1.1,0-1.6l1.6-1.6c0,0,0.1-0.1,0.1-0.1l0.7-0.7l5.2-5.4
					c0.4-0.4,0.5-0.9,0.5-1.3c0-0.5-0.2-0.9-0.5-1.3c-0.4-0.4-0.9-0.6-1.4-0.6c-0.5,0-1,0.2-1.4,0.6l-1.5,1.5
					c-0.4,0.4-1.1,0.5-1.6,0c-0.4-0.4-0.5-1.1,0-1.6l1.5-1.5c0.8-0.8,1.9-1.3,3-1.3c1.1,0,2.2,0.5,3,1.3c0.7,0.7,1.1,1.7,1.1,2.8
					c0,1.1-0.4,2.1-1.1,2.8l-5.8,6c0,0-0.1,0.1-0.1,0.1l-1.6,1.7C57.9,40.4,57.6,40.5,57.3,40.5z"/>
			</g>
		</g>
		<g>
			<path class="st27" d="M19,73.2c-0.3,0-0.5-0.1-0.7-0.3c-0.5-0.4-0.5-1.1-0.1-1.6l3.5-4c1.9-2.2,2.9-5,2.9-7.9v-11
				c0-2.8,0.5-5.6,1.6-8.2c0.4-1.1,0.6-2.2,0.6-3.3V30L26,24.4c-0.1-0.8,0.1-1.7,0.7-2.4c0.6-0.7,1.4-1,2.2-1c1.6,0,3.2,0.7,4.2,1.9
				c0.4,0.5,0.3,1.2-0.1,1.6c-0.5,0.4-1.2,0.3-1.6-0.1c-0.6-0.7-1.6-1.2-2.6-1.2c-0.2,0-0.4,0.1-0.6,0.3c-0.1,0.2-0.2,0.4-0.2,0.6
				l0.8,5.6c0,0.1,0,0.1,0,0.2v6.9c0,1.4-0.3,2.8-0.8,4.1c-0.9,2.4-1.4,4.9-1.4,7.4v11c0,3.4-1.2,6.8-3.5,9.4l-3.5,4
				C19.6,73,19.3,73.2,19,73.2z"/>
		</g>
	</g>
</g>
<g id="Remote_Patient_Monitoring" class="st0">
	<g class="st1">
		<path class="st28" d="M25.4,40.4L15,53.2c-1.1,1.2-0.9,2.8-0.9,3.8l0.6,12.6c0.1,1.2,0.3,1.7,1.5,1.9l5.7,1.1
			c0.8,0.2,1.6,0.4,2.3-0.5c1-1.4,3.1-4.1,3.5-4.7c0.5-0.7,1.1-2.5,2.5-6.8c0.9-2.6,3.9-9.9,3.9-9.9c0.3-1.2-0.3-2.7-2.1-3.4
			c-1.2-0.5-2.9-0.2-3.8,1.3l-5.1,8.5"/>
		<path class="st28" d="M63.7,40.4l10.4,12.8c1.1,1.2,0.9,2.8,0.9,3.8l-0.6,12.6c-0.1,1.2-0.3,1.7-1.5,1.9l-5.7,1.1
			c-0.8,0.2-1.6,0.4-2.3-0.5c-1-1.4-3.1-4.1-3.5-4.7c-0.5-0.7-1.1-2.5-2.5-6.8C58,58,55,50.7,55,50.7c-0.3-1.2,0.3-2.7,2.1-3.4
			c1.2-0.5,2.9-0.2,3.8,1.3l5.1,8.5"/>
		<line class="st29" x1="59.5" y1="62.4" x2="29.6" y2="62.4"/>
		<path class="st29" d="M25.4,53.3V15.7c0-1.2,0.9-2.1,2.1-2.1h34.1c1.2,0,2.1,0.9,2.1,2.1v37.6"/>
		<path class="st30" d="M44.6,23.1c-3.1,0-5.7,2.5-5.7,5.7s2.5,5.7,5.7,5.7c3.1,0,5.7-2.5,5.7-5.7S47.7,23.1,44.6,23.1z"/>
		<path class="st30" d="M54.3,44.6c0-3.5-2.6-5.9-6.3-6.8l-3.5,2.8L41,37.8c-3.7,0.9-6.3,3.3-6.3,6.8"/>
		<line class="st29" x1="25.4" y1="18.7" x2="63.7" y2="18.7"/>
		<line class="st29" x1="32.3" y1="55.3" x2="56.8" y2="55.3"/>
	</g>
</g>
<g id="Virtual_Care" class="st0">
	<g class="st1">
		<path class="st30" d="M23.9,51.2c1.5,3.1,3.9,8.1,5.3,11c1,2.1,2.7,3.3,4.8,3.3h14.5c2.8,0,4.5-1.4,4.5-3.9c0-2.1-1-3.3-2.5-3.7
			l-12.7-1.3l-5.1-12c-2.1-5.1-5.8-7.4-9.8-7.4c-5.5,0-9.6,3.2-10.8,10.5L9.9,64.1h16.7"/>
		<path class="st30" d="M18,24c0,5.5,4.4,9.9,9.9,9.9c5.5,0,9.9-4.4,9.9-9.9c0-5.5-4.4-9.9-9.9-9.9C22.4,14.1,18,18.5,18,24z"/>
		<polygon class="st30" points="77.2,53.9 46.2,46.7 46.2,21 77.2,27.3 		"/>
		<polyline class="st30" points="43.2,57 40.2,56.3 49.4,52.1 73.6,57.9 64.4,62.1 52.5,59.3 		"/>
		<line class="st30" x1="57" y1="49.2" x2="57" y2="53.9"/>
		<line class="st30" x1="63" y1="50.6" x2="63" y2="55.4"/>
		<path class="st30" d="M68.5,48.2c0-3-2.1-5.5-5-6.8L61,43.5l-2.5-3.3c-2.9,0.1-5,1.6-5,4.6"/>
		<path class="st30" d="M65.6,34c0-2.7-2-5.4-4.6-6c-2.5-0.6-4.6,1.2-4.6,4c0,2.7,2,5.4,4.6,6C63.5,38.5,65.6,36.7,65.6,34z"/>
	</g>
</g>
<g id="Questionaires" class="st0">
	<g class="st1">
		<g>
			<g>
				<g>
					<g>
						<path class="st5" d="M71.7,59.1H48.6V57h23.1c1,0,1.9-0.8,1.9-1.9V25c0-1-0.8-1.9-1.9-1.9H29.9c-1,0-1.9,0.8-1.9,1.9v2.8h-2.1
							V25c0-2.2,1.8-4,4-4h41.8c2.2,0,4,1.8,4,4v30.1C75.7,57.3,73.9,59.1,71.7,59.1z"/>
					</g>
					<g>
						<rect x="44" y="49.4" class="st5" width="30.7" height="2.1"/>
					</g>
					<g>
						<g>
							<rect x="56.4" y="58" class="st5" width="2.1" height="8.7"/>
						</g>
					</g>
				</g>
			</g>
		</g>
		<g>
			<g>
				<path class="st5" d="M9.4,68.4l-2.1-0.3l1.4-8.8c0.5-3,2.6-5.6,5.3-6.5l0.9-0.3c7.8-2.7,16.4-2.6,24.2,0l1,0.3
					c2.7,0.9,4.8,3.5,5.3,6.5l1.4,8.7l-2.1,0.3l-1.4-8.7c-0.3-2.2-1.9-4.2-3.8-4.8l-1-0.3C31,52,22.9,52,15.5,54.5l-0.9,0.3
					c-2,0.7-3.5,2.6-3.8,4.8L9.4,68.4z"/>
			</g>
			<g>
				<path class="st5" d="M26.7,48c-4.2,0-7.9-3-8.7-7.2l-0.2-1c-0.5-2.6,0.2-5.3,1.9-7.3c1.7-2,4.2-3.2,6.8-3.2h0.4
					c2.7,0,5.1,1.2,6.8,3.2c1.7,2,2.4,4.7,1.9,7.3l-0.2,1C34.6,45,31,48,26.7,48z M26.5,31.4c-2,0-3.9,0.9-5.2,2.4
					c-1.3,1.6-1.8,3.6-1.4,5.5l0.2,1c0.6,3.1,3.4,5.4,6.6,5.4c3.2,0,6-2.3,6.6-5.4l0.2-1c0.4-2-0.1-4-1.4-5.5
					c-1.3-1.6-3.2-2.4-5.2-2.4H26.5z"/>
			</g>
		</g>
		<g>
			<path class="st5" d="M38.9,68.2h-2.1v-4.8c0-2.6-2.1-4.7-4.7-4.7H21.8c-2.6,0-4.7,2.1-4.7,4.7v4.8H15v-4.8c0-3.8,3.1-6.8,6.8-6.8
				h10.4c3.8,0,6.8,3.1,6.8,6.8V68.2z"/>
		</g>
		<g>
			<rect x="44.8" y="65.6" class="st5" width="36.4" height="2.1"/>
		</g>
		<g>
			<polygon class="st5" points="42.3,36.7 38.6,32.9 40.1,31.4 42.3,33.6 47.1,28.9 48.6,30.4 			"/>
		</g>
		<g>
			<rect x="53" y="29.2" class="st5" width="15.1" height="2.1"/>
		</g>
		<g>
			<rect x="49" y="35.5" class="st5" width="19.1" height="2.1"/>
		</g>
		<g>
			<rect x="58" y="41.9" class="st5" width="10.1" height="2.1"/>
		</g>
	</g>
</g>
<g id="Secure_Messaging" class="st0">
	<g class="st1">
		<path class="st30" d="M41.9,22.5c-8.2,0-14.6,0.9-18.8,1.9l0,13.3C23,53.9,35.2,61,41.9,63.6V22.5z"/>
		<path class="st28" d="M73.6,60.6c0,7-5.6,12.6-12.6,12.6c-7,0-12.6-5.6-12.6-12.6C48.4,53.6,54,48,61,48
			C67.9,48,73.6,53.6,73.6,60.6z"/>
		<polyline class="st28" points="67.2,55.9 59.6,66.2 54,61.8 		"/>
		<path class="st30" d="M51,68.3c-3.8,2.3-7.2,3.6-9,4.2c-5.6-1.7-27.4-9.7-27.4-34.6l0-19.5c5.9-2.2,13.9-4.2,26.8-4.2
			c10.4,0,19.7,1.4,27.9,4.2l0,19.4c0,4.5-0.8,8.4-2,11.9"/>
	</g>
	<path class="st31" d="M49.8,31.7c-2.9-0.7-3.3-2.8-3.3-4c0-3.9,4.4-7,9.8-7c3.3,0,6.3,1.2,8.2,3.1c1.1,1.2,1.7,2.5,1.6,3.9
		c-0.1,5.3-8.8,8.3-12,9.2c0.3-0.6,0.5-1.3,0.3-2.1C54,33.3,52.5,32.3,49.8,31.7z"/>
	<rect x="53.1" y="27.6" class="st32" width="6.9" height="0.8"/>
	<rect x="53.1" y="25.6" class="st32" width="6.9" height="0.8"/>
</g>
<g id="Clinicians" class="st0">
	<g class="st1">
		<g>
			<g>
				<path class="st33" d="M44.7,42.1L44.7,42.1c-3.1,0-5.9-1.7-7.3-4.4l-3.5-7l0,0c-1.2,0-2.2-1.3-2.2-2.4v-2.4
					c0-0.4,0.3-0.7,0.8-0.7l1,0.8v-6.8c0-1.4,0.4-2.7,1.1-3.9c1.4-2.1,4.2-4.8,10.1-4.8c6.4,0,9.2,3.1,10.4,5.2
					c0.6,1,0.8,2.2,0.8,3.3V26l1.1-0.8c0.4,0,0.8,0.3,0.8,0.8v2.7c0,1-1,2.1-2.3,2.1l0,0l-3.5,7C50.6,40.4,47.8,42.1,44.7,42.1
					L44.7,42.1"/>
				<path class="st33" d="M26.5,46.9c0,0-1.6,4.2-0.2,9.3"/>
				<path class="st33" d="M23.5,66l-0.9-5.3c-0.4-2.2,1.3-4.3,3.7-4.7l0,0c2.4-0.4,4.7,1,5.1,3.2l0.9,5.3"/>
				<path class="st33" d="M61.1,45.9c0,0,1.9,5.1,0.3,11.3"/>
				<path class="st33" d="M57.8,59.7c0-1.6,1.3-2.9,2.9-2.9c1.6,0,2.9,1.3,2.9,2.9c0,1.6-1.3,2.9-2.9,2.9
					C59.1,62.6,57.8,61.3,57.8,59.7z"/>
				<path class="st33" d="M33.5,21.3c0,0,11.2,6.1,17.2-5c0,0,1.1,5.3,5.2,3.3"/>
				<line class="st33" x1="37.3" y1="45.2" x2="37.8" y2="38"/>
				<line class="st33" x1="52.1" y1="45.4" x2="51.6" y2="38"/>
				<polyline class="st33" points="64.6,73.2 64.6,69.6 55.7,69.6 55.7,73.2 				"/>
				<path class="st33" d="M21.4,68.5c0-1.5,1.2-2.7,2.7-2.7c1.5,0,2.7,1.2,2.7,2.7c0,1.5-1.2,2.7-2.7,2.7
					C22.6,71.1,21.4,69.9,21.4,68.5z"/>
				<path class="st33" d="M30.6,67.3c0-1.5,1.2-2.7,2.7-2.7c1.5,0,2.7,1.2,2.7,2.7S34.7,70,33.3,70C31.8,70,30.6,68.8,30.6,67.3z"/>
			</g>
			<path class="st33" d="M44.7,73.2v-7.9c0-8.1-3.2-15.9-8.8-21.6l-0.1-0.1c-0.7-0.7-1.9-0.9-2.7-0.2c-1.5,1.1-4.5,3-10,5
				c-3.2,1.2-5.7,3.8-6.6,7.1l0,0c-0.5,2-0.9,4-1,6l-0.6,11.8"/>
			<path class="st33" d="M74.6,73.2L74,61.5c-0.1-2-0.4-4-1-6l0,0c-0.9-3.3-3.4-5.9-6.6-7.1c-5.5-2-8.4-3.8-10-5
				c-0.8-0.6-2-0.5-2.7,0.2l-3,3.1c-3.8,3.9-6,9.1-6,14.6v12"/>
		</g>
		<path class="st33" d="M49.4,73.2c0-11.7,0.6-19.9,6.5-23.7l0.6-6.2"/>
		<path class="st33" d="M39.9,73.2c0-11.7-0.6-19.9-6.4-23.7l-0.6-6.2"/>
	</g>
</g>
<g id="Healthcare" class="st0">
	<g class="st1">
		<line class="st34" x1="46.5" y1="21.1" x2="38.8" y2="21.1"/>
		<line class="st34" x1="42.7" y1="24.9" x2="42.7" y2="17.3"/>
		<polyline class="st34" points="19.5,82.6 19.5,64.8 65.8,64.8 65.8,82.6 		"/>
		<rect x="24.7" y="11.1" class="st34" width="35.9" height="53.7"/>
		<polyline class="st34" points="24.7,82.6 6.8,82.6 6.8,21.1 24.7,21.1 24.7,62.5 		"/>
		<polyline class="st34" points="60.6,62.5 60.6,21.1 78.6,21.1 78.6,82.6 60.6,82.6 		"/>
		<line class="st34" x1="2.7" y1="82.6" x2="82.8" y2="82.6"/>
		<rect x="36.9" y="70.5" class="st34" width="11.5" height="12.2"/>
		<g>
			<polyline class="st34" points="38.7,54.9 32.2,54.9 32.2,47.9 			"/>
			<polyline class="st34" points="53.2,54.9 46.2,54.9 46.2,48.3 			"/>
		</g>
		<g>
			<polyline class="st34" points="38.7,38 32.2,38 32.2,31 			"/>
			<polyline class="st34" points="53.2,38 46.2,38 46.2,31.4 			"/>
		</g>
		<polyline class="st34" points="19,38 12.5,38 12.5,31 		"/>
		<polyline class="st34" points="19,54.9 12.5,54.9 12.5,47.9 		"/>
		<polyline class="st34" points="67.1,31.4 67.1,38 74.1,38 		"/>
		<polyline class="st34" points="67.1,48.1 67.1,54.7 74.1,54.7 		"/>
	</g>
</g>
<g id="Layer_23" class="st0">
	<g class="st1">
		<rect x="34.9" y="47.7" class="st5" width="18.3" height="5"/>
		<rect x="34.9" y="38.7" class="st5" width="18.3" height="5"/>
		<path class="st5" d="M79.3,72.2v-28c0-1.8-1.5-3.2-3.2-3.2h-7.6V22.6c0-1.8-1.5-3.2-3.2-3.2h-7.1c-0.8-7-6.7-12.5-14-12.5
			c-7.2,0-13.2,5.4-14,12.5H23c-1.8,0-3.2,1.4-3.2,3.2v18.3h-7.6c-1.8,0-3.2,1.4-3.2,3.2v28H3.1v6.5h9H23h42.2h10.9h9v-6.5H79.3z
			 M19.8,72.2h-4.4V47.4h4.4V72.2z M37,19h5.1v-5.1h4V19h5.1v4h-5.1v5.1h-4V23H37V19z M62,72.2H50.6V60.8H37.6v11.4H26.2V25.8h4.7
			c2,5.4,7.1,9.2,13.2,9.2c6.1,0,11.2-3.8,13.2-9.2H62V72.2z M72.8,72.2h-4.4V47.4h4.4V72.2z"/>
	</g>
</g>
<g id="Layer_24">
	<g>
		<path class="st35" d="M12.1,66.3c0-8,8.8-14.5,15.6-15.8l-2.8,15l6.3-0.3l1.4,15.6H35c2.2-4.5,4.8-10.4,6.2-13.1
			c-5.4-9.6-8-16.3-8.7-18.2c0.4-0.3,2.1-0.9,2.9-1.1c0.2-2.6,0.2-4.9-0.1-7.7c-5.4-7.8-5-17.4-3.4-21.4c3.8,2.4,10.7,4.8,21.1,2.2
			c0,0-4-1.4-5.7-4.6c0,0,3.5-0.9,7.4,1.6c1.8,4.2,2.8,14.4-3.1,22.3c-0.3,2.8-0.4,5-0.1,7.5c0.6,0.2,1.7,0.6,2.8,1L38.7,80.8h12.5
			l4.9-15.6l6.3,0.3l-1.6-14.3c0,0,0,0,0.1,0c7.9,1.9,13.8,8.4,13.8,15.1l0,14.5h4V66.3c0-7.9-6.4-15.6-15.1-18.4
			c-4.3-6.3,0.8-14.1,0.5-25.7c0-11.5-9.3-20.8-20.8-20.8c-11.5,0-20.8,9.3-20.8,20.8c-0.3,11.5,4.4,19.2,0.5,25.6
			c-7.3,2.9-15,9.9-15,18.6v14.5h4V66.3z"/>
	</g>
	<path class="st33" d="M57.5,19.1c0,15.5-6.3,22.2-9.9,24.8c-1.3,0.9-2.8,1.4-4.4,1.4h0c-1.4,0-2.9-0.4-4.1-1.2
		c-3.3-2.3-9-8.5-9.9-25c0,0,10.2,0.2,21-12.6c0,0,1.8,11.7,7.3,11.9V19.1z"/>
</g>
<g id="Patients">
	<g>
		<g>
			<polyline class="st33" points="-76.2,50.6 -86.6,71.1 -97.9,51.3 			"/>
			<path class="st33" d="M-93,45.6c-0.7,2.5-2.5,4.6-4.9,5.7l-10.1,3.4c-3.2,1.3-5.2,4.4-5.2,7.9v15.2h53.5v-15c0-3.5-2.2-6.7-5.5-8
				l-10.9-4.2c-2.2-1-3.6-3.2-3.6-5.6"/>
			<g>
				<path class="st33" d="M-75.5,29.7c0,11.5-5.2,16.5-8.1,18.4c-1.1,0.7-2.3,1-3.6,1h0c-1.2,0-2.3-0.3-3.4-0.9
					c-2.7-1.7-7.4-6.4-8.1-18.6c0,0,8.4,0.2,17.2-9.4c0,0,1.5,8.7,6,8.8V29.7z"/>
				<path class="st33" d="M-94.1,48.3C-99,49.7-106,47-106,47s1.3-13.3,1.8-17.7c0.7-6.7,2-9.9,6.3-13.6c4.6-3.9,9.7-4.7,16.5-1.9
					c1.4,0.6,2.5,1.5,3.9,2c2.8,1,7.6,4.1,8.6,14.2l0.8,17c0,0-5.9,2.6-10.8,1.3"/>
			</g>
		</g>
	</g>
</g>
<g id="Layer_22" class="st0">
	<g class="st1">
		<path class="st5" d="M52.5,61.3L46,70.4l-0.6-2.8c0.5-0.4,1.3-1,1.3-3.2c0-1.5-1.3-1.8-2.9-1.8s-2.8,0.3-2.8,1.8
			c0,2.1,0.8,2.8,1.3,3.2l-0.6,2.8l-6.5-9.1c-8.1,6.3-15.4,0-15.4,17.9c0,4.5,15.1,6.2,24.1,6.2s24.1-1.7,24.1-6.2
			C67.9,61.3,60.6,67.6,52.5,61.3z M33.2,74.4c0.8,0,1.4,0.6,1.4,1.4s-0.6,1.4-1.4,1.4s-1.4-0.6-1.4-1.4S32.4,74.4,33.2,74.4z
			 M22.4,78.6c0.1-9.5,2-10.1,6.2-11.3c1-0.3,2-0.6,3.2-1c-0.8,2.1-0.7,4.4-0.4,6.2c-1.2,0.7-2,1.9-2,3.4c0,2.1,1.7,3.9,3.9,3.9
			s3.9-1.7,3.9-3.9c0-2-1.5-3.5-3.3-3.8c-0.3-2-0.3-4.5,1.1-6.5l7.6,10.6v6.7c-9.4-0.2-17.7-1.8-19.7-3.4
			C22.5,79.2,22.4,78.9,22.4,78.6z M65,79.3c-2,1.6-10.3,3.3-19.7,3.4v-6.7l7.8-11c0.7,0.8,1.2,2.2,1.4,3.5
			c-1.4,0.5-2.5,1.6-2.9,3.1l-1.1,3.7c-0.3,1-0.1,2,0.5,2.8c0.6,0.8,1.6,1.3,2.6,1.3h0.6c0.7,0,1.2-0.5,1.2-1.2
			c0-0.7-0.5-1.2-1.2-1.2h-0.6c-0.4,0-0.6-0.2-0.7-0.3c-0.2-0.2-0.2-0.5-0.1-0.7l1.1-3.7c0.3-0.9,1.1-1.6,2.1-1.6
			c1,0,1.8,0.6,2.1,1.6l1.1,3.7c0.1,0.2,0,0.5-0.1,0.7c-0.2,0.2-0.4,0.3-0.7,0.3h-0.6c-0.7,0-1.2,0.5-1.2,1.2c0,0.7,0.5,1.2,1.2,1.2
			h0.6c1,0,2-0.5,2.6-1.3c0.6-0.8,0.8-1.9,0.5-2.8l-1.1-3.7c-0.5-1.6-1.9-2.8-3.5-3.2c-0.1-0.7-0.2-1.4-0.4-2.1
			c0.9,0.3,1.8,0.6,2.6,0.8c4.1,1.2,6.1,1.8,6.2,11.3C65.3,78.9,65.2,79.2,65,79.3z M31.6,49.6c1.3,3.2,3.4,6,5.8,7.8
			c2.1,1.6,4.3,2.5,6.4,2.5c2.1,0,4.3-0.9,6.4-2.4c2.4-1.8,4.6-4.6,5.8-7.8c1.5-0.6,2.5-1.7,2.5-4.7c0-2-0.5-3.1-1.3-3.9l0-0.5
			c1.7-11.6-6.4-11.3-6.4-11.3s-2.6-2.7-8.1-2.7c-5.2,0-14.3,3.4-12.1,14.1l0,0.2c-0.9,0.7-1.6,1.9-1.6,4.1
			C29.1,47.8,30.1,49,31.6,49.6z M32.2,42.9c2.2-1.8,2.9-4.3,2.9-4.3c9.4,2.3,15.8-2,15.8-2s0.4,3.5,4.5,6.3c0.4,0.4,0.5,1.3,0.5,2
			c0,2-0.5,2.2-0.9,2.4c-0.6,0.2-1.1,0.7-1.3,1.4c-1.1,2.7-2.8,5-5,6.6c-1.7,1.2-3.4,1.9-4.8,1.9c-1.5,0-3.2-0.7-4.9-1.9
			c-2.1-1.6-3.9-4-4.9-6.6c-0.2-0.6-0.7-1.1-1.3-1.4c-0.4-0.2-0.9-0.4-0.9-2.4C31.7,43.9,31.9,43.2,32.2,42.9z"/>
		<path class="st5" d="M60.1,9.9h1.5v1.5c0,0.3,0.2,0.5,0.5,0.5H63c0.3,0,0.5-0.2,0.5-0.5V9.9h1.5c0.3,0,0.5-0.2,0.5-0.5V8.4
			c0-0.3-0.2-0.5-0.5-0.5h-1.5V6.4c0-0.3-0.2-0.5-0.5-0.5h-0.9c-0.3,0-0.5,0.2-0.5,0.5v1.5h-1.5c-0.3,0-0.5,0.2-0.5,0.5v0.9
			C59.6,9.6,59.8,9.9,60.1,9.9z M75.3,50.6H74c-0.4,0-0.7,0.3-0.7,0.7v2h-2c-0.4,0-0.7,0.3-0.7,0.7v1.3c0,0.4,0.3,0.7,0.7,0.7h2v2
			c0,0.4,0.3,0.7,0.7,0.7h1.3c0.4,0,0.7-0.3,0.7-0.7v-2h2c0.4,0,0.7-0.3,0.7-0.7V54c0-0.4-0.3-0.7-0.7-0.7h-2v-2
			C76,50.9,75.7,50.6,75.3,50.6z M71.3,41.8l-7.3,8.4c-0.7,0.8-2,0.8-2.7,0l-1-1.1c-0.4,0.8-1,1.5-1.8,2l0.7,0.8
			c0.8,1,2,1.6,3.3,1.6s2.6-0.6,3.4-1.6l5.8-6.6c2.3,1.3,4.5,1.9,6.3,2.3c4,1,5.9,1.5,5.9,10.8c0,0.3-0.1,0.5-0.3,0.7
			c-2.1,1.7-11.1,3.5-21.1,3.5c-0.1,0-0.2,0-0.3,0c1.8,0.6,3.3,1.4,4.6,2.6c8.8-0.4,19.8-2.3,19.8-6.1
			C86.7,41.3,79.4,48.1,71.3,41.8z M48.2,24.7c0.2-1.5,0.7-2.5,1.5-3.1c0.1-4.2,0.6-8.2,3.1-10.4L52,7.4C51.6,6,52.5,4.3,54,3.8
			c1.7-0.6,4.6-1.4,8.6-1.4c4,0,6.9,0.7,8.6,1.4c1.5,0.5,2.3,2.2,1.9,3.7l-0.6,3.4c2.4,2.7,3.1,6.7,3.3,10.9
			c0.8,0.7,1.3,1.9,1.3,3.8c0,1.7-0.4,2.8-1,3.6c0.3,4.1,1.1,6.7,3.5,8.8c0.6,0.5,0.4,1.4-0.3,1.7c-2.1,0.7-6.1,1.3-11.5-1.1
			c-1.7,1.1-3.5,1.7-5.2,1.7c-0.8,0-1.7-0.2-2.6-0.5c0.1-0.9,0.1-1.8,0.1-2.6c0.9,0.4,1.7,0.6,2.5,0.6c1.4,0,3.1-0.7,4.8-1.9
			c2.1-1.6,3.9-3.9,4.9-6.6c0.3-0.6,0.8-1.2,1.4-1.4c0.4-0.2,0.9-0.4,0.9-2.3c0-1.9-0.5-2.1-0.9-2.2l-0.1,0c-0.1,0-0.2-0.2-0.3-0.4
			c0,0,0,0,0,0c-1.6-3.5-4.8-3.2-8.4-3.9c-3.6-0.7-5.6-2.5-6.4-3.3c-0.2,0-0.4,0.1-0.5,0.1c-0.4,1.7-1.8,6.5-6.1,7.6l-0.1,0
			c-0.4,0.2-0.9,0.3-0.9,2.2c0,0.1,0,0.1,0,0.2C50,25.4,49.2,25,48.2,24.7z M74.5,21.1C74.5,21.1,74.5,21.1,74.5,21.1L74.5,21.1
			C74.5,21.1,74.5,21.1,74.5,21.1z M74.5,21.1C74.5,21,74.5,21,74.5,21.1L74.5,21.1C74.5,21,74.5,21,74.5,21.1z M54.6,6.8l1.3,6.8
			c1.5-0.4,3.9-0.9,6.7-0.9c2.8,0,5.2,0.5,6.6,0.9l1.2-6.6c0.1-0.3,0-0.5-0.2-0.6c-1.5-0.6-4.1-1.2-7.7-1.2c-3.6,0-6.2,0.7-7.7,1.2
			C54.7,6.4,54.6,6.6,54.6,6.8z"/>
		<path class="st5" d="M20.8,65.2C12,64.8,1,63,1,59.1c0-18.3,8.4-12.4,17.4-17.9c0,0,1.8,2.9,6.7,2.9c0.5,0,1,0,1.4-0.1
			c0,0.3-0.1,0.5-0.1,0.8c0,3.1,1,5.3,3.1,6.6c0.2,0.4,0.4,0.8,0.6,1.1l-4,9.8C24,63.1,22.2,63.9,20.8,65.2z M3.7,58.5
			c0,0.3,0.1,0.6,0.3,0.7c2.1,1.6,10.6,3.3,20.2,3.4l-7.1-17.4c-1,1.2-2.6,3.6-2.4,6.8c1.6,0.5,2.7,1.9,2.7,3.7
			c0,2.1-1.7,3.9-3.9,3.9s-3.9-1.7-3.9-3.9c0-1.7,1.1-3.1,2.6-3.6c-0.1-2.4,0.5-4.5,1.4-6c-0.8,0.2-1.6,0.4-2.3,0.6
			C6.3,47.8,3.8,48.4,3.7,58.5z M13.5,54.3c-0.8,0-1.4,0.6-1.4,1.4c0,0.8,0.6,1.4,1.4,1.4c0.8,0,1.4-0.6,1.4-1.4
			C15,54.9,14.3,54.3,13.5,54.3z M12.8,31c1.3,3.2,3.4,6,5.8,7.8c2.1,1.6,4.3,2.5,6.4,2.5c0.7,0,1.4-0.1,2.1-0.3
			c0.2-0.4,0.4-0.7,0.6-1c-0.1-0.7-0.1-1.3-0.2-1.9c-0.9,0.4-1.8,0.6-2.6,0.6c-1.5,0-3.2-0.7-4.8-1.9c-2.1-1.6-3.9-4-4.9-6.6
			c-0.3-0.6-0.8-1.2-1.4-1.4c-0.4-0.2-0.9-0.4-0.9-2.3c0-1.9,0.5-2.1,0.9-2.2l0.1,0c5.4-1.3,6.3-8.2,6.3-8.2c0,0,1.9,2.8,6.9,3.8
			c3.7,0.8,6.9,0.5,8.5,4c0,0,0,0,0,0c0.1,0.2,0.2,0.4,0.3,0.4l0.1,0c0.3,0.1,0.6,0.2,0.8,0.8c0.9-0.3,1.7-0.5,2.6-0.7
			c-0.2-0.8-0.6-1.4-1-1.8C38.2,16,36.9,10,29.9,8.3c-0.6-2.6-3-4.5-5.7-4.5c-3.3,0-5.9,2.7-5.9,5.9c0,0.1,0,0.2,0,0.3
			c-5.3,1.2-6.2,6.5-6.3,12.2c-0.9,0.7-1.6,1.9-1.6,4.1C10.3,29.2,11.4,30.4,12.8,31z"/>
	</g>
</g>
<g id="Layer_16" class="st0">
	<g class="st1">
		<path class="st36" d="M61.8,73.1H27.4c-1.1,0-2.1-0.9-2.1-2.1v-58c0-1.1,0.9-2.1,2.1-2.1h34.3c1.1,0,2.1,0.9,2.1,2.1v58
			C63.8,72.2,62.9,73.1,61.8,73.1z"/>
		<line class="st36" x1="63.8" y1="65.4" x2="25.4" y2="65.4"/>
		<line class="st36" x1="47.1" y1="69.2" x2="42" y2="69.2"/>
		<line class="st36" x1="47.7" y1="14.9" x2="41.5" y2="14.9"/>
		<line class="st36" x1="39.5" y1="14.9" x2="37.6" y2="14.9"/>
		<g>
			<g>
				<path class="st36" d="M40.1,36.5l1.3-1.3c0.5-0.5,0.6-1.3,0.2-1.7l-4-4c-0.4-0.4-1.2-0.3-1.7,0.2L33.6,32c0,0,0,0,0,0
					c-1.6,1.6-1.3,4.4,0.6,6.2L47,51.1c1.8,1.8,4.6,2.1,6.2,0.6c0,0,0,0,0,0l2.4-2.4c0.5-0.5,0.6-1.3,0.2-1.7l-4-4
					c-0.4-0.4-1.2-0.3-1.7,0.2l-1.3,1.3c-0.9,0.9-1.7,0.6-2.4-0.1l-6.2-6.2C39.5,38.1,39.2,37.3,40.1,36.5z"/>
			</g>
			<path class="st36" d="M44.3,34.5c3.6,0,6.4,2.9,6.4,6.4"/>
			<path class="st36" d="M44.3,31.9c5,0,9,4,9,9"/>
			<path class="st36" d="M44.3,29.4c6.4,0,11.6,5.2,11.6,11.6"/>
		</g>
	</g>
</g>
<g id="Layer_17" class="st0">
</g>
<g id="Layer_18" class="st0">
	<g class="st1">
		<g>
			<path class="st37" d="M67.4,29.7c-2.8,0-5-2.3-5-5s2.3-5,5-5c2.8,0,5,2.3,5,5S70.2,29.7,67.4,29.7z M67.4,20.6
				c-2.3,0-4.1,1.9-4.1,4.1c0,2.3,1.9,4.1,4.1,4.1c2.3,0,4.1-1.9,4.1-4.1C71.6,22.4,69.7,20.6,67.4,20.6z"/>
		</g>
		<g>
			<polygon class="st37" points="67.1,26.3 65.3,24.5 66,23.9 67.1,25 68.9,23.1 69.5,23.8 			"/>
		</g>
	</g>
	<g class="st1">
		<g>
			<polyline class="st30" points="42.3,45.5 34.2,61.7 25.3,46.1 			"/>
			<path class="st30" d="M29.1,41.6c-0.5,2-1.9,3.6-3.9,4.5l-8,2.6c-2.5,1.1-4.1,3.5-4.1,6.2v11.9h42V55.1c0-2.8-1.7-5.3-4.3-6.3
				l-8.6-3.3c-1.7-0.8-2.8-2.5-2.8-4.4"/>
			<g>
				<path class="st30" d="M42.9,29.1c0,9-4,13-6.4,14.5c-0.8,0.6-1.8,0.8-2.8,0.8h0c-0.9,0-1.8-0.2-2.6-0.7c-2.1-1.3-5.8-5-6.4-14.6
					c0,0,6.6,0.1,13.5-7.4c0,0,1.2,6.9,4.7,6.9V29.1z"/>
				<path class="st30" d="M28.3,43.8c-3.9,1-9.4-1.1-9.4-1.1s1.1-10.4,1.4-13.9c0.6-5.3,1.6-7.8,5-10.7c3.6-3.1,7.6-3.7,12.9-1.5
					c1.1,0.4,2,1.2,3.1,1.6c2.2,0.8,6,3.2,6.8,11.1l0.6,13.4c0,0-4.7,2-8.5,1"/>
			</g>
		</g>
	</g>
	<g class="st1">
		<g>
			<path class="st37" d="M68,45.6c-2.8,0-5-2.3-5-5c0-2.8,2.3-5,5-5c2.8,0,5,2.3,5,5C73,43.3,70.8,45.6,68,45.6z M68,36.4
				c-2.3,0-4.1,1.9-4.1,4.1c0,2.3,1.9,4.1,4.1,4.1c2.3,0,4.1-1.9,4.1-4.1C72.1,38.3,70.3,36.4,68,36.4z"/>
		</g>
		<g>
			<polygon class="st37" points="67.6,42.1 65.9,40.4 66.5,39.7 67.6,40.8 69.5,39 70.1,39.6 			"/>
		</g>
	</g>
	<g class="st1">
		<g>
			<path class="st37" d="M68,61.5c-2.8,0-5-2.3-5-5s2.3-5,5-5c2.8,0,5,2.3,5,5S70.8,61.5,68,61.5z M68,52.3c-2.3,0-4.1,1.9-4.1,4.1
				c0,2.3,1.9,4.1,4.1,4.1c2.3,0,4.1-1.9,4.1-4.1C72.1,54.2,70.3,52.3,68,52.3z"/>
		</g>
		<g>
			<polygon class="st37" points="67.6,58 65.9,56.3 66.5,55.6 67.6,56.7 69.5,54.9 70.1,55.5 			"/>
		</g>
	</g>
</g>
<g id="Layer_19" class="st0">
	<circle class="st38" cx="45" cy="42.1" r="29.9"/>
	<g class="st1">
		<g>
			<path class="st35" d="M60.1,33.2c-1.9,0-3.4-1.5-3.4-3.4s1.5-3.4,3.4-3.4c1.9,0,3.4,1.5,3.4,3.4S62,33.2,60.1,33.2z M60.1,27.1
				c-1.5,0-2.8,1.2-2.8,2.8c0,1.5,1.2,2.8,2.8,2.8c1.5,0,2.8-1.2,2.8-2.8C62.9,28.3,61.6,27.1,60.1,27.1z"/>
		</g>
		<g>
			<polygon class="st35" points="59.9,30.9 58.7,29.8 59.1,29.3 59.9,30 61.1,28.8 61.5,29.2 			"/>
		</g>
	</g>
	<g class="st1">
		<g>
			<polyline class="st39" points="43,42.1 38.2,51.5 33.1,42.5 			"/>
			<path class="st39" d="M35.3,39.9C35,41,34.2,42,33.1,42.5L28.5,44c-1.4,0.6-2.4,2-2.4,3.6v6.9h24.4v-6.9c0-1.6-1-3.1-2.5-3.7
				l-5-1.9c-1-0.5-1.7-1.5-1.7-2.6"/>
			<g>
				<path class="st39" d="M43.3,32.6c0,5.3-2.4,7.5-3.7,8.4c-0.5,0.3-1.1,0.5-1.6,0.5h0c-0.5,0-1.1-0.1-1.5-0.4
					c-1.2-0.8-3.4-2.9-3.7-8.5c0,0,3.8,0.1,7.9-4.3c0,0,0.7,4,2.7,4V32.6z"/>
				<path class="st39" d="M34.8,41.1c-2.2,0.6-5.4-0.6-5.4-0.6s0.6-6.1,0.8-8.1c0.3-3.1,0.9-4.5,2.9-6.2c2.1-1.8,4.4-2.2,7.5-0.9
					c0.6,0.3,1.2,0.7,1.8,0.9c1.3,0.4,3.5,1.9,3.9,6.5l0.4,7.8c0,0-2.7,1.2-4.9,0.6"/>
			</g>
		</g>
	</g>
	<g class="st1">
		<g>
			<path class="st35" d="M60.1,43.9c-1.9,0-3.4-1.5-3.4-3.4c0-1.9,1.5-3.4,3.4-3.4c1.9,0,3.4,1.5,3.4,3.4
				C63.4,42.3,61.9,43.9,60.1,43.9z M60.1,37.7c-1.5,0-2.8,1.2-2.8,2.8c0,1.5,1.2,2.8,2.8,2.8c1.5,0,2.8-1.2,2.8-2.8
				C62.8,38.9,61.6,37.7,60.1,37.7z"/>
		</g>
		<g>
			<polygon class="st35" points="59.8,41.5 58.6,40.4 59.1,39.9 59.8,40.7 61,39.4 61.5,39.9 			"/>
		</g>
	</g>
	<g class="st1">
		<g>
			<path class="st35" d="M60.1,54.5c-1.9,0-3.4-1.5-3.4-3.4c0-1.9,1.5-3.4,3.4-3.4c1.9,0,3.4,1.5,3.4,3.4
				C63.4,53,61.9,54.5,60.1,54.5z M60.1,48.4c-1.5,0-2.8,1.2-2.8,2.8c0,1.5,1.2,2.8,2.8,2.8c1.5,0,2.8-1.2,2.8-2.8
				C62.8,49.6,61.6,48.4,60.1,48.4z"/>
		</g>
		<g>
			<polygon class="st35" points="59.8,52.2 58.6,51 59.1,50.6 59.8,51.3 61,50.1 61.5,50.5 			"/>
		</g>
	</g>
</g>
<g id="Layer_20" class="st0">
	<circle class="st40" cx="44.9" cy="44.4" r="29.9"/>
	<polyline class="st41" points="51.6,40.9 45.2,49.7 40.4,45.9 	"/>
	<g class="st1">
		<path class="st42" d="M55,28.1h5.8c1.6,0,2.9,1.3,2.9,2.9v24.6c0,1.6-1.3,2.9-2.9,2.9H30.4c-1.6,0-2.9-1.3-2.9-2.9V31
			c0-1.6,1.3-2.9,2.9-2.9h5.8"/>
		<line class="st42" x1="39.1" y1="28.1" x2="52.1" y2="28.1"/>
		<line class="st42" x1="27.5" y1="35.3" x2="60.8" y2="35.3"/>
		<path class="st42" d="M39.1,31c0,0.8-0.6,1.4-1.4,1.4c-0.8,0-1.4-0.6-1.4-1.4v-4.3c0-0.8,0.6-1.4,1.4-1.4c0.8,0,1.4,0.6,1.4,1.4
			V31z"/>
		<path class="st42" d="M55,31c0,0.8-0.6,1.4-1.4,1.4c-0.8,0-1.4-0.6-1.4-1.4v-4.3c0-0.8,0.6-1.4,1.4-1.4c0.8,0,1.4,0.6,1.4,1.4V31z
			"/>
	</g>
</g>
<g id="Layer_21" class="st0">
	<circle class="st40" cx="45.4" cy="43.1" r="30.6"/>
	<circle class="st40" cx="45.4" cy="43.1" r="30.6"/>
	<g class="st1">
		<g>
			<path class="st43" d="M38.6,38.3l1.8-1.8c0.7-0.7,0.8-1.7,0.3-2.3l-5.4-5.4c-0.5-0.5-1.6-0.4-2.3,0.3l-3.2,3.2c0,0,0,0-0.1,0.1
				c-2.1,2.1-1.7,5.8,0.7,8.3l17.2,17.2c2.4,2.4,6.1,2.8,8.3,0.7c0,0,0,0,0.1-0.1l3.2-3.2c0.7-0.7,0.8-1.7,0.3-2.3l-5.4-5.4
				c-0.5-0.5-1.6-0.4-2.3,0.3l-1.8,1.8C49,51,47.9,50.7,47,49.8l-8.3-8.3C37.8,40.6,37.4,39.5,38.6,38.3z"/>
		</g>
		<path class="st43" d="M44.2,35.7c4.8,0,8.6,3.9,8.6,8.6"/>
		<path class="st43" d="M44.2,32.3c6.7,0,12,5.4,12,12"/>
		<path class="st43" d="M44.2,28.8c8.6,0,15.5,6.9,15.5,15.5"/>
	</g>
</g>
</svg>
