<?xml version="1.0" encoding="utf-8"?>
<!-- Generator: Adobe Illustrator 24.0.1, SVG Export Plug-In . SVG Version: 6.00 Build 0)  -->
<svg version="1.1" id="Layer_1" xmlns="http://www.w3.org/2000/svg" xmlns:xlink="http://www.w3.org/1999/xlink" x="0px" y="0px"
	 viewBox="0 0 37 35" style="enable-background:new 0 0 37 35;" xml:space="preserve">
<style type="text/css">
	.st0{fill:#37B673;}
	.st1{fill:#FFFFFF;}
</style>
<rect class="st0" width="37" height="35"/>
<g id="MEDITECH_1_">
	<polygon class="st1" points="26.9,12 18.9,22.6 18,22.6 10.1,11.9 10.1,29.8 5.5,29.8 5.5,5.2 10.8,5.2 18.5,15.8 26.2,5.2 
		31.5,5.2 31.5,29.8 26.9,29.8 	"/>
</g>
</svg>
