<?xml version="1.0" encoding="utf-8"?>
<!-- Generator: Adobe Illustrator 26.0.3, SVG Export Plug-In . SVG Version: 6.00 Build 0)  -->
<svg version="1.1" xmlns="http://www.w3.org/2000/svg" xmlns:xlink="http://www.w3.org/1999/xlink" x="0px" y="0px"
	 viewBox="0 0 442 218" style="enable-background:new 0 0 442 218;" xml:space="preserve">
<style type="text/css">
	.st0{fill:#FFFFFF;}
	.st1{fill:#34B673;}
	.st2{fill:url(#SVGID_1_);}
	.st3{fill:url(#SVGID_00000008132557285696204450000008952733025747508623_);}
</style>
<g id="Layer_1">
	<g>
		<g>
			<path class="st0" d="M256.5,92.7h4.6v27.9h17.3v4h-21.8V92.7z"/>
			<path class="st0" d="M288.9,92.7h4.6v31.9h-4.6V92.7z"/>
			<path class="st0" d="M336.3,92.7l-14,31.9h-4.5l-14-31.9h4.9l11.5,26.2l11.6-26.2H336.3z"/>
			<path class="st0" d="M369.9,120.6v4h-23.1V92.7h22.5v4h-17.9v9.8h16v3.9h-16v10.3H369.9z"/>
		</g>
		<g>
			<polygon class="st1" points="29.8,101.5 19.4,115.3 18.3,115.3 8.1,101.4 8.1,124.6 2.1,124.6 2.1,92.7 9,92.7 19,106.4 29,92.7 
				35.8,92.7 35.8,124.6 29.8,124.6 			"/>
			<polygon class="st1" points="65.5,124.5 41.6,124.5 41.6,92.7 65.5,92.7 65.5,98.5 47.6,98.5 47.6,105.8 64.8,105.8 64.8,111.4 
				47.6,111.4 47.6,118.6 65.5,118.6 			"/>
			<path class="st1" d="M99.7,108.3c0.1,8.1-4.8,16.2-15.9,16.2H71.3V92.7h12.5C94.7,92.7,99.6,100.5,99.7,108.3 M77.2,118.8h6.6
				c7.2,0,10.1-5.3,10-10.5c-0.1-5-3-9.9-10-9.9h-6.6V118.8z"/>
			<polygon class="st1" points="105.5,92.7 111.5,92.7 111.5,108.6 111.5,124.5 105.5,124.5 105.5,108.6 			"/>
			<polygon class="st1" points="127.4,98.2 117.3,98.2 117.3,92.7 143.5,92.7 143.5,98.2 133.4,98.2 133.4,124.5 127.4,124.5 			"/>
			<polygon class="st1" points="173.1,124.5 149.3,124.5 149.3,92.7 173.1,92.7 173.1,98.5 155.3,98.5 155.3,105.8 172.5,105.8 
				172.5,111.4 155.3,111.4 155.3,118.6 173.1,118.6 			"/>
			<path class="st1" d="M207.9,120.5c-3.3,3.2-7.5,4.7-12.1,4.7c-11.8,0-16.8-8.1-16.9-16.4c0-8.3,5.4-16.8,16.9-16.8
				c4.3,0,8.4,1.6,11.7,4.9l-4,3.9c-2.1-2-4.9-3-7.7-3c-7.7,0-11,5.7-11,11.1c0,5.3,3.1,10.8,11,10.8c2.8,0,5.9-1.1,8-3.2
				L207.9,120.5z"/>
			<polygon class="st1" points="235.4,124.6 235.4,111.7 219.7,111.7 219.7,124.6 213.7,124.6 213.7,92.7 219.7,92.7 219.7,106.2 
				235.4,106.2 235.4,92.7 241.4,92.7 241.4,124.6 			"/>
		</g>
		<g>
			<path class="st0" d="M408.9,118.6v5.9h-23.8v-4.7l12.1-11.5c2.8-2.7,3.3-4.3,3.3-5.8c0-2.5-1.7-3.9-5-3.9c-2.7,0-5,1-6.5,3.1
				l-5.3-3.4c2.4-3.6,6.8-5.8,12.5-5.8c7,0,11.7,3.6,11.7,9.3c0,3.1-0.9,5.8-5.3,9.9l-7.2,6.8H408.9z"/>
			<path class="st0" d="M439.9,118.6v5.9h-23.8v-4.7l12.1-11.5c2.8-2.7,3.3-4.3,3.3-5.8c0-2.5-1.7-3.9-5-3.9c-2.7,0-5,1-6.5,3.1
				l-5.3-3.4c2.4-3.6,6.8-5.8,12.5-5.8c7,0,11.7,3.6,11.7,9.3c0,3.1-0.9,5.8-5.3,9.9l-7.2,6.8H439.9z"/>
		</g>
	</g>
	<path class="st0" d="M254.8,157.5l-8.1-11.6c-20.3,14.2-48.4,9.1-62.6-11.2l-11.6,8.1c9,12.9,22.5,21.6,38.1,24.4
		C226.1,169.9,241.8,166.5,254.8,157.5z"/>
	<path class="st0" d="M187.2,60.5l8.1,11.6c20.3-14.2,48.4-9.1,62.6,11.2l11.6-8.1c-9-12.9-22.5-21.6-38.1-24.4
		C215.9,48.1,200.2,51.5,187.2,60.5z"/>
	
		<linearGradient id="SVGID_1_" gradientUnits="userSpaceOnUse" x1="220.0915" y1="81.0997" x2="324.1841" y2="81.0997" gradientTransform="matrix(0.9925 0.1223 -0.1223 0.9925 -26.9222 48.8778)">
		<stop  offset="0" style="stop-color:#00ACE4"/>
		<stop  offset="0.4074" style="stop-color:#1DBBB5"/>
		<stop  offset="0.9286" style="stop-color:#12DD81"/>
	</linearGradient>
	<path class="st2" d="M189.3,159.2l-10.1,16c8.9,5.6,18.7,9.3,29,11c10,1.6,20.1,1.3,30-0.9c9.9-2.2,19.1-6.3,27.4-12.1
		c8.6-6,15.8-13.5,21.4-22.5l-16-10.1C253.7,168.3,217,176.6,189.3,159.2z"/>
	
		<linearGradient id="SVGID_00000003796291762551551050000003476124448266413712_" gradientUnits="userSpaceOnUse" x1="182.6459" y1="-22.4173" x2="286.7387" y2="-22.4173" gradientTransform="matrix(0.9925 0.1223 -0.1223 0.9925 -26.9222 48.8778)">
		<stop  offset="7.936508e-03" style="stop-color:#AF1E4B"/>
		<stop  offset="0.4392" style="stop-color:#CD4699"/>
		<stop  offset="0.8386" style="stop-color:#E65B25"/>
	</linearGradient>
	<path style="fill:url(#SVGID_00000003796291762551551050000003476124448266413712_);" d="M252.7,58.8l10.1-16
		c-8.9-5.6-18.7-9.3-29-11c-10-1.6-20.1-1.3-30,0.9c-9.9,2.2-19.1,6.3-27.4,12.1c-8.6,6-15.8,13.5-21.4,22.5l16,10.1
		C188.3,49.7,225,41.4,252.7,58.8z"/>
	<path class="st0" d="M148.7,139.6l-26.2,11.1c5.6,13.3,13.7,25.1,24,35.1c9.9,9.6,21.5,17.1,34.4,22.4c12.9,5.2,26.4,7.8,40.2,7.8
		c14.3,0,28.3-2.9,41.6-8.5l-11.1-26.2C211.8,198.1,165.6,179.5,148.7,139.6z"/>
	<path class="st0" d="M293.3,78.4l26.2-11.1c-5.6-13.3-13.7-25.1-24-35.1c-9.9-9.6-21.5-17.1-34.4-22.4C248.3,4.6,234.7,2,220.9,2
		c-14.3,0-28.3,2.9-41.6,8.5l11.1,26.2C230.2,19.9,276.4,38.5,293.3,78.4z"/>
</g>
<g id="guides">
</g>
</svg>
