<?xml version="1.0" encoding="utf-8"?>
<!-- Generator: Adobe Illustrator 15.1.0, SVG Export Plug-In . SVG Version: 6.00 Build 0)  -->
<!DOCTYPE svg PUBLIC "-//W3C//DTD SVG 1.1//EN" "http://www.w3.org/Graphics/SVG/1.1/DTD/svg11.dtd">
<svg version="1.1" xmlns="http://www.w3.org/2000/svg" xmlns:xlink="http://www.w3.org/1999/xlink" x="0px" y="0px" width="200px"
	 height="200px" viewBox="0 0 200 200" enable-background="new 0 0 200 200" xml:space="preserve">
<g id="Layer_5" display="none">
</g>
<g id="Solutions">
	<g id="Improve_Outcomes" display="none">
		<circle display="inline" fill="#6AC4A9" cx="100" cy="100" r="97.25"/>
		<g display="inline">
			<g>
				<path fill="#3E4545" d="M63.32,131.945h9.281c1.364,0,2.479-0.896,2.479-1.992V118.07c0-1.096-1.114-1.992-2.479-1.992H63.32
					c-1.364,0-2.479,0.896-2.479,1.992v11.883C60.842,131.049,61.956,131.945,63.32,131.945z"/>
				<path fill="#3E4545" d="M84.681,131.945h9.28c1.364,0,2.479-0.896,2.479-1.992v-27.75c0-1.092-1.115-1.99-2.479-1.99h-9.28
					c-1.364,0-2.48,0.898-2.48,1.99v27.75C82.2,131.049,83.316,131.945,84.681,131.945z"/>
				<path fill="#3E4545" d="M106.039,131.945h9.282c1.361,0,2.479-0.896,2.479-1.992V86.338c0-1.093-1.118-1.99-2.479-1.99h-9.282
					c-1.362,0-2.479,0.897-2.479,1.99v43.615C103.56,131.049,104.677,131.945,106.039,131.945z"/>
				<path fill="#3E4545" d="M127.398,131.945h9.282c1.363,0,2.479-0.896,2.479-1.992V70.474c0-1.094-1.115-1.99-2.479-1.99h-9.282
					c-1.364,0-2.479,0.896-2.479,1.99v59.479C124.92,131.049,126.034,131.945,127.398,131.945z"/>
			</g>
			<path fill="#FFFFFF" d="M157.165,50.633H42.834c-4.646,0-8.412,4.467-8.412,9.974v78.79c0,5.508,3.767,9.971,8.412,9.971h114.331
				c4.644,0,8.413-4.463,8.413-9.971v-78.79C165.578,55.1,161.809,50.633,157.165,50.633z M42.675,109.746
				c0,1.143-0.93,2.072-2.073,2.072c-1.146,0-2.072-0.93-2.072-2.072V90.255c0-1.144,0.927-2.07,2.072-2.07
				c1.144,0,2.073,0.927,2.073,2.07V109.746z M152.93,141.934H47.072V58.066H152.93V141.934z"/>
			<ellipse fill="#6AC4A9" cx="159.404" cy="99.591" rx="3.534" ry="3.292"/>
		</g>
	</g>
	<g id="Be_Ready_from_the_Start" display="none">
		<circle display="inline" fill="#6AC4A9" cx="100" cy="100" r="97.25"/>
		<g display="inline">
			<path fill="#FFFFFF" d="M50.699,54.856h8.78v-7.907c0-2.563,2.077-4.639,4.64-4.639c2.561,0,4.638,2.076,4.638,4.639v19.945
				c0,2.562-2.078,4.638-4.638,4.638c-2.563,0-4.64-2.076-4.64-4.638v-3.69h-8.316v17.165h86.938V63.204h-9.09l0.046-8.348h9.509
				c4.346,0,7.887,3.54,7.887,7.884v39.572c-2.64-1.308-5.446-2.255-8.352-2.814V85.936H51.163v49.838h47.981
				c0.343,2.884,1.064,5.688,2.135,8.351h-50.58c-2.172,0-4.144-0.885-5.571-2.313c-1.429-1.428-2.313-3.4-2.313-5.571v-73.5
				C42.814,58.395,46.354,54.856,50.699,54.856L50.699,54.856z M96.135,66.847c0,2.561-2.076,4.638-4.638,4.638
				c-2.561,0-4.638-2.077-4.638-4.638v-3.643H74.278l0.045-8.348h12.537v-7.955c0-2.562,2.077-4.639,4.638-4.639
				c2.562,0,4.638,2.078,4.638,4.639V66.847L96.135,66.847z M123.491,66.895c0,2.562-2.076,4.638-4.64,4.638
				c-2.561,0-4.636-2.076-4.636-4.638v-3.69h-12.563l0.05-8.348h12.513v-7.907c0-2.563,2.075-4.639,4.636-4.639
				c2.563,0,4.64,2.076,4.64,4.639V66.895L123.491,66.895z"/>
			<g>
				<path fill="#3E4545" d="M71.33,106.501c0,0.967-0.783,1.748-1.75,1.748H58.482c-0.965,0-1.749-0.781-1.749-1.748v-9.546
					c0-0.965,0.783-1.748,1.749-1.748H69.58c0.966,0,1.75,0.783,1.75,1.748V106.501z"/>
				<path fill="#3E4545" d="M71.331,125.902c0,0.964-0.784,1.747-1.75,1.747H58.483c-0.967,0-1.75-0.783-1.75-1.747v-9.549
					c0-0.964,0.782-1.746,1.75-1.746H69.58c0.966,0,1.75,0.782,1.75,1.746V125.902z"/>
				<path fill="#3E4545" d="M91.73,106.501c0,0.967-0.783,1.748-1.748,1.748h-11.1c-0.965,0-1.749-0.781-1.749-1.748v-9.546
					c0-0.965,0.784-1.748,1.749-1.748h11.1c0.965,0,1.748,0.783,1.748,1.748V106.501z"/>
				<path fill="#3E4545" d="M91.73,125.902c0,0.964-0.783,1.747-1.748,1.747H78.885c-0.969,0-1.751-0.783-1.751-1.747v-9.549
					c0-0.964,0.782-1.746,1.751-1.746h11.098c0.965,0,1.748,0.782,1.748,1.746V125.902z"/>
				<path fill="#3E4545" d="M112.131,106.501c0,0.967-0.782,1.748-1.747,1.748h-11.1c-0.965,0-1.747-0.781-1.747-1.748v-9.546
					c0-0.965,0.782-1.748,1.747-1.748h11.1c0.965,0,1.747,0.783,1.747,1.748V106.501z"/>
				<path fill="#3E4545" d="M132.534,106.501c0,0.967-0.785,1.748-1.748,1.748h-11.1c-0.966,0-1.751-0.781-1.751-1.748v-9.546
					c0-0.965,0.785-1.748,1.751-1.748h11.1c0.963,0,1.748,0.783,1.748,1.748V106.501z"/>
				<path fill="#3E4545" d="M112.135,125.902c0,0.966-0.786,1.747-1.749,1.747H99.284c-0.962,0-1.747-0.781-1.747-1.747v-9.546
					c0-0.966,0.785-1.748,1.747-1.748h11.102c0.963,0,1.749,0.782,1.749,1.748V125.902z"/>
			</g>
			<circle fill="#6AC4A9" cx="130.045" cy="130.693" r="22.519"/>
			<g>
				<g>
					<path fill="#FFFFFF" d="M130.137,103.646c-14.933,0-27.042,12.111-27.042,27.047c0,14.937,12.109,27.045,27.042,27.045
						c14.938,0,27.049-12.108,27.049-27.045C157.186,115.758,145.075,103.646,130.137,103.646z M130.137,151.861
						c-11.688,0-21.163-9.479-21.163-21.168c0-11.688,9.475-21.166,21.163-21.166c11.695,0,21.172,9.478,21.172,21.166
						C151.309,142.383,141.832,151.861,130.137,151.861z"/>
				</g>
			</g>
			
				<line fill="#0A3E64" stroke="#3E4545" stroke-width="5.1281" stroke-linecap="round" stroke-miterlimit="10" x1="129.375" y1="117.584" x2="129.375" y2="132.475"/>
			
				<line fill="#0A3E64" stroke="#3E4545" stroke-width="5.1281" stroke-linecap="round" stroke-miterlimit="10" x1="129.375" y1="132.475" x2="135.58" y2="138.681"/>
		</g>
	</g>
	<g id="Drive_Financial_Performance" display="none">
		<circle display="inline" fill="#6AC4A9" cx="100" cy="100" r="97.25"/>
		<g display="inline">
			<g>
				<g>
					<path fill="#FFFFFF" d="M147.472,97.305h-21.105c-1.494,0-2.708-1.213-2.708-2.706c0-1.496,1.214-2.708,2.708-2.708h21.105
						c1.495,0,2.707,1.212,2.707,2.708C150.179,96.092,148.967,97.305,147.472,97.305z"/>
				</g>
				<g>
					<path fill="#FFFFFF" d="M152.191,78.631h-30.546l4.998,10.71h20.553L152.191,78.631L152.191,78.631z"/>
				</g>
			</g>
			<g>
				<g>
					<path fill="#FFFFFF" d="M73.543,97.305H52.439c-1.497,0-2.708-1.213-2.708-2.706c0-1.496,1.211-2.708,2.708-2.708h21.104
						c1.492,0,2.708,1.212,2.708,2.708C76.25,96.092,75.035,97.305,73.543,97.305z"/>
				</g>
				<g>
					<path fill="#FFFFFF" d="M78.265,78.631H47.718l4.998,10.71h20.547L78.265,78.631L78.265,78.631z"/>
				</g>
			</g>
			<path fill="#FFFFFF" d="M81.674,120.862l-9.521-21.403H53.825l-14.059,31.61c-1.435,7.923,3.928,14.345,11.978,14.345H70.75
				L81.674,120.862z"/>
			<path fill="#FFFFFF" d="M160.142,131.069l-14.062-31.61h-18.323l-9.208,20.698l11.236,25.257h18.382
				C156.219,145.414,161.58,138.992,160.142,131.069z"/>
			<g>
				<g>
					<path fill="#FFFFFF" d="M112.771,110.375H87.763c-1.771,0-3.209-1.438-3.209-3.211c0-1.772,1.438-3.206,3.209-3.206h25.008
						c1.773,0,3.207,1.434,3.207,3.206C115.978,108.938,114.544,110.375,112.771,110.375z"/>
				</g>
				<g>
					<path fill="#FFFFFF" d="M118.364,88.244H82.171l5.922,12.693h24.35L118.364,88.244L118.364,88.244z"/>
				</g>
				<path fill="#FFFFFF" d="M127.787,150.385l-16.66-37.459H89.409l-16.662,37.459c-1.702,9.388,4.654,16.997,14.193,16.997h26.651
					C123.135,167.382,129.488,159.772,127.787,150.385z"/>
			</g>
		</g>
		<polygon display="inline" fill="#3E4545" points="59.021,71.207 68.083,71.207 68.083,57.024 74.531,57.024 63.523,44.604 
			52.516,57.024 59.021,57.024 		"/>
		<polygon display="inline" fill="#3E4545" points="95.47,80.411 104.532,80.411 104.532,40.919 110.979,40.919 99.974,28.497 
			88.965,40.919 95.47,40.919 		"/>
		<polygon display="inline" fill="#3E4545" points="131.92,71.717 140.98,71.717 140.98,57.024 147.428,57.024 136.421,44.604 
			125.414,57.024 131.92,57.024 		"/>
		<g display="inline">
			<path fill="#6AC4A9" d="M100.289,125.684c0.802,0,1.436,0.635,1.436,1.437v0.734c1.974,0.234,3.645,0.869,5.182,1.839
				c0.533,0.299,1.002,0.803,1.002,1.604c0,1.037-0.833,1.839-1.872,1.839c-0.334,0-0.667-0.101-1.002-0.301
				c-1.171-0.702-2.306-1.203-3.443-1.47v6.416c5.081,1.271,7.253,3.309,7.253,6.886c0,3.676-2.874,6.115-7.119,6.517v2.006
				c0,0.802-0.634,1.438-1.436,1.438c-0.801,0-1.47-0.636-1.47-1.438v-2.071c-2.507-0.27-4.812-1.171-6.853-2.609
				c-0.566-0.365-0.903-0.901-0.903-1.604c0-1.036,0.804-1.839,1.84-1.839c0.403,0,0.802,0.136,1.104,0.368
				c1.566,1.136,3.108,1.903,4.945,2.241v-6.586c-4.881-1.27-7.153-3.106-7.153-6.886c0-3.575,2.842-6.05,7.02-6.384v-0.7
				C98.819,126.318,99.487,125.684,100.289,125.684z M98.952,137.079v-5.916c-2.14,0.202-3.209,1.337-3.209,2.807
				C95.743,135.376,96.38,136.246,98.952,137.079z M101.591,141.725v6.084c2.141-0.233,3.31-1.305,3.31-2.908
				C104.9,143.431,104.165,142.527,101.591,141.725z"/>
		</g>
	</g>
	<g id="Focus_on_the_Patient" display="none">
		<circle display="inline" fill="#6AC4A9" cx="100" cy="100" r="97.25"/>
		<g display="inline">
			<path fill="#3E4545" d="M87.563,81.703h-6.053l0.63,4.081c0.086,0.571,0.016,1.153-0.207,1.685l-3.796,9.068l3.173,0.024
				L87.563,81.703z"/>
			<path fill="#3E4545" d="M107.601,93.26c-1.697-6.781-7.822-11.557-14.811-11.557h-0.524l7.968,23.035
				c0.533,1.538,0.288,3.239-0.655,4.567c-0.947,1.324-2.474,2.112-4.101,2.112h-2.267H75.059h-2.281
				c-1.865-0.009-3.65-0.819-4.962-2.144c-1.31-1.322-2.038-3.118-2.024-4.983l0.005-0.837c0.027-3.641,2.827-6.605,6.377-6.923
				l6.149-14.828h-2.322c-6.988,0-13.112,4.775-14.811,11.557l-3.128,12.459c-1.474,5.872,2.961,20.491,9.013,20.491h34.639
				c6.052,0,10.485-14.619,9.016-20.491L107.601,93.26z"/>
			<path fill="#3E4545" d="M72.829,100.47h-0.023c-0.785,0-1.501,0.304-2.043,0.798c-0.603,0.551-0.988,1.34-0.995,2.219
				l-0.007,0.836c-0.004,0.801,0.316,1.588,0.881,2.16c0.603,0.609,1.383,0.961,2.142,0.963h3.945l2.915-6.924l-3.164-0.025
				L72.829,100.47z"/>
		</g>
		<path display="inline" fill="#FFFFFF" d="M52.1,52.102c-17.94,17.943-17.942,47.02,0,64.967
			c15.226,15.222,38.467,17.518,56.123,6.905l34.118,34.122c4.351,4.344,11.404,4.344,15.751,0
			c4.353-4.355,4.35-11.405,0.002-15.751l-34.12-34.124c10.607-17.653,8.313-40.892-6.906-56.117
			C99.12,34.161,70.042,34.161,52.1,52.102z M109.052,109.054c-13.539,13.488-35.4,13.488-48.94,0.004
			c-13.492-13.542-13.492-35.405,0-48.943c13.54-13.492,35.402-13.492,48.94,0C122.545,73.653,122.541,95.516,109.052,109.054z"/>
		
			<line display="inline" fill="#53C1B2" stroke="#6AC4A9" stroke-width="4.7838" stroke-linecap="round" stroke-miterlimit="10" x1="123.002" y1="125.902" x2="107.877" y2="140.524"/>
		
			<line display="inline" fill="#53C1B2" stroke="#6AC4A9" stroke-width="4.7838" stroke-linecap="round" stroke-miterlimit="10" x1="128.737" y1="131.701" x2="113.613" y2="146.327"/>
		
			<line display="inline" fill="#53C1B2" stroke="#6AC4A9" stroke-width="4.7838" stroke-linecap="round" stroke-miterlimit="10" x1="134.846" y1="137.882" x2="119.725" y2="152.508"/>
		<circle display="inline" fill="#3E4545" cx="84.369" cy="62.416" r="15.98"/>
	</g>
	<g id="Meet_Regulations">
		<circle fill="#6AC4A9" cx="100" cy="100" r="97.25"/>
		<path fill="#FFFFFF" d="M143.665,55.226h-14.313c-1.669-2.261-5.204-4.623-10.453-4.623c-3.665,0-2.836,0-7.197,0
			c-2.156,0-3.246-1.451-3.796-2.917c0.836-0.686,1.574-1.491,2.185-2.391c1.193-1.768,1.896-3.918,1.895-6.208
			c0-1.526-0.312-2.993-0.874-4.322c-0.843-1.996-2.248-3.686-4.018-4.882c-1.769-1.197-3.919-1.899-6.208-1.897
			c-1.526,0-2.994,0.311-4.324,0.873c-1.995,0.844-3.685,2.249-4.88,4.019c-1.196,1.769-1.898,3.919-1.897,6.209
			c-0.001,1.524,0.311,2.991,0.873,4.321c0.712,1.68,1.819,3.141,3.208,4.277c-0.551,1.465-1.64,2.917-3.797,2.917
			c-4.361,0-3.534,0-7.196,0c-5.248,0-8.786,2.362-10.454,4.623H56.336c-1.284,0-2.322,1.039-2.322,2.321v102.144
			c0,1.283,1.039,2.322,2.322,2.322h87.329c1.282,0,2.321-1.039,2.321-2.322V57.547C145.986,56.265,144.947,55.226,143.665,55.226z"
			/>
		<path fill="#6AC4A9" d="M95.677,36.89c0.429-1.012,1.148-1.879,2.05-2.489c0.908-0.608,1.977-0.961,3.158-0.962
			c0.788,0,1.523,0.157,2.196,0.443c1.013,0.426,1.879,1.146,2.489,2.049c0.609,0.905,0.961,1.978,0.961,3.157
			c0,0.787-0.157,1.522-0.441,2.197c-0.425,1.011-1.147,1.879-2.048,2.487c-0.68,0.458-1.452,0.771-2.294,0.899h-0.689h-0.35h-0.69
			c-0.466-0.072-0.913-0.2-1.333-0.378c-1.009-0.427-1.88-1.146-2.487-2.05c-0.61-0.903-0.962-1.976-0.964-3.155
			C95.236,38.3,95.394,37.563,95.677,36.89z"/>
		<path fill="#6AC4A9" d="M138.572,138.873c0,3.393-3.617,10.324-12,4.977c0.708,12.418-14.35,12.102-22.737,12.32H78.11
			c0,0-9.943,0-16.682,0V62.851h10.436v0.625c0,1.28,1.04,2.321,2.323,2.321h53.397c1.279,0,2.32-1.041,2.32-2.321v-0.625h8.668
			V138.873z"/>
		<g>
			<g>
				<path fill="#3E4545" stroke="#3E4545" stroke-width="0.993" d="M75.125,93.218l-4.861-6.447
					c-0.656-0.82-0.492-2.021,0.382-2.676c0.819-0.603,2.022-0.438,2.624,0.382l3.222,4.262l9.854-16.54
					c0.546-0.874,1.749-1.146,2.623-0.601c0.874,0.547,1.147,1.749,0.602,2.623L78.295,93.109c-0.327,0.491-0.93,0.874-1.529,0.874
					c-0.054,0-0.054,0-0.111,0C76.054,93.982,75.508,93.71,75.125,93.218z"/>
			</g>
		</g>
		<path fill="#3E4545" stroke="#3E4545" stroke-width="0.9636" d="M130.479,78.111c0,1.057-0.808,1.915-1.802,1.915H97.04
			c-0.997,0-1.805-0.857-1.805-1.915l0,0c0-1.059,0.808-1.916,1.805-1.916h31.637C129.671,76.195,130.479,77.052,130.479,78.111
			L130.479,78.111z"/>
		<path fill="#3E4545" stroke="#3E4545" stroke-width="0.9636" d="M130.479,86.071c0,1.057-0.808,1.913-1.802,1.913H97.04
			c-0.996,0-1.805-0.855-1.805-1.913l0,0c0-1.061,0.809-1.917,1.805-1.917h31.637C129.671,84.154,130.479,85.01,130.479,86.071
			L130.479,86.071z"/>
		<g>
			<g>
				<g>
					<path fill="#3E4545" stroke="#3E4545" stroke-width="0.993" d="M72.961,118.605l-4.863-6.447
						c-0.656-0.818-0.492-2.021,0.38-2.676c0.82-0.602,2.023-0.438,2.625,0.383l3.221,4.26l9.856-16.539
						c0.546-0.873,1.748-1.146,2.621-0.6c0.874,0.546,1.149,1.748,0.602,2.621l-11.275,18.891c-0.326,0.49-0.929,0.875-1.528,0.875
						c-0.054,0-0.054,0-0.111,0C73.89,119.373,73.343,119.098,72.961,118.605z"/>
				</g>
			</g>
			<path fill="#3E4545" stroke="#3E4545" stroke-width="0.9636" d="M130.479,102.881c0,1.055-0.808,1.914-1.802,1.914H97.04
				c-0.996,0-1.805-0.859-1.805-1.914l0,0c0-1.061,0.809-1.917,1.805-1.917h31.637C129.671,100.964,130.479,101.82,130.479,102.881
				L130.479,102.881z"/>
			<path fill="#3E4545" stroke="#3E4545" stroke-width="0.9636" d="M130.479,110.84c0,1.059-0.808,1.914-1.802,1.914H97.04
				c-0.996,0-1.805-0.855-1.805-1.914l0,0c0-1.059,0.809-1.916,1.805-1.916h31.637C129.671,108.924,130.479,109.781,130.479,110.84
				L130.479,110.84z"/>
		</g>
		<g>
			<g>
				<g>
					<path fill="#3E4545" stroke="#3E4545" stroke-width="0.993" d="M72.961,142.727l-4.863-6.447
						c-0.656-0.818-0.492-2.021,0.38-2.676c0.82-0.604,2.023-0.439,2.625,0.379l3.221,4.264l9.856-16.541
						c0.546-0.873,1.748-1.145,2.621-0.6c0.874,0.545,1.149,1.748,0.602,2.623l-11.275,18.889c-0.326,0.49-0.929,0.873-1.528,0.873
						c-0.054,0-0.054,0-0.111,0C73.89,143.49,73.343,143.217,72.961,142.727z"/>
				</g>
			</g>
			<path fill="#3E4545" stroke="#3E4545" stroke-width="0.9636" d="M130.479,128.18c0,1.057-0.808,1.912-1.802,1.912H97.04
				c-0.996,0-1.805-0.855-1.805-1.912l0,0c0-1.061,0.809-1.916,1.805-1.916h31.637C129.671,126.264,130.479,127.119,130.479,128.18
				L130.479,128.18z"/>
			<path fill="#3E4545" stroke="#3E4545" stroke-width="0.9636" d="M130.479,136.139c0,1.059-0.808,1.914-1.802,1.914H97.04
				c-0.996,0-1.805-0.855-1.805-1.914l0,0c0-1.059,0.809-1.916,1.805-1.916h31.637C129.671,134.223,130.479,135.08,130.479,136.139
				L130.479,136.139z"/>
		</g>
	</g>
	<g id="Share_Information" display="none">
		<circle display="inline" fill="#6AC4A9" cx="100" cy="100" r="97.25"/>
		<g display="inline">
			<g>
				<path fill="#FFFFFF" stroke="#FFFFFF" stroke-width="3.9917" d="M34.763,100.463c-0.14-9.906,2.075-19.214,6.646-27.922
					c4.568-8.707,11.011-15.819,19.321-21.334l-6.958-11.981l23.756,6.645l-6.302,23.453l-7-12.059
					c-7.214,4.847-12.798,11.098-16.759,18.757c-3.961,7.661-5.871,15.82-5.718,24.476c0.145,8.656,2.433,16.794,6.867,24.41
					c3.42,5.996,7.815,11.023,13.177,15.089c5.367,4.066,11.292,6.971,17.787,8.716l-1.826,6.795
					c-7.349-1.975-14.076-5.276-20.186-9.921c-6.103-4.638-11.117-10.352-15.028-17.134C37.493,119.703,34.9,110.371,34.763,100.463
					z M120.547,51.187l1.823-6.799c7.267,1.952,13.951,5.249,20.06,9.884c6.104,4.64,11.116,10.355,15.029,17.137
					c5.04,8.751,7.639,18.084,7.778,27.99c0.138,9.907-2.075,19.214-6.648,27.92c-4.571,8.711-11.011,15.822-19.318,21.338
					l6.987,12.118l-23.724-6.765l6.267-23.334l7.037,11.936c7.214-4.852,12.787-11.107,16.725-18.764
					c3.938-7.659,5.836-15.822,5.694-24.492c-0.147-8.667-2.406-16.83-6.785-24.488c-3.434-5.96-7.844-10.964-13.231-15.019
					C132.848,55.794,126.953,52.907,120.547,51.187z"/>
			</g>
			<g>
				<path fill="#3E4545" d="M84.329,89.613h44.816c2.191,0,3.97-1.775,3.97-3.969s-1.778-3.97-3.97-3.97H84.329
					c-2.194,0-3.972,1.776-3.972,3.97S82.135,89.613,84.329,89.613z M129.146,96.343H84.329c-2.194,0-3.972,1.777-3.972,3.971
					c0,2.191,1.778,3.969,3.972,3.969h44.816c2.191,0,3.97-1.777,3.97-3.969C133.115,98.12,131.337,96.343,129.146,96.343z
					 M129.146,111.013H84.329c-2.194,0-3.972,1.778-3.972,3.966c0,2.194,1.778,3.974,3.972,3.974h44.816
					c2.191,0,3.97-1.779,3.97-3.974C133.115,112.791,131.337,111.013,129.146,111.013z"/>
				<circle fill="#3E4545" cx="71.809" cy="85.645" r="3.97"/>
				<circle fill="#3E4545" cx="71.809" cy="100.155" r="3.97"/>
				<path fill="#3E4545" d="M75.779,114.979c0,2.194-1.778,3.974-3.972,3.974c-2.191,0-3.968-1.779-3.968-3.974
					c0-2.188,1.776-3.966,3.968-3.966C74.001,111.013,75.779,112.791,75.779,114.979z"/>
			</g>
		</g>
	</g>
	<g id="Spark_Physician_Adoption" display="none">
		<circle display="inline" fill="#6AC4A9" cx="100" cy="100" r="97.25"/>
		<g display="inline">
			<path fill="#3E4545" d="M95.393,78.78l-0.26-6.287l-5.479-1.579c-0.669-2.462-1.743-4.749-3.152-6.791l2.339-5.203l-4.631-4.263
				l-4.992,2.761c-2.15-1.231-4.517-2.114-7.029-2.577l-2.025-5.33l-6.288,0.26l-1.577,5.479c-2.463,0.669-4.752,1.744-6.792,3.15
				l-5.204-2.335l-4.262,4.629l2.762,4.995c-1.233,2.147-2.116,4.516-2.578,7.022l-5.331,2.03l0.259,6.284l5.482,1.577
				c0.667,2.467,1.744,4.756,3.15,6.794l-2.338,5.206l4.631,4.258l4.992-2.758c2.148,1.231,4.518,2.114,7.027,2.576l2.025,5.334
				l6.289-0.264l1.578-5.479c2.464-0.67,4.751-1.745,6.791-3.15l5.205,2.337l4.26-4.629l-2.76-4.993
				c1.235-2.15,2.118-4.517,2.579-7.031L95.393,78.78z M68.636,88.646c-6.552,0.27-12.106-4.837-12.377-11.393
				c-0.271-6.554,4.84-12.105,11.392-12.375c6.556-0.272,12.106,4.835,12.376,11.392C80.299,82.821,75.191,88.375,68.636,88.646z"/>
			<path fill="#3E4545" d="M159.105,83.425l-0.204-4.891l-4.262-1.229c-0.519-1.917-1.354-3.697-2.45-5.283l1.82-4.05l-3.602-3.315
				l-3.887,2.148c-1.672-0.962-3.517-1.646-5.471-2.007l-1.576-4.146l-4.891,0.203l-1.229,4.262
				c-1.915,0.52-3.697,1.355-5.285,2.452l-4.046-1.819l-3.316,3.603l2.148,3.885c-0.96,1.67-1.646,3.512-2.007,5.467l-4.146,1.577
				l0.201,4.89l4.266,1.231c0.52,1.915,1.357,3.695,2.448,5.28l-1.816,4.052l3.602,3.317l3.885-2.148
				c1.672,0.957,3.515,1.645,5.47,2.003l1.574,4.152l4.895-0.203l1.224-4.269c1.92-0.519,3.701-1.354,5.288-2.451l4.048,1.821
				l3.315-3.601l-2.148-3.885c0.962-1.672,1.645-3.519,2.006-5.47L159.105,83.425z M138.286,91.102
				c-5.096,0.21-9.416-3.768-9.63-8.864c-0.211-5.097,3.768-9.418,8.868-9.632c5.096-0.21,9.416,3.769,9.627,8.865
				C147.363,86.568,143.387,90.89,138.286,91.102z"/>
			<path fill="#3E4545" d="M127.03,48.63l-0.159-3.806l-3.314-0.958c-0.407-1.49-1.056-2.875-1.911-4.112l1.416-3.15l-2.802-2.582
				l-3.027,1.671c-1.301-0.746-2.734-1.281-4.255-1.562l-1.229-3.229l-3.808,0.159l-0.954,3.318
				c-1.497,0.404-2.88,1.056-4.116,1.907l-3.15-1.417l-2.582,2.806l1.672,3.025c-0.747,1.301-1.282,2.736-1.561,4.254l-3.229,1.23
				l0.155,3.807l3.32,0.956c0.408,1.493,1.057,2.88,1.91,4.114l-1.418,3.151l2.805,2.582l3.024-1.671
				c1.303,0.746,2.735,1.282,4.256,1.561l1.229,3.231l3.808-0.158l0.955-3.32c1.493-0.404,2.879-1.06,4.113-1.908l3.154,1.413
				l2.579-2.803l-1.672-3.022c0.747-1.302,1.282-2.738,1.563-4.259L127.03,48.63z M110.825,54.608
				c-3.972,0.163-7.333-2.933-7.498-6.9c-0.165-3.97,2.931-7.334,6.9-7.498c3.974-0.165,7.332,2.932,7.498,6.899
				C117.89,51.079,114.794,54.444,110.825,54.608z"/>
			<g>
				<path fill="#FFFFFF" d="M87.166,160.155c-0.002-3.124,1.215-6.063,3.43-8.279c1.632-1.613,3.647-2.266,5.426-2.835l0.454-0.156
					c1.802-0.57,3.373-1.142,4.362-2.334c0.738-0.875,1.222-2.081,1.31-3.239c-4.052-0.42-7.828-2.384-10.66-5.563
					c-2.82-3.158-4.488-7.265-4.725-11.615c-6.267,1.433-11.954,4.956-16.063,9.955c-4.285,5.214-6.642,11.805-6.642,18.566v8.277
					c0,3.399,2.766,6.165,6.167,6.165h21.095c-0.251-0.211-0.493-0.433-0.726-0.664C88.381,166.221,87.163,163.28,87.166,160.155z
					 M89.513,125.896c0.67,7.839,6.812,13.921,14.142,13.921c7.381,0,13.526-6.126,14.15-14.018c-1.103-0.13-2.216-0.2-3.322-0.2
					h-20.89C92.232,125.6,90.864,125.7,89.513,125.896z M120.633,126.247c-0.201,4.348-1.846,8.454-4.654,11.608
					c-2.828,3.179-6.591,5.127-10.644,5.52c-0.093,1.886-0.823,3.764-2.034,5.218c-1.644,1.935-3.82,2.645-5.755,3.274
					c-1.787,0.565-3.475,1.104-4.537,2.18c-1.586,1.588-2.46,3.697-2.461,5.94c0,2.248,0.875,4.354,2.459,5.94
					c1.587,1.585,3.697,2.46,5.942,2.46c2.241,0,4.352-0.875,5.938-2.46c1.263-1.26,2.103-2.904,2.362-4.629l0.034-0.226
					c0.149-1,0.294-1.937,0.596-2.911c0.365-1.191,0.933-2.222,1.734-3.16c1.983-2.33,4.873-3.611,8.146-3.611
					c1.097,0,2.212,0.149,3.314,0.446c0.141,0.034,0.26,0.142,0.309,0.278c0.051,0.142,0.032,0.296-0.055,0.418
					c-0.4,0.573-0.666,1.217-0.78,1.909c-0.02,0.125-0.197,0.305-0.197,0.305s-0.162,0.076-0.251,0.076
					c-0.034,0-0.072-0.004-0.104-0.013c-0.751-0.179-1.501-0.265-2.231-0.265c-2.365,0.003-4.354,0.867-5.752,2.506
					c-0.535,0.628-0.871,1.243-1.123,2.043c-0.233,0.749-0.366,1.634-0.525,2.681c-0.362,2.381-1.517,4.646-3.247,6.383
					c-0.228,0.227-0.715,0.654-0.715,0.654h31.333c3.354,0,6.086-2.729,6.086-6.086v-8.166
					C143.82,140.751,134.099,128.928,120.633,126.247z M127.211,160.6c-2.632,0-4.772-2.142-4.772-4.773s2.141-4.772,4.772-4.772
					s4.772,2.141,4.772,4.772S129.843,160.6,127.211,160.6z M127.508,153.84c-1.045,0-1.896,0.853-1.896,1.897
					c0,1.046,0.851,1.896,1.896,1.896c1.046,0,1.895-0.85,1.895-1.896C129.402,154.692,128.554,153.84,127.508,153.84z"/>
				<path fill="#FFFFFF" d="M125.612,97.772c0,12.459-10.1,22.561-22.563,22.561c-12.459,0-22.561-10.102-22.561-22.561
					c0-12.462,10.102-22.564,22.561-22.564C115.513,75.208,125.612,85.311,125.612,97.772z"/>
			</g>
		</g>
	</g>
	<g id="Put_Your_Data_to_Work" display="none">
		<circle display="inline" fill="#6AC4A9" cx="100" cy="100" r="97.25"/>
		<g display="inline">
			<path fill="#FFFFFF" d="M150.926,46.715H59.841C54.28,46.72,49.776,51.22,49.776,56.784v65.066l8.213-8.539V72.349h94.789v56.842
				c0,1.024-0.83,1.849-1.852,1.855H84.733l-8.07,8.211h74.262c5.563-0.005,10.063-4.505,10.063-10.066V56.784
				C160.989,51.22,156.489,46.72,150.926,46.715z M152.777,64.135H57.989v-7.352c0.002-1.024,0.832-1.857,1.852-1.857h91.085
				c1.021,0,1.852,0.833,1.852,1.857V64.135z M120.985,90.889h22.511c1.84,0,3.326-1.486,3.326-3.315
				c0-1.833-1.486-3.323-3.326-3.323h-22.511c-1.83,0-3.32,1.489-3.32,3.323C117.665,89.403,119.155,90.889,120.985,90.889z
				 M120.985,104.175h22.511c1.84,0,3.326-1.486,3.326-3.317c0-1.835-1.486-3.323-3.326-3.323h-22.511
				c-1.83,0-3.32,1.488-3.32,3.323C117.665,102.688,119.155,104.175,120.985,104.175z M120.985,117.458h22.511
				c1.84,0,3.326-1.483,3.326-3.321c0-1.836-1.486-3.317-3.326-3.317h-22.511c-1.83,0-3.32,1.481-3.32,3.317
				C117.665,115.975,119.155,117.458,120.985,117.458z"/>
			<path fill="#3E4545" d="M76.975,130.42l3.7-3.91c2.375-2.31,5.715-3.275,9.833-3.542c0.252-0.016,1.105-0.146,1.105-0.146
				c2.913-0.354,5.772-1.311,8.36-3.041c1.517-1.031,2.904-2.281,4.128-3.677c3.696-4.245,5.966-9.925,6.098-15.615
				c0.008-0.599-0.308-1.147-0.833-1.438c-0.513-0.283-1.149-0.256-1.65,0.078l-13.597,9.136c0,0-0.038,0.037-0.29,0.134
				c-0.781,0.255-2.554,0.86-5.349-1.505c-0.837-0.734-1.768-1.762-2.732-3.19c-3.742-5.803-2.11-7.865-1.426-8.81
				c0.288-0.351,0.449-0.387,0.429-0.405l13.672-9.19c0.495-0.327,0.76-0.909,0.691-1.501c-0.066-0.588-0.451-1.09-1.004-1.303
				c-7.081-2.699-15.603-1.912-21.723,2.178c-1.413,0.946-2.662,2.053-3.738,3.283c-3.38,3.873-4.973,8.94-4.762,14.081
				c0.41,4.599,0.2,8.72-2.196,11.474l-3.502,4.014l-4.2,4.368l-4.107,4.268l-0.764,0.797c-0.007,0.003-0.003,0.003-0.007,0.006
				l-3.271,3.369l-8.13,8.385c-2.712,2.854-3.369,6.916-2.019,10.353c0.511,1.296,1.298,2.491,2.371,3.516
				c3.93,3.735,10.142,3.575,13.873-0.354l5.078-5.73l7.188-7.243l4.078-4.106l4.081-4.104L76.975,130.42z"/>
			<path fill="#6AC4A9" d="M50.195,149.264L50.195,149.264c-2.029,0.79-4.32-0.206-5.117-2.24c-0.802-2.027,0.197-4.326,2.231-5.123
				c2.03-0.8,4.319,0.199,5.115,2.235C53.231,146.161,52.228,148.457,50.195,149.264z"/>
		</g>
	</g>
	<g id="Stage_6__x26__7" display="none">
		<circle display="inline" fill="#6AC4A9" cx="100" cy="100" r="97.25"/>
		<g display="inline">
			<path fill-rule="evenodd" clip-rule="evenodd" fill="#FFFFFF" d="M41.956,115.382l18.992,1.634
				c2.479,0.211,4.678-1.635,4.892-4.117l0.89-10.37c0.214-2.48-1.636-4.678-4.118-4.894l-18.989-1.632
				c-2.481-0.212-4.682,1.638-4.894,4.119l-0.892,10.367C37.624,112.972,39.475,115.171,41.956,115.382L41.956,115.382z
				 M62.359,141.516c10.015-11.65,11.524-12.167,15.33-28.792c4.217,1.35,8.446,2.627,12.659,4.003
				c0.448,0.146,0.905,0.296,1.363,0.454c-6.243,18.671-7.401,19.274-19.971,32.623C66.05,155.721,56.928,147.84,62.359,141.516
				L62.359,141.516z M96.294,64.566c0.981,0.381,3.439,1.153,4.925,2.579c14.463,13.854,11.358,13.121,27.121,12.598
				c6-0.202,5.884,9.378,0.784,9.842c-16.14,1.465-17.163,2.699-28.692-7.041l-2.548,14.061c-0.197,1.085,0.307,2.133,1.276,2.658
				c16.464,7.247,19.793,7.247,27.112,30.255c2.71,7.146-8.023,11.8-11.33,5.159c-11.461-22.462-13.257-19.014-40.587-28.343
				c-3.432-1.804-4.685-4.832-4.654-8.582l4.434-24.22c-10.593,3.316-9.451,3.086-11.804,16.506
				c-0.907,5.181-10.426,4.486-9.81-1.771c1.961-19.901,5.016-21.054,24.144-28.09c2.612-0.959,8.94,0.771,10.359,1.302
				l5.795,10.163L96.294,64.566L96.294,64.566z M105.218,46.425c0,6.46-5.238,11.697-11.698,11.697
				c-6.461,0-11.699-5.237-11.699-11.697s5.237-11.698,11.699-11.698C99.98,34.727,105.218,39.965,105.218,46.425z"/>
			<path fill-rule="evenodd" clip-rule="evenodd" fill="#3E4545" d="M85.835,156.228H106.9v-9.045c0-2.212,1.816-4.019,4.045-4.019
				h21.08v-9.047c0-2.21,1.815-4.019,4.046-4.019h30.086l0.021,5.008c0.004,2.239-1.793,4.036-4.047,4.036h-21.061v9.044
				c0,2.216-1.816,4.021-4.044,4.021h-21.082v9.044c0,2.217-1.818,4.021-4.044,4.021h-30.11v-5.026
				C81.791,158.035,83.609,156.228,85.835,156.228L85.835,156.228z"/>
		</g>
	</g>
	<g id="ShareInformation" display="none">
		<circle display="inline" fill="#6AC4A9" cx="100" cy="100" r="97.25"/>
		<g display="inline">
			<path fill="#3E4545" d="M157.622,111.686c8.916-6.822,14.451-16.321,14.451-26.847c0-20.749-21.51-37.564-48.045-37.564
				c-15.654,0-29.556,5.854-38.331,14.912c25.239,3.708,44.439,21.553,44.439,42.958c0,6.108-1.595,11.917-4.418,17.201
				c0.684-0.019,1.372-0.021,2.048-0.064l-0.039,0.017c0,0,5.86-0.477,8.339,1.31c6.121,4.403,16.92,10.535,28.614,8.359
				c0,0,1.265-0.219,0.45-0.99C163.417,129.338,149.147,120.887,157.622,111.686z"/>
			<path fill="#FFFFFF" d="M75.97,67.578c-26.533,0-48.043,16.815-48.043,37.566c0,10.521,5.535,20.024,14.451,26.845
				c8.474,9.202-5.793,17.653-7.508,19.293c-0.813,0.771,0.45,0.99,0.45,0.99c11.696,2.176,22.494-3.96,28.614-8.358
				c2.479-1.791,8.339-1.314,8.339-1.314l-0.039-0.013c1.233,0.075,2.482,0.118,3.737,0.118c26.542,0,48.055-16.813,48.055-37.561
				C124.025,84.393,102.512,67.578,75.97,67.578z M54.11,112.086c-3.833,0-6.941-3.109-6.941-6.941c0-3.835,3.108-6.944,6.941-6.944
				c3.835,0,6.948,3.109,6.948,6.944C61.058,108.977,57.945,112.086,54.11,112.086z M76.804,112.086
				c-3.838,0-6.941-3.109-6.941-6.941c0-3.835,3.103-6.944,6.941-6.944c3.833,0,6.939,3.109,6.939,6.944
				C83.743,108.977,80.637,112.086,76.804,112.086z M99.495,112.086c-3.834,0-6.941-3.109-6.941-6.941
				c0-3.835,3.106-6.944,6.941-6.944c3.833,0,6.944,3.109,6.944,6.944C106.438,108.977,103.327,112.086,99.495,112.086z"/>
		</g>
	</g>
</g>
<g id="Careers" display="none">
	<g id="Flexible_Work_Hours">
		<circle display="inline" fill="#6AC4A9" cx="100" cy="100" r="97.25"/>
		<g display="inline">
			<path fill="#3E4545" d="M71.163,154.303c5.182,2.611,10.674,4.551,16.316,5.761l2.66-13.57
				c-4.448-0.955-8.779-2.481-12.866-4.546L71.163,154.303z"/>
			<path fill="#3E4545" d="M56.938,124.047l-11.587,7.521c3.228,4.803,7.076,9.187,11.441,13.023l9.15-10.299
				C62.508,131.27,59.48,127.826,56.938,124.047z"/>
			<path fill="#3E4545" d="M53.25,72.467l-12.581-6.368c-2.52,5.083-4.359,10.483-5.459,16.057l13.734,2.973
				C49.814,80.733,51.265,76.474,53.25,72.467z"/>
			<path fill="#F1F1F2" d="M62.705,59.33c0.353-0.348,0.711-0.687,1.071-1.024c0.357-0.337,0.724-0.67,1.089-0.996
				c0.386-0.344,0.769-0.68,1.168-1.007c0.366-0.306,0.737-0.596,1.107-0.889c0.72-0.566,1.449-1.107,2.202-1.628
				c0.367-0.257,0.725-0.519,1.098-0.764c11.695-7.729,26.267-10.27,40.108-7.11c0.575,0.128,1.145,0.273,1.711,0.428
				c0.358,0.09,0.718,0.179,1.072,0.28c0.969,0.279,1.931,0.588,2.89,0.921c0.177,0.063,0.346,0.132,0.522,0.196
				c0.836,0.301,1.665,0.623,2.485,0.968c0.213,0.088,0.42,0.178,0.628,0.269c0.854,0.372,1.706,0.772,2.545,1.185
				c2.571,1.284,5.071,2.781,7.48,4.518c1.652,1.193,3.201,2.474,4.678,3.809c0.536,0.493,1.067,0.987,1.588,1.497
				c0.346,0.346,0.683,0.697,1.02,1.047c0.358,0.373,0.72,0.759,1.069,1.143c0.346,0.38,0.685,0.768,1.02,1.154
				c0.324,0.382,0.638,0.771,0.952,1.16c0.555,0.693,1.088,1.394,1.604,2.109c0.293,0.393,0.583,0.789,0.867,1.195
				c2.861,4.19,5.071,8.722,6.611,13.439c0.014,0.049,0.028,0.099,0.042,0.143c2.745,8.522,3.277,17.628,1.438,26.394
				c-0.113,0.561-0.252,1.127-0.386,1.683c-0.087,0.355-0.172,0.707-0.264,1.067c-0.262,0.951-0.541,1.906-0.856,2.848
				c-0.057,0.164-0.12,0.321-0.179,0.488c-0.288,0.826-0.596,1.653-0.928,2.466c-0.084,0.203-0.174,0.408-0.262,0.616
				c-0.342,0.835-0.722,1.657-1.115,2.466c-1.24,2.542-2.7,5.01-4.405,7.375c-1.081,1.498-2.242,2.919-3.464,4.276
				c-0.615,0.677-1.249,1.346-1.898,1.989c-0.133,0.128-0.254,0.249-0.386,0.375c-0.697,0.675-1.407,1.331-2.137,1.965
				c-0.033,0.024-0.06,0.052-0.09,0.073c-0.797,0.687-1.624,1.343-2.468,1.979c-0.071,0.058-0.145,0.114-0.224,0.172
				c-0.852,0.631-1.731,1.241-2.622,1.824c-2.956,1.918-6.123,3.528-9.473,4.804l-3.116-13.103l-19.605,23.243l28.297,16.926
				l-3.148-13.072c5.947-1.958,11.487-4.723,16.509-8.206c0.068-0.052,0.143-0.099,0.215-0.153c0.511-0.355,1.017-0.718,1.517-1.092
				c0.102-0.074,0.201-0.149,0.302-0.228c0.481-0.366,0.967-0.736,1.44-1.117c0.095-0.073,0.186-0.152,0.28-0.228
				c1.282-1.042,2.528-2.137,3.731-3.277c0.33-0.319,0.667-0.628,0.99-0.958c0.2-0.197,0.398-0.399,0.595-0.599
				c0.383-0.39,0.758-0.779,1.132-1.177c0.155-0.17,0.306-0.335,0.459-0.5c0.185-0.21,0.381-0.41,0.567-0.619l-0.015-0.007
				c1.419-1.604,2.777-3.274,4.042-5.025c2.093-2.894,3.895-5.905,5.427-9.009l0.005,0.007c0.339-0.674,0.654-1.354,0.963-2.036
				c0.16-0.355,0.313-0.71,0.466-1.077c0.221-0.509,0.435-1.021,0.641-1.535c0.134-0.35,0.281-0.699,0.415-1.059
				c0.3-0.783,0.582-1.576,0.846-2.376c0.095-0.266,0.176-0.54,0.259-0.81c0.241-0.742,0.464-1.49,0.678-2.24
				c0.037-0.139,0.077-0.279,0.114-0.422c0.412-1.487,0.766-2.991,1.064-4.512l-0.028-0.004c1.088-5.623,1.428-11.346,1.016-17.019
				l0.043-0.005c-0.383-5.294-1.445-10.556-3.104-15.637c-0.004-0.021-0.01-0.04-0.017-0.062c-0.111-0.329-0.192-0.661-0.309-0.99
				l-0.016-0.063l-0.042,0.01c-1.86-5.421-4.43-10.634-7.679-15.493l0.017-0.011c-1.349-2.011-2.813-3.948-4.369-5.803l-0.005-0.002
				c-1.401-1.671-2.887-3.275-4.445-4.805c-0.035-0.032-0.072-0.069-0.101-0.098c-0.814-0.794-1.645-1.576-2.5-2.331l-0.007,0.007
				c-1.646-1.453-3.378-2.839-5.192-4.152c-2.948-2.132-6.018-3.981-9.163-5.575v-0.003c-0.688-0.349-1.382-0.684-2.08-1.009
				c-0.375-0.17-0.748-0.329-1.12-0.498c-0.517-0.229-1.033-0.444-1.555-0.663c-0.358-0.147-0.709-0.301-1.062-0.437
				c-0.806-0.316-1.611-0.614-2.424-0.899c-0.276-0.094-0.55-0.185-0.823-0.277c-0.768-0.258-1.535-0.502-2.308-0.728
				c-0.129-0.039-0.262-0.081-0.389-0.117c-1.505-0.438-3.022-0.827-4.548-1.154l-0.013,0.034
				c-5.686-1.221-11.459-1.688-17.174-1.413l-0.003-0.046c-5.305,0.252-10.564,1.185-15.663,2.705
				c-0.044,0.017-0.095,0.028-0.139,0.04c-0.325,0.099-0.657,0.173-0.98,0.278l0.011,0.04l0,0l-0.011-0.04
				c-0.01,0.004-0.021,0.005-0.036,0.007l-0.162,0.058l0.014,0.038c-5.355,1.716-10.497,4.123-15.271,7.203l-0.016-0.019
				c-3.814,2.463-7.34,5.334-10.537,8.548c-0.018,0.025-0.039,0.042-0.056,0.064c-0.783,0.788-1.551,1.59-2.294,2.419l0.011,0.01
				c-1.433,1.601-2.617,4.06-2.617,4.06l11.493,7.36c0,0,0.995-1.323,2.375-2.808C61.833,60.233,62.264,59.776,62.705,59.33z"/>
			<path fill="#3E4545" d="M50.836,111.766c-1.486-4.315-2.4-8.769-2.718-13.241l-13.961,0.659
				c0.402,5.685,1.568,11.336,3.473,16.869l0.022,0.063l13.229-4.227L50.836,111.766z"/>
			<g>
				<circle fill="#FFFFFF" stroke="#FFFFFF" stroke-width="2.4047" stroke-miterlimit="10" cx="99.611" cy="102.832" r="5.863"/>
				
					<line fill="#FFFFFF" stroke="#FFFFFF" stroke-width="5.4192" stroke-linecap="round" x1="99.61" y1="102.832" x2="83.874" y2="78.108"/>
				
					<line fill="#FFFFFF" stroke="#FFFFFF" stroke-width="5.4192" stroke-linecap="round" x1="101.657" y1="101.527" x2="114.436" y2="88.88"/>
			</g>
		</g>
	</g>
	<g id="Accrued_Sick__x26__Vacation">
		<circle display="inline" fill="#6AC4A9" cx="100" cy="100" r="97.25"/>
		<g display="inline">
			<g>
				<path fill="#FFFFFF" d="M166.137,139.865c-0.54-9.636-3.76-17.653-9.854-23.751c0.014-0.301,0.018-0.601,0.018-0.898
					c0-23.528-25.425-42.601-56.79-42.601c-7.412,0-14.488,1.069-20.981,3.003c-0.441-0.654-0.906-1.303-1.407-1.934
					c-5.554-6.943-13.494-10.492-20.55-9.919c-1.942,6.212-0.642,13.92,3.893,20.521c-8.902,6.321-15.073,14.784-17.058,24.286
					l-10.145,3.287c-2.536,0.821-3.958,3.413-3.191,5.796l6.199,19.147c0.771,2.379,3.448,3.648,5.982,2.826l8.384-2.716
					c2.43,3.075,5.356,5.896,8.699,8.41v15.066c0,2.863,2.319,5.185,5.183,5.185h14.796c2.865,0,5.185-2.321,5.185-5.185v-4.082
					c4.783,0.979,9.816,1.505,15.012,1.505c5.182,0,10.196-0.525,14.967-1.499v4.076c0,2.863,2.32,5.185,5.185,5.185h14.795
					c2.865,0,5.187-2.321,5.187-5.185v-15.035c8.362-6.268,14.135-14.479,16.002-23.656
					C160.963,126.169,164.306,132.782,166.137,139.865z M59.335,98.677c2.492,0,4.517,2.021,4.517,4.516
					c0,2.494-2.025,4.516-4.517,4.516c-2.495,0-4.52-2.021-4.52-4.516C54.815,100.697,56.841,98.677,59.335,98.677z M136.135,96.169
					c-15.169-14.506-36.847-12.358-37.065-12.334l-0.628-5.821c1-0.105,24.623-2.441,41.738,13.931L136.135,96.169z"/>
				<circle fill="#FFFFFF" cx="58.076" cy="104.206" r="2.517"/>
			</g>
			<g>
				<g>
					<g>
						<path fill="#3E4545" stroke="#3E4545" stroke-width="1.4829" d="M128.659,28.426c-14.902,0-26.981,12.077-26.981,26.981
							c0,14.903,12.079,26.98,26.981,26.98s26.981-12.077,26.981-26.98C155.641,40.503,143.562,28.426,128.659,28.426z
							 M128.659,77.198c-12.034,0-21.794-9.756-21.794-21.791c0-12.038,9.76-21.796,21.794-21.796
							c12.037,0,21.795,9.758,21.795,21.796C150.454,67.442,140.696,77.198,128.659,77.198z"/>
					</g>
				</g>
			</g>
			<path fill="#3E4545" d="M131.175,55.936c0,1.703-1.383,3.084-3.085,3.084c-1.699,0-3.081-1.381-3.081-3.084
				c0-1.7,1.382-3.082,3.081-3.082C129.792,52.854,131.175,54.235,131.175,55.936z"/>
			
				<line fill="none" stroke="#3E4545" stroke-width="2.9752" stroke-linecap="round" x1="128.09" y1="55.936" x2="128.09" y2="40.524"/>
			
				<line fill="none" stroke="#3E4545" stroke-width="2.9752" stroke-linecap="round" x1="129.369" y1="55.936" x2="138.607" y2="53.934"/>
		</g>
	</g>
	<g id="Annual_Cash_Bonus">
		<circle display="inline" fill="#6AC4A9" cx="100" cy="100" r="97.25"/>
		<g display="inline">
			<path fill="#FFFFFF" d="M44.323,68.832C62.209,56.9,80.696,45.214,98.229,32.865c1.108-0.78,2.558-0.726,3.591,0.036
				c17.648,12.423,36.212,23.505,53.857,35.932c3.413,2.401,5.647,7.135,5.745,11.259l0.019,70.522c0,1.703-1.381,3.083-3.085,3.083
				H41.643c-1.701,0-3.083-1.38-3.083-3.083v-70.2C38.56,75.942,40.536,71.357,44.323,68.832L44.323,68.832z"/>
			<ellipse fill="#3E4545" cx="99.528" cy="101.462" rx="33.615" ry="31.749"/>
			<polygon fill="#FFFFFF" points="142.204,135.858 59.569,135.858 57.793,97.056 83.322,118.366 99.158,110.173 113.776,118.013 
				142.204,93.503 			"/>
			<path fill="#6AC4A9" d="M99.527,117.437c-17.55,10.026-35.101,20.051-52.641,30.091h105.281
				C134.617,137.483,117.084,127.468,99.527,117.437L99.527,117.437z"/>
			<polygon fill="#6AC4A9" points="43.534,142.655 80.31,121.611 43.534,93.232 43.534,142.655 			"/>
			<polygon fill="#6AC4A9" points="156.047,142.407 156.047,92.986 119.274,121.363 156.047,142.407 			"/>
			<g>
				<path fill="#F1F1F2" d="M84.273,84.341c0.583,0,1.043,0.459,1.043,1.042v0.535c1.429,0.169,2.643,0.631,3.757,1.332
					c0.39,0.219,0.729,0.583,0.729,1.166c0,0.753-0.606,1.333-1.359,1.333c-0.243,0-0.484-0.071-0.727-0.218
					c-0.849-0.508-1.674-0.873-2.498-1.067v4.655c3.687,0.923,5.262,2.402,5.262,4.996c0,2.668-2.084,4.438-5.164,4.729v1.456
					c0,0.581-0.46,1.043-1.043,1.043c-0.582,0-1.067-0.462-1.067-1.043v-1.504c-1.819-0.194-3.491-0.849-4.971-1.892
					c-0.413-0.266-0.655-0.654-0.655-1.164c0-0.753,0.582-1.335,1.335-1.335c0.289,0,0.579,0.097,0.8,0.267
					c1.139,0.825,2.254,1.384,3.59,1.626v-4.777c-3.543-0.921-5.192-2.256-5.192-4.997c0-2.594,2.062-4.387,5.094-4.63v-0.51
					C83.206,84.801,83.691,84.341,84.273,84.341z M83.305,92.61v-4.292c-1.552,0.146-2.329,0.972-2.329,2.036
					C80.976,91.374,81.437,92.005,83.305,92.61z M85.219,95.98v4.415c1.553-0.17,2.4-0.947,2.4-2.11
					C87.619,97.219,87.085,96.563,85.219,95.98z"/>
				<path fill="#F1F1F2" d="M99.608,84.341c0.581,0,1.042,0.459,1.042,1.042v0.535c1.429,0.169,2.643,0.631,3.756,1.332
					c0.39,0.219,0.73,0.583,0.73,1.166c0,0.753-0.607,1.333-1.359,1.333c-0.243,0-0.484-0.071-0.727-0.218
					c-0.848-0.508-1.675-0.873-2.498-1.067v4.655c3.683,0.923,5.262,2.402,5.262,4.996c0,2.668-2.084,4.438-5.164,4.729v1.456
					c0,0.581-0.461,1.043-1.042,1.043c-0.583,0-1.068-0.462-1.068-1.043v-1.504c-1.819-0.194-3.49-0.849-4.971-1.892
					c-0.412-0.266-0.654-0.654-0.654-1.164c0-0.753,0.582-1.335,1.335-1.335c0.289,0,0.579,0.097,0.8,0.267
					c1.139,0.825,2.253,1.384,3.589,1.626v-4.777c-3.543-0.921-5.191-2.256-5.191-4.997c0-2.594,2.062-4.387,5.093-4.63v-0.51
					C98.54,84.801,99.025,84.341,99.608,84.341z M98.639,92.61v-4.292c-1.552,0.146-2.329,0.972-2.329,2.036
					C96.31,91.374,96.77,92.005,98.639,92.61z M100.553,95.98v4.415c1.553-0.17,2.4-0.947,2.4-2.11
					C102.953,97.219,102.419,96.563,100.553,95.98z"/>
				<path fill="#F1F1F2" d="M114.942,84.341c0.582,0,1.043,0.459,1.043,1.042v0.535c1.428,0.169,2.643,0.631,3.757,1.332
					c0.389,0.219,0.729,0.583,0.729,1.166c0,0.753-0.605,1.333-1.358,1.333c-0.244,0-0.484-0.071-0.728-0.218
					c-0.848-0.508-1.674-0.873-2.496-1.067v4.655c3.683,0.923,5.262,2.402,5.262,4.996c0,2.668-2.086,4.438-5.165,4.729v1.456
					c0,0.581-0.461,1.043-1.043,1.043c-0.584,0-1.068-0.462-1.068-1.043v-1.504c-1.819-0.194-3.492-0.849-4.97-1.892
					c-0.413-0.266-0.656-0.654-0.656-1.164c0-0.753,0.583-1.335,1.335-1.335c0.29,0,0.579,0.097,0.799,0.267
					c1.141,0.825,2.256,1.384,3.592,1.626v-4.777c-3.545-0.921-5.192-2.256-5.192-4.997c0-2.594,2.062-4.387,5.093-4.63v-0.51
					C113.874,84.801,114.358,84.341,114.942,84.341z M113.974,92.61v-4.292c-1.553,0.146-2.329,0.972-2.329,2.036
					C111.645,91.374,112.104,92.005,113.974,92.61z M115.889,95.98v4.415c1.552-0.17,2.398-0.947,2.398-2.11
					C118.287,97.219,117.753,96.563,115.889,95.98z"/>
			</g>
			<path fill="#6AC4A9" stroke="#6AC4A9" stroke-width="1.9947" d="M44.728,84.742l2.523,1.946v-6.274
				c0-1.971,0.909-3.384,2.318-4.654c16.512-11.611,33.827-22.057,50.429-33.538c16.604,11.481,33.919,21.926,50.43,33.538
				c1.411,1.27,2.321,2.683,2.321,4.654v6.274l2.521-1.946v-4.328c0-2.758-1.217-4.827-3.244-6.621
				c-17.04-11.995-34.929-22.743-52.028-34.651c-17.096,11.91-34.984,22.658-52.027,34.651c-1.948,1.729-3.174,3.743-3.252,6.397
				C44.816,81.596,44.728,83.302,44.728,84.742L44.728,84.742z"/>
		</g>
	</g>
	<g id="_x39_0_x25__Company-Paid_Premium">
		<circle display="inline" fill="#6AC4A9" cx="100" cy="100" r="97.25"/>
		<g display="inline">
			<path fill-rule="evenodd" clip-rule="evenodd" fill="#FFFFFF" d="M72.83,64.463c-2.185,0-3.957-1.772-3.957-3.958
				c0-2.185,1.772-3.957,3.957-3.957h33.214c2.186,0,3.957,1.771,3.957,3.957c0,2.186-1.771,3.958-3.957,3.958H72.83L72.83,64.463z
				 M58.502,76.421c-1.456,0-2.637-1.181-2.637-2.639c0-1.456,1.181-2.639,2.637-2.639h61.871c1.455,0,2.636,1.183,2.636,2.639
				c0,1.458-1.181,2.639-2.636,2.639H58.502L58.502,76.421z M58.502,86.9c-1.456,0-2.637-1.18-2.637-2.636
				c0-1.458,1.181-2.641,2.637-2.641h61.871c1.455,0,2.636,1.183,2.636,2.641c0,1.456-1.181,2.636-2.636,2.636H58.502L58.502,86.9z
				 M58.502,97.382c-1.456,0-2.637-1.18-2.637-2.639c0-1.457,1.181-2.638,2.637-2.638h54.925c1.455,0,2.636,1.182,2.636,2.638
				c0,1.459-1.181,2.639-2.636,2.639H58.502L58.502,97.382z M58.502,107.862c-1.456,0-2.637-1.185-2.637-2.64
				c0-1.457,1.181-2.636,2.637-2.636h44.444c1.456,0,2.636,1.179,2.636,2.636c0,1.455-1.18,2.64-2.636,2.64H58.502L58.502,107.862z
				 M63.411,137.395c-0.688,1.437-2.244,2.093-3.62,1.464c-1.33-0.608-2.04-2.207-1.728-3.735c0.575-2.852,2.58-6.024,4.26-8.38
				c4.18-5.874,9.907-9.645,14.685-10.434c0.177-0.028,0.355-0.055,0.534-0.074c2.671-0.291,3.965,1.298,4.291,4.029
				c0.312,2.593-1.098,6.78-2.526,10.388c0.764-0.613,1.568-1.254,2.356-1.858c1.669-1.276,3.209-2.451,4.265-3.125
				c3.78-2.415,5.768-2.088,6.846,0.054c0.991,1.968,0.097,3.716-0.992,5.839c-0.31,0.603-0.651,1.273-0.917,1.859h10.147
				c1.587,0,2.876,1.452,2.876,3.243s-1.289,3.242-2.876,3.242c-3.731,0-7.515,0.058-11.226,0.009
				c-3.841-0.062-5.155-2.156-5.155-5.128c0-0.146,0.005-0.29,0.018-0.438c-3.312,2.525-7.054,5.354-9.659,5.742
				c-0.478,0.11-0.994,0.086-1.493-0.097c-2.09-0.783-2.912-2.537-2.016-5.573c0.226-0.762,0.687-1.863,1.267-3.251
				c0.972-2.325,2.34-5.585,3.003-7.848c-3,1.17-6.3,3.785-8.937,7.488C65.315,132.915,64.5,135.091,63.411,137.395L63.411,137.395z
				 M51.641,41.963c-4.644,0-8.308,3.683-8.308,8.325v99.171c0,5.046,3.664,8.578,8.674,8.578h75.314c4.544,0,8.22-3.709,8.22-8.246
				v-16.48l-6.474,6.477c-0.443,0.442-0.928,0.837-1.439,1.183v9.183H51.247V49.848h76.381v30.697l7.913-7.913V50.172
				c0-4.54-3.723-8.209-8.249-8.209H51.641z"/>
			
				<circle fill-rule="evenodd" clip-rule="evenodd" fill="#3E4545" stroke="#6AC4A9" stroke-width="4.4646" cx="135.892" cy="107.422" r="32.775"/>
			<g>
				<path fill="#FFFFFF" d="M114.353,103.55c0-2.846,2.313-5.142,5.161-5.142c2.677,0,4.865,2.019,5.121,4.61
					c0,0.021,0,0.021,0.021,0.041c0.021,0.406,0.043,0.811,0.043,1.212c0,1.426-0.214,2.956-0.745,4.358
					c-0.53,1.401-1.403,2.738-2.742,3.632c-0.89,0.594-1.976,0.957-3.187,1c-0.659,0.021-1.189-0.469-1.232-1.128
					c-0.02-0.636,0.488-1.167,1.148-1.231c0.808-0.023,1.443-0.255,1.998-0.595c0.531-0.359,0.975-0.849,1.337-1.487
					c0.106-0.171,0.193-0.362,0.277-0.552c-0.616,0.276-1.319,0.426-2.04,0.426C116.665,108.693,114.353,106.396,114.353,103.55z
					 M116.709,103.55c0,1.531,1.253,2.804,2.805,2.804c1.551,0,2.784-1.272,2.784-2.804c0-1.553-1.233-2.784-2.784-2.784
					C117.962,100.766,116.709,101.997,116.709,103.55z"/>
				<path fill="#FFFFFF" d="M126.915,105.845c0.022-1.955,0.51-3.719,1.445-5.079c0.892-1.36,2.273-2.358,3.953-2.358
					c1.635,0,3.038,0.998,3.932,2.358c0.912,1.36,1.423,3.124,1.423,5.079c0,1.934-0.511,3.718-1.423,5.078
					c-0.894,1.338-2.297,2.358-3.932,2.358c-1.68,0-3.062-1.021-3.953-2.358C127.425,109.563,126.938,107.778,126.915,105.845z
					 M135.308,105.845c0-1.528-0.423-2.868-1.02-3.782c-0.614-0.892-1.317-1.317-1.975-1.297c-0.66-0.021-1.383,0.405-2.019,1.297
					c-0.596,0.914-1.021,2.254-1.021,3.782c0,1.51,0.426,2.869,1.021,3.762c0.636,0.913,1.358,1.316,2.019,1.316
					c0.657,0,1.36-0.403,1.975-1.316C134.885,108.714,135.308,107.354,135.308,105.845z"/>
				<path fill="#FFFFFF" d="M140.731,102.083v-0.042c0-2.082,1.425-3.803,3.529-3.803c2.104,0,3.482,1.721,3.482,3.759v0.044
					c0,2.06-1.401,3.804-3.525,3.804C142.135,105.845,140.731,104.125,140.731,102.083z M145.853,102.083v-0.042
					c0-1.188-0.68-2.168-1.635-2.168c-0.999,0-1.594,0.98-1.594,2.125v0.044c0,1.213,0.681,2.168,1.637,2.168
					C145.258,104.209,145.853,103.229,145.853,102.083z M143.177,112.007l9.752-13.323c0.149-0.254,0.426-0.382,0.722-0.382
					c0.47,0,0.852,0.36,0.852,0.827c0,0.214-0.084,0.405-0.191,0.554l-9.754,13.322c-0.169,0.256-0.447,0.384-0.744,0.384
					c-0.466,0-0.827-0.364-0.827-0.831C142.985,112.347,143.069,112.155,143.177,112.007z M149.72,109.689v-0.042
					c0-2.083,1.424-3.803,3.527-3.803c2.084,0,3.484,1.72,3.484,3.762v0.041c0,2.062-1.423,3.803-3.525,3.803
					C151.123,113.45,149.72,111.731,149.72,109.689z M154.841,109.689v-0.042c0-1.19-0.682-2.167-1.635-2.167
					c-1,0-1.595,0.977-1.595,2.126v0.041c0,1.211,0.679,2.167,1.636,2.167C154.245,111.814,154.841,110.839,154.841,109.689z"/>
			</g>
		</g>
	</g>
</g>
</svg>
