<?xml version="1.0" encoding="utf-8"?>
<!-- Generator: Adobe Illustrator 25.2.0, SVG Export Plug-In . SVG Version: 6.00 Build 0)  -->
<svg version="1.1" xmlns="http://www.w3.org/2000/svg" xmlns:xlink="http://www.w3.org/1999/xlink" x="0px" y="0px"
	 viewBox="0 0 510 510" style="enable-background:new 0 0 510 510;" xml:space="preserve">
<style type="text/css">
	.st0{display:none;}
	.st1{display:inline;fill:#35354B;}
	.st2{display:inline;fill:#FFFFFF;}
	.st3{font-family:'Montserrat-Regular';}
	.st4{font-size:22px;}
	.st5{letter-spacing:4;}
	.st6{display:inline;}
	.st7{fill:#FFFFFF;}
	.st8{font-family:'Montserrat-Bold';}
	.st9{font-size:58px;}
	.st10{opacity:0.5;fill:#0E0F1D;}
	.st11{fill:#26B56E;}
</style>
<g id="Layer_2" class="st0">
	<rect class="st1" width="510" height="510"/>
</g>
<g id="Layer_3" class="st0">
	<text transform="matrix(1 0 0 1 94.324 159.2169)" class="st2 st3 st4 st5">LARGE HOSPITAL/IDN</text>
	<text transform="matrix(1 0 0 1 59.1073 258.1354)" class="st6"><tspan x="0" y="0" class="st7 st8 st9">ACUTE CARE</tspan><tspan x="127.7" y="69.6" class="st7 st8 st9">EMR</tspan></text>
	<g class="st6">
		<text transform="matrix(1 0 0 1 175.5358 401.7194)" class="st7 st3 st4 st5">200+ BEDS</text>
	</g>
</g>
<g id="Layer_1">
	<circle class="st10" cx="255" cy="255" r="246.4"/>
	<path class="st11" d="M255,505c-33.7,0-66.5-6.6-97.3-19.6c-29.8-12.6-56.5-30.6-79.5-53.6c-23-23-41-49.7-53.6-79.5
		C11.6,321.5,5,288.7,5,255s6.6-66.5,19.6-97.3c12.6-29.8,30.6-56.5,53.6-79.5s49.7-41,79.5-53.6C188.5,11.6,221.3,5,255,5
		s66.5,6.6,97.3,19.6c29.8,12.6,56.5,30.6,79.5,53.6c23,23,41,49.7,53.6,79.5c13,30.8,19.6,63.6,19.6,97.3
		c0,33.7-6.6,66.5-19.6,97.3c-12.6,29.8-30.6,56.5-53.6,79.5c-23,23-49.7,41-79.5,53.6C321.5,498.4,288.7,505,255,505z M255,12.3
		C121.2,12.3,12.3,121.2,12.3,255c0,133.8,108.9,242.7,242.7,242.7c133.8,0,242.7-108.9,242.7-242.7
		C497.7,121.2,388.8,12.3,255,12.3L255,12.3z"/>
	<g>
		<path class="st7" d="M96.6,143.8h1.6v14h8.6v1.4H96.6V143.8z"/>
		<path class="st7" d="M123.7,155.1h-8.6l-1.8,4.1h-1.7l7-15.4h1.6l7,15.4h-1.7L123.7,155.1z M123.1,153.8l-3.7-8.3l-3.7,8.3H123.1z
			"/>
		<path class="st7" d="M144.7,159.2l-3.5-5c-0.4,0-0.8,0.1-1.2,0.1h-4.1v4.9h-1.6v-15.4h5.8c3.9,0,6.3,2,6.3,5.3
			c0,2.4-1.3,4.1-3.5,4.8l3.8,5.3H144.7z M144.6,149.1c0-2.5-1.6-3.9-4.7-3.9h-4.1v7.7h4.1C143,152.9,144.6,151.5,144.6,149.1z"/>
		<path class="st7" d="M165.3,151.5h1.6v5.9c-1.5,1.3-3.5,2-5.7,2c-4.7,0-8.1-3.3-8.1-7.8s3.4-7.8,8.1-7.8c2.3,0,4.4,0.7,5.7,2.2
			l-1,1c-1.3-1.3-2.8-1.8-4.6-1.8c-3.8,0-6.6,2.7-6.6,6.4c0,3.7,2.8,6.4,6.6,6.4c1.5,0,2.8-0.3,4-1.2V151.5z"/>
		<path class="st7" d="M186.8,157.8v1.4h-10.9v-15.4h10.6v1.4h-8.9v5.5h8v1.4h-8v5.7H186.8z"/>
		<path class="st7" d="M218,143.8v15.4h-1.6v-7.1h-9.6v7.1h-1.6v-15.4h1.6v6.9h9.6v-6.9H218z"/>
		<path class="st7" d="M226.1,151.5c0-4.5,3.4-7.8,8.1-7.8c4.6,0,8.1,3.3,8.1,7.8s-3.5,7.8-8.1,7.8
			C229.5,159.3,226.1,156,226.1,151.5z M240.6,151.5c0-3.7-2.8-6.4-6.4-6.4c-3.7,0-6.5,2.7-6.5,6.4c0,3.7,2.8,6.4,6.5,6.4
			C237.9,157.9,240.6,155.2,240.6,151.5z"/>
		<path class="st7" d="M248.8,157.3l0.6-1.3c1.1,1.1,3.1,1.9,5.1,1.9c2.9,0,4.1-1.2,4.1-2.7c0-4.2-9.5-1.6-9.5-7.3
			c0-2.3,1.8-4.2,5.7-4.2c1.7,0,3.5,0.5,4.8,1.4l-0.5,1.3c-1.3-0.9-2.9-1.3-4.2-1.3c-2.8,0-4.1,1.3-4.1,2.8c0,4.2,9.5,1.7,9.5,7.3
			c0,2.3-1.8,4.2-5.7,4.2C252.2,159.3,250,158.5,248.8,157.3z"/>
		<path class="st7" d="M280.3,149.1c0,3.3-2.4,5.3-6.3,5.3h-4.1v4.9h-1.6v-15.4h5.8C277.9,143.8,280.3,145.8,280.3,149.1z
			 M278.7,149.1c0-2.5-1.6-3.9-4.7-3.9h-4.1v7.7h4.1C277,152.9,278.7,151.5,278.7,149.1z"/>
		<path class="st7" d="M288.2,143.8h1.6v15.4h-1.6V143.8z"/>
		<path class="st7" d="M302.2,145.2h-5.4v-1.4h12.5v1.4h-5.4v14h-1.6V145.2z"/>
		<path class="st7" d="M325.2,155.1h-8.6l-1.8,4.1H313l7-15.4h1.6l7,15.4H327L325.2,155.1z M324.6,153.8l-3.7-8.3l-3.7,8.3H324.6z"
			/>
		<path class="st7" d="M335.7,143.8h1.6v14h8.6v1.4h-10.3V143.8z"/>
		<path class="st7" d="M357.8,140.7h1.4l-7.3,20.7h-1.4L357.8,140.7z"/>
		<path class="st7" d="M365.4,143.8h1.6v15.4h-1.6V143.8z"/>
		<path class="st7" d="M376.4,143.8h6.3c4.9,0,8.3,3.2,8.3,7.7s-3.3,7.7-8.3,7.7h-6.3V143.8z M382.6,157.8c4.1,0,6.7-2.6,6.7-6.3
			c0-3.7-2.6-6.3-6.7-6.3H378v12.6H382.6z"/>
		<path class="st7" d="M411.9,143.8v15.4h-1.3l-9.9-12.5v12.5H399v-15.4h1.3l9.9,12.5v-12.5H411.9z"/>
	</g>
	<g>
		<path class="st7" d="M92.4,249.4H73.6l-3.6,8.7h-9.6l18.1-40.6h9.3l18.2,40.6H96L92.4,249.4z M89.5,242.3L83,226.8l-6.4,15.5H89.5
			z"/>
		<path class="st7" d="M107,237.8c0-12.2,9.4-21,22-21c7,0,12.9,2.6,16.7,7.2l-6,5.6c-2.7-3.1-6.1-4.8-10.2-4.8c-7.6,0-13,5.3-13,13
			c0,7.7,5.4,13,13,13c4.1,0,7.5-1.6,10.2-4.8l6,5.6c-3.8,4.7-9.7,7.2-16.8,7.2C116.4,258.8,107,250.1,107,237.8z"/>
		<path class="st7" d="M151.4,240.3v-22.7h9.4v22.4c0,7.7,3.4,10.9,9,10.9c5.7,0,9-3.2,9-10.9v-22.4h9.3v22.7
			c0,11.9-6.8,18.6-18.4,18.6C158.2,258.8,151.4,252.2,151.4,240.3z"/>
		<path class="st7" d="M205.1,225.2h-13v-7.7h35.4v7.7h-13v32.9h-9.4V225.2z"/>
		<path class="st7" d="M264,250.6v7.5h-31.4v-40.6h30.7v7.5h-21.3v8.8h18.8v7.3h-18.8v9.4H264z"/>
		<path class="st7" d="M285.3,237.8c0-12.2,9.4-21,22-21c7,0,12.9,2.6,16.7,7.2l-6,5.6c-2.7-3.1-6.1-4.8-10.2-4.8
			c-7.6,0-13,5.3-13,13c0,7.7,5.4,13,13,13c4.1,0,7.5-1.6,10.2-4.8l6,5.6c-3.8,4.7-9.7,7.2-16.8,7.2
			C294.7,258.8,285.3,250.1,285.3,237.8z"/>
		<path class="st7" d="M356.3,249.4h-18.8l-3.6,8.7h-9.6l18.1-40.6h9.3l18.2,40.6h-9.9L356.3,249.4z M353.4,242.3l-6.4-15.5
			l-6.4,15.5H353.4z"/>
		<path class="st7" d="M399.9,258.1l-7.8-11.3h-0.5h-8.2v11.3H374v-40.6h17.6c10.8,0,17.6,5.6,17.6,14.7c0,6.1-3.1,10.6-8.4,12.8
			l9.1,13H399.9z M391.1,225.2h-7.7v14.2h7.7c5.7,0,8.6-2.7,8.6-7.1C399.7,227.8,396.8,225.2,391.1,225.2z"/>
		<path class="st7" d="M448.1,250.6v7.5h-31.4v-40.6h30.7v7.5H426v8.8h18.8v7.3H426v9.4H448.1z"/>
		<path class="st7" d="M223.6,320.2v7.5h-31.4v-40.6h30.7v7.5h-21.3v8.8h18.8v7.3h-18.8v9.4H223.6z"/>
		<path class="st7" d="M268,327.7l-0.1-24.4L256,323.4h-4.2l-11.9-19.5v23.8h-8.8v-40.6h7.8l15.2,25.2l15-25.2h7.7l0.1,40.6H268z"/>
		<path class="st7" d="M312.3,327.7l-7.8-11.3H304h-8.2v11.3h-9.4v-40.6H304c10.8,0,17.6,5.6,17.6,14.7c0,6.1-3.1,10.6-8.4,12.8
			l9.1,13H312.3z M303.5,294.8h-7.7v14.2h7.7c5.7,0,8.6-2.7,8.6-7.1C312.2,297.4,309.3,294.8,303.5,294.8z"/>
	</g>
	<g>
		<g>
			<path class="st7" d="M187,400.3v1.4h-10.8v-1.1l6.4-6.3c1.7-1.7,2.1-2.8,2.1-3.8c0-1.8-1.3-2.9-3.6-2.9c-1.8,0-3.2,0.6-4.2,1.7
				l-1.1-1c1.2-1.4,3.1-2.2,5.5-2.2c3.1,0,5.1,1.6,5.1,4.2c0,1.5-0.5,2.8-2.5,4.8l-5.2,5.1H187z"/>
			<path class="st7" d="M193.3,394c0-4.9,2.6-7.8,6.1-7.8s6.2,2.9,6.2,7.8s-2.6,7.8-6.2,7.8S193.3,398.9,193.3,394z M204,394
				c0-4.1-1.8-6.4-4.5-6.4c-2.7,0-4.5,2.3-4.5,6.4s1.8,6.4,4.5,6.4C202.1,400.4,204,398.1,204,394z"/>
			<path class="st7" d="M212.3,394c0-4.9,2.6-7.8,6.1-7.8s6.2,2.9,6.2,7.8s-2.6,7.8-6.2,7.8S212.3,398.9,212.3,394z M223,394
				c0-4.1-1.8-6.4-4.5-6.4c-2.7,0-4.5,2.3-4.5,6.4s1.8,6.4,4.5,6.4C221.1,400.4,223,398.1,223,394z"/>
			<path class="st7" d="M241.4,394.7h-4.1v4h-1.4v-4h-4.1v-1.3h4.1v-4h1.4v4h4.1V394.7z"/>
			<path class="st7" d="M272.9,397.6c0,2.6-1.9,4.1-5.8,4.1H260v-15.4h6.6c3.4,0,5.4,1.5,5.4,4c0,1.8-0.9,2.9-2.4,3.5
				C271.7,394.2,272.9,395.5,272.9,397.6z M261.6,387.7v5.6h4.9c2.5,0,3.9-0.9,3.9-2.8s-1.4-2.8-3.9-2.8H261.6z M271.3,397.5
				c0-2-1.5-2.9-4.2-2.9h-5.4v5.8h5.4C269.8,400.4,271.3,399.5,271.3,397.5z"/>
			<path class="st7" d="M291.9,400.3v1.4H281v-15.4h10.6v1.4h-8.9v5.5h8v1.4h-8v5.7H291.9z"/>
			<path class="st7" d="M300.1,386.3h6.3c4.9,0,8.3,3.2,8.3,7.7s-3.3,7.7-8.3,7.7h-6.3V386.3z M306.3,400.3c4.1,0,6.7-2.6,6.7-6.3
				c0-3.7-2.6-6.3-6.7-6.3h-4.6v12.6H306.3z"/>
			<path class="st7" d="M321.2,399.8l0.6-1.3c1.1,1.1,3.1,1.9,5.1,1.9c2.9,0,4.1-1.2,4.1-2.7c0-4.2-9.5-1.6-9.5-7.3
				c0-2.3,1.8-4.2,5.7-4.2c1.7,0,3.5,0.5,4.8,1.4l-0.5,1.3c-1.3-0.9-2.9-1.3-4.2-1.3c-2.8,0-4.1,1.3-4.1,2.8c0,4.2,9.5,1.7,9.5,7.3
				c0,2.3-1.8,4.2-5.7,4.2C324.6,401.9,322.4,401,321.2,399.8z"/>
		</g>
	</g>
</g>
</svg>
