<?xml version="1.0" encoding="utf-8"?>
<!-- Generator: Adobe Illustrator 26.2.1, SVG Export Plug-In . SVG Version: 6.00 Build 0)  -->
<svg version="1.1" xmlns="http://www.w3.org/2000/svg" xmlns:xlink="http://www.w3.org/1999/xlink" x="0px" y="0px"
	 viewBox="0 0 50 50" style="enable-background:new 0 0 50 50;" xml:space="preserve">
<style type="text/css">
	.st0{opacity:0.15;fill:#0075A8;}
	.st1{fill:none;stroke:#32325D;stroke-linecap:round;stroke-linejoin:round;stroke-miterlimit:10;}
</style>
<g id="Layer_1">
</g>
<g id="Layer_2">
	<g>
		<path class="st0" d="M44.1,36c0.2,4.8-11.5,11.5-21.9,9.5C12.6,43.7,3.4,34.3,4.1,23.2C4.8,14,12.3,4.9,17.9,5.6
			c6.6,0.8,5.5,14.2,19,24.3C41.2,33,44,33.7,44.1,36z"/>
		<g>
			<line class="st1" x1="12.6" y1="12.5" x2="30.4" y2="12.5"/>
			<line class="st1" x1="30.4" y1="34.7" x2="12.6" y2="34.7"/>
			<path class="st1" d="M29.1,8.6c-0.5-0.3-1-0.5-1.7-0.5H15.6c-0.2,0-0.4,0-0.5,0.1c-0.1,0-0.2,0-0.3,0.1c-0.1,0-0.1,0-0.2,0.1
				c-0.1,0-0.2,0.1-0.3,0.2c0,0-0.1,0-0.1,0c-0.1,0.1-0.2,0.1-0.4,0.2l0,0l0,0c-0.7,0.5-1.2,1.4-1.2,2.3v25.2c0,1.6,1.3,3,3,3h1.5
				h10.4c0.8,0,1.6-0.3,2.1-0.9c0.3-0.3,0.5-0.6,0.6-0.9c0.1-0.4,0.2-0.7,0.2-1.2v-5.9V12.5V11C30.4,10,29.9,9.1,29.1,8.6z"/>
		</g>
		<polygon class="st1" points="25.4,22.1 23,22.1 23,19.7 20,19.7 20,22.1 17.6,22.1 17.6,25.2 20,25.2 20,27.5 23,27.5 23,25.2 
			25.4,25.2 		"/>
	</g>
</g>
</svg>
