<?xml version="1.0" encoding="utf-8"?>
<!-- Generator: Adobe Illustrator 25.2.0, SVG Export Plug-In . SVG Version: 6.00 Build 0)  -->
<svg version="1.1" id="Layer_1" xmlns="http://www.w3.org/2000/svg" xmlns:xlink="http://www.w3.org/1999/xlink" x="0px" y="0px"
	 viewBox="0 0 140 124.1" style="enable-background:new 0 0 140 124.1;" xml:space="preserve">
<style type="text/css">
	.st0{opacity:0.2;fill:#00BC6F;}
	.st1{fill:none;stroke:#32325D;stroke-width:2;stroke-linecap:round;stroke-linejoin:round;stroke-miterlimit:10;}
	.st2{opacity:0.2;}
	.st3{fill:#00BC6F;}
	.st4{opacity:0.2;fill:none;stroke:#00BC6F;stroke-width:4;stroke-linecap:round;stroke-linejoin:round;stroke-miterlimit:10;}
</style>
<path class="st0" d="M125.6,49.8c-2.4,0-4.4,1.9-4.4,4.4c0,2.4,1.9,4.4,4.4,4.4s4.4-1.9,4.4-4.4C130,51.7,128,49.8,125.6,49.8z"/>
<path class="st1" d="M127.2,51.4c0,2.4-1.9,4.4-4.4,4.4s-4.4-1.9-4.4-4.4s1.9-4.4,4.4-4.4S127.2,49,127.2,51.4z"/>
<g>
	<path class="st1" d="M96.6,119.2l3.5-11.8c1.9-6.5,2.9-13.2,2.9-20v-4c0-2.6-2.1-4.7-4.7-4.7l0,0c-2.6,0-4.7,2.1-4.7,4.7v-5
		c0-2.6-2.1-4.7-4.7-4.7l0,0c-2.6,0-4.7,2.1-4.7,4.7v-4.4c0-2.6-2.1-4.7-4.7-4.7l0,0c-2.6,0-4.7,2.1-4.7,4.7V58.3
		c0-2.6-2.1-4.7-4.7-4.7l0,0c-2.6,0-4.7,2.1-4.7,4.7v33.4l-6.7-7c-1.9-2.3-5.3-2.7-7.6-0.8l0,0c-1.7,1.4-2.1,3.9-0.9,5.8l12.4,18.6
		c0.4,0.6,0.7,1.1,1,1.7l4.8,9.3"/>
	<line class="st1" x1="74.8" y1="58.3" x2="74.8" y2="81.8"/>
	<line class="st1" x1="84.2" y1="73.9" x2="84.2" y2="84.4"/>
	<path class="st1" d="M88.9,73.6c2.6,0,4.7,2.1,4.7,4.7v10"/>
</g>
<g class="st2">
	<path class="st3" d="M96.8,37.5c0.5-1,1.3-1,1.8,0l1.9,3.8c0.5,1,1.8,1.9,2.9,2.1l4.2,0.6c1.1,0.2,1.3,0.9,0.5,1.7l-3,3
		c-0.8,0.8-1.3,2.3-1.1,3.4l0.7,4.2c0.2,1.1-0.5,1.6-1.4,1l-3.8-2c-1-0.5-2.6-0.5-3.5,0l-3.8,2c-1,0.5-1.6,0-1.4-1l0.7-4.2
		c0.2-1.1-0.3-2.6-1.1-3.4l-3-3c-0.8-0.8-0.5-1.5,0.5-1.7l4.2-0.6c1.1-0.2,2.4-1.1,2.9-2.1L96.8,37.5z"/>
</g>
<polygon class="st1" points="94.9,32.5 98.4,39.5 106.1,40.6 100.5,46 101.8,53.7 94.9,50.1 88,53.7 89.3,46 83.7,40.6 91.5,39.5 
	"/>
<line class="st4" x1="16.1" y1="58" x2="16.1" y2="50.8"/>
<line class="st1" x1="13.9" y1="55" x2="13.9" y2="47.8"/>
<path class="st1" d="M46,97.9H9.4c-2.4,0-4.4-2-4.4-4.4V9.3c0-2.4,2-4.4,4.4-4.4h121.2c2.4,0,4.4,2,4.4,4.4v84.2
	c0,2.4-2,4.4-4.4,4.4h-20.8"/>
<g class="st2">
	<path class="st3" d="M72.1,27.8c0.5-1,1.3-1,1.8,0l1.9,3.8c0.5,1,1.8,1.9,2.9,2.1l4.2,0.6c1.1,0.2,1.3,0.9,0.5,1.7l-3,3
		c-0.8,0.8-1.3,2.3-1.1,3.4l0.7,4.2c0.2,1.1-0.5,1.6-1.4,1l-3.8-2c-1-0.5-2.6-0.5-3.5,0l-3.8,2c-1,0.5-1.6,0-1.4-1l0.7-4.2
		c0.2-1.1-0.3-2.6-1.1-3.4l-3-3c-0.8-0.8-0.5-1.5,0.5-1.7l4.2-0.6c1.1-0.2,2.4-1.1,2.9-2.1L72.1,27.8z"/>
</g>
<polygon class="st1" points="70.3,22.8 73.7,29.8 81.5,31 75.9,36.4 77.2,44.1 70.3,40.5 63.4,44.1 64.7,36.4 59.1,31 66.8,29.8 "/>
<g class="st2">
	<path class="st3" d="M47.7,38.5c0.5-1,1.3-1,1.8,0l1.9,3.8c0.5,1,1.8,1.9,2.9,2.1l4.2,0.6c1.1,0.2,1.3,0.9,0.5,1.7l-3,3
		c-0.8,0.8-1.3,2.3-1.1,3.4l0.7,4.2c0.2,1.1-0.5,1.6-1.4,1l-3.8-2c-1-0.5-2.6-0.5-3.5,0l-3.8,2c-1,0.5-1.6,0-1.4-1l0.7-4.2
		c0.2-1.1-0.3-2.6-1.1-3.4l-3-3c-0.8-0.8-0.5-1.5,0.5-1.7l4.2-0.6c1.1-0.2,2.4-1.1,2.9-2.1L47.7,38.5z"/>
</g>
<polygon class="st1" points="45.9,33.5 49.3,40.5 57,41.6 51.4,47 52.8,54.7 45.9,51.1 38.9,54.7 40.3,47 34.7,41.6 42.4,40.5 "/>
</svg>
