<?xml version="1.0" encoding="utf-8"?>
<!-- Generator: Adobe Illustrator 24.0.2, SVG Export Plug-In . SVG Version: 6.00 Build 0)  -->
<svg version="1.1" id="Layer_1" xmlns="http://www.w3.org/2000/svg" xmlns:xlink="http://www.w3.org/1999/xlink" x="0px" y="0px"
	 viewBox="0 0 198.7 198.7" style="enable-background:new 0 0 198.7 198.7;" xml:space="preserve">
<style type="text/css">
	.st0{display:none;}
	.st1{display:inline;}
	.st2{fill:#52C0B2;}
	.st3{fill:#0A3E64;}
	.st4{fill:#FFFFFF;}
	.st5{fill:#53C1B2;}
	.st6{fill:none;stroke:#0A3E64;stroke-width:5.1281;stroke-linecap:round;stroke-miterlimit:10;}
	.st7{fill:none;stroke:#53C1B2;stroke-width:4.7838;stroke-linecap:round;stroke-miterlimit:10;}
	.st8{fill:#0A3E64;stroke:#0A3E64;stroke-width:0.993;}
	.st9{fill:#0A3E64;stroke:#0A3E64;stroke-width:0.9636;}
	.st10{fill:#FFFFFF;stroke:#FFFFFF;stroke-width:3.9917;}
	.st11{fill:#F1F1F2;}
	.st12{fill:#FFFFFF;stroke:#FFFFFF;stroke-width:2.4047;stroke-miterlimit:10;}
	.st13{fill:none;stroke:#FFFFFF;stroke-width:5.4192;stroke-linecap:round;}
	.st14{display:inline;fill:#FFFFFF;}
	.st15{fill:#0A3E64;stroke:#0A3E64;stroke-width:1.4829;}
	.st16{fill:none;stroke:#0A3E64;stroke-width:2.9752;stroke-linecap:round;}
	.st17{fill:#003A69;stroke:#003A69;stroke-width:2.1298;stroke-miterlimit:10;}
	.st18{fill:#003A69;stroke:#003A69;stroke-width:2.1298;stroke-miterlimit:9.9999;}
	.st19{fill:#003A69;stroke:#003A69;stroke-width:2.1299;stroke-miterlimit:10.0006;}
	.st20{fill:#003A69;stroke:#003A69;stroke-width:1.8442;stroke-miterlimit:10;}
	.st21{display:inline;fill:#003A69;}
	.st22{fill:#003A69;}
	.st23{fill:#003A69;stroke:#003A69;stroke-width:3.4811;stroke-miterlimit:10;}
	.st24{display:inline;fill:#52C0B2;}
	.st25{display:inline;fill:#003A69;stroke:#003A69;stroke-width:1.7753;stroke-miterlimit:10;}
	.st26{fill:#003A69;stroke:#003A69;stroke-width:1.7753;stroke-miterlimit:10;}
	.st27{fill:none;stroke:#003A69;stroke-width:1.7753;stroke-miterlimit:10;}
	.st28{fill:#37B573;}
	.st29{display:inline;fill:#183C68;stroke:#183C68;stroke-width:1.6296;stroke-miterlimit:10;}
	.st30{display:inline;fill:none;stroke:#183C68;stroke-width:1.6296;stroke-miterlimit:10;}
	.st31{fill:#3E4545;stroke:#3E4545;stroke-width:1.6296;stroke-miterlimit:10;}
	.st32{fill:#FFFFFF;stroke:#FFFFFF;stroke-width:1.6296;stroke-miterlimit:10;}
	.st33{fill:#116854;}
</style>
<g id="Layer_1_1_" class="st0">
	<g id="Layer_5" class="st1">
	</g>
	<g id="Solutions" class="st1">
		<g id="Improve_Outcomes">
			<ellipse class="st2" cx="99.9" cy="101.2" rx="98.8" ry="94.4"/>
			<g>
				<g>
					<path class="st3" d="M66.2,133.9h9.3c1.4,0,2.5-0.9,2.5-2v-11.9c0-1.1-1.1-2-2.5-2h-9.3c-1.4,0-2.5,0.9-2.5,2v11.9
						C63.7,133,64.8,133.9,66.2,133.9z"/>
					<path class="st3" d="M87.6,133.9h9.3c1.4,0,2.5-0.9,2.5-2v-27.8c0-1.1-1.1-2-2.5-2h-9.3c-1.4,0-2.5,0.9-2.5,2v27.8
						C85.1,133,86.2,133.9,87.6,133.9z"/>
					<path class="st3" d="M108.9,133.9h9.3c1.4,0,2.5-0.9,2.5-2V88.3c0-1.1-1.1-2-2.5-2h-9.3c-1.4,0-2.5,0.9-2.5,2v43.6
						C106.4,133,107.6,133.9,108.9,133.9z"/>
					<path class="st3" d="M130.3,133.9h9.3c1.4,0,2.5-0.9,2.5-2V72.5c0-1.1-1.1-2-2.5-2h-9.3c-1.4,0-2.5,0.9-2.5,2v59.5
						C127.8,133,128.9,133.9,130.3,133.9z"/>
				</g>
				<path class="st4" d="M160.1,52.6H45.7c-4.6,0-8.4,4.5-8.4,10v78.8c0,5.5,3.8,10,8.4,10h114.3c4.6,0,8.4-4.5,8.4-10V62.6
					C168.5,57.1,164.7,52.6,160.1,52.6z M45.6,111.7c0,1.1-0.9,2.1-2.1,2.1c-1.1,0-2.1-0.9-2.1-2.1V92.2c0-1.1,0.9-2.1,2.1-2.1
					c1.1,0,2.1,0.9,2.1,2.1L45.6,111.7L45.6,111.7z M155.8,143.9H50V60.1h105.9V143.9z"/>
			</g>
			<ellipse class="st5" cx="162.3" cy="101.6" rx="3.5" ry="3.3"/>
		</g>
		<g id="Be_Ready_from_the_Start">
			<ellipse class="st2" cx="99.9" cy="100.7" rx="98.6" ry="94.2"/>
			<path class="st4" d="M52.3,55.7h8.8v-7.9c0-2.6,2.1-4.6,4.6-4.6c2.6,0,4.6,2.1,4.6,4.6v19.9c0,2.6-2.1,4.6-4.6,4.6
				c-2.6,0-4.6-2.1-4.6-4.6V64h-8.3v17.2h86.9V64h-9.1l0-8.3h9.5c4.3,0,7.9,3.5,7.9,7.9v39.6c-2.6-1.3-5.4-2.3-8.4-2.8V86.7H52.7
				v49.8h48c0.3,2.9,1.1,5.7,2.1,8.4H52.3c-2.2,0-4.1-0.9-5.6-2.3c-1.4-1.4-2.3-3.4-2.3-5.6V63.5C44.4,59.2,47.9,55.7,52.3,55.7
				L52.3,55.7z M97.7,67.6c0,2.6-2.1,4.6-4.6,4.6c-2.6,0-4.6-2.1-4.6-4.6V64H75.9l0-8.3h12.5v-8c0-2.6,2.1-4.6,4.6-4.6
				s4.6,2.1,4.6,4.6L97.7,67.6L97.7,67.6z M125.1,67.7c0,2.6-2.1,4.6-4.6,4.6c-2.6,0-4.6-2.1-4.6-4.6V64h-12.6l0-8.3h12.5v-7.9
				c0-2.6,2.1-4.6,4.6-4.6c2.6,0,4.6,2.1,4.6,4.6L125.1,67.7L125.1,67.7z"/>
			<g>
				<path class="st3" d="M72.9,107.3c0,1-0.8,1.7-1.8,1.7H60.1c-1,0-1.7-0.8-1.7-1.7v-9.5c0-1,0.8-1.7,1.7-1.7h11.1
					c1,0,1.8,0.8,1.8,1.7V107.3z"/>
				<path class="st3" d="M72.9,126.7c0,1-0.8,1.7-1.8,1.7H60.1c-1,0-1.8-0.8-1.8-1.7v-9.6c0-1,0.8-1.7,1.8-1.7h11.1
					c1,0,1.8,0.8,1.8,1.7L72.9,126.7L72.9,126.7L72.9,126.7z"/>
				<path class="st3" d="M93.3,107.3c0,1-0.8,1.7-1.7,1.7H80.5c-1,0-1.7-0.8-1.7-1.7v-9.5c0-1,0.8-1.7,1.7-1.7h11.1
					c1,0,1.7,0.8,1.7,1.7V107.3z"/>
				<path class="st3" d="M93.3,126.7c0,1-0.8,1.7-1.7,1.7H80.5c-1,0-1.8-0.8-1.8-1.7v-9.6c0-1,0.8-1.7,1.8-1.7h11.1
					c1,0,1.7,0.8,1.7,1.7V126.7z"/>
				<path class="st3" d="M113.7,107.3c0,1-0.8,1.7-1.7,1.7h-11.1c-1,0-1.7-0.8-1.7-1.7v-9.5c0-1,0.8-1.7,1.7-1.7H112
					c1,0,1.7,0.8,1.7,1.7V107.3z"/>
				<path class="st3" d="M134.1,107.3c0,1-0.8,1.7-1.7,1.7h-11.1c-1,0-1.8-0.8-1.8-1.7v-9.5c0-1,0.8-1.7,1.8-1.7h11.1
					c1,0,1.7,0.8,1.7,1.7V107.3z"/>
				<path class="st3" d="M113.7,126.7c0,1-0.8,1.7-1.7,1.7h-11.1c-1,0-1.7-0.8-1.7-1.7v-9.5c0-1,0.8-1.7,1.7-1.7H112
					c1,0,1.7,0.8,1.7,1.7C113.7,117.2,113.7,126.7,113.7,126.7z"/>
			</g>
			<g>
				<circle class="st5" cx="131.6" cy="131.5" r="22.5"/>
				<g>
					<g>
						<path class="st4" d="M131.7,104.4c-14.9,0-27,12.1-27,27c0,14.9,12.1,27,27,27c14.9,0,27.1-12.1,27.1-27
							C158.8,116.6,146.6,104.4,131.7,104.4z M131.7,152.7c-11.7,0-21.2-9.5-21.2-21.2s9.5-21.2,21.2-21.2
							c11.7,0,21.2,9.5,21.2,21.2C152.9,143.2,143.4,152.7,131.7,152.7z"/>
					</g>
				</g>
			</g>
			<line class="st6" x1="131" y1="118.4" x2="131" y2="133.3"/>
			<line class="st6" x1="131" y1="133.3" x2="137.2" y2="139.5"/>
		</g>
		<g id="Drive_Financial_Performance">
			<ellipse class="st2" cx="100" cy="100.9" rx="98.5" ry="94.1"/>
			<g>
				<g>
					<g>
						<g>
							<path class="st4" d="M147.5,97.3h-21.1c-1.5,0-2.7-1.2-2.7-2.7c0-1.5,1.2-2.7,2.7-2.7h21.1c1.5,0,2.7,1.2,2.7,2.7
								C150.2,96.1,149,97.3,147.5,97.3z"/>
						</g>
						<g>
							<path class="st4" d="M152.2,78.6h-30.5l5,10.7h20.6L152.2,78.6L152.2,78.6z"/>
						</g>
					</g>
					<g>
						<g>
							<path class="st4" d="M73.5,97.3H52.4c-1.5,0-2.7-1.2-2.7-2.7c0-1.5,1.2-2.7,2.7-2.7h21.1c1.5,0,2.7,1.2,2.7,2.7
								C76.3,96.1,75,97.3,73.5,97.3z"/>
						</g>
						<g>
							<path class="st4" d="M78.3,78.6H47.7l5,10.7h20.5L78.3,78.6L78.3,78.6z"/>
						</g>
					</g>
					<path class="st4" d="M81.7,120.9l-9.5-21.4H53.8l-14.1,31.6c-1.4,7.9,3.9,14.3,12,14.3h19L81.7,120.9z"/>
					<path class="st4" d="M160.1,131.1l-14.1-31.6h-18.3l-9.2,20.7l11.2,25.3h18.4C156.2,145.4,161.6,139,160.1,131.1z"/>
					<g>
						<g>
							<path class="st4" d="M112.8,110.4h-25c-1.8,0-3.2-1.4-3.2-3.2c0-1.8,1.4-3.2,3.2-3.2h25c1.8,0,3.2,1.4,3.2,3.2
								C116,108.9,114.5,110.4,112.8,110.4z"/>
						</g>
						<g>
							<path class="st4" d="M118.4,88.2H82.2l5.9,12.7h24.4L118.4,88.2L118.4,88.2z"/>
						</g>
						<path class="st4" d="M127.8,150.4l-16.7-37.5H89.4l-16.7,37.5c-1.7,9.4,4.7,17,14.2,17h26.7
							C123.1,167.4,129.5,159.8,127.8,150.4z"/>
					</g>
				</g>
				<polygon class="st3" points="59,71.2 68.1,71.2 68.1,57 74.5,57 63.5,44.6 52.5,57 59,57 				"/>
				<polygon class="st3" points="95.5,80.4 104.5,80.4 104.5,40.9 111,40.9 100,28.5 89,40.9 95.5,40.9 				"/>
				<polygon class="st3" points="131.9,71.7 141,71.7 141,57 147.4,57 136.4,44.6 125.4,57 131.9,57 				"/>
			</g>
			<g>
				<path class="st5" d="M100.3,125.7c0.8,0,1.4,0.6,1.4,1.4v0.7c2,0.2,3.6,0.9,5.2,1.8c0.5,0.3,1,0.8,1,1.6c0,1-0.8,1.8-1.9,1.8
					c-0.3,0-0.7-0.1-1-0.3c-1.2-0.7-2.3-1.2-3.4-1.5v6.4c5.1,1.3,7.3,3.3,7.3,6.9c0,3.7-2.9,6.1-7.1,6.5v2c0,0.8-0.6,1.4-1.4,1.4
					s-1.5-0.6-1.5-1.4v-2.1c-2.5-0.3-4.8-1.2-6.9-2.6c-0.6-0.4-0.9-0.9-0.9-1.6c0-1,0.8-1.8,1.8-1.8c0.4,0,0.8,0.1,1.1,0.4
					c1.6,1.1,3.1,1.9,4.9,2.2v-6.6c-4.9-1.3-7.2-3.1-7.2-6.9c0-3.6,2.8-6.1,7-6.4v-0.7C98.8,126.3,99.5,125.7,100.3,125.7z
					 M99,137.1v-5.9c-2.1,0.2-3.2,1.3-3.2,2.8C95.7,135.4,96.4,136.2,99,137.1z M101.6,141.7v6.1c2.1-0.2,3.3-1.3,3.3-2.9
					C104.9,143.4,104.2,142.5,101.6,141.7z"/>
			</g>
		</g>
		<g id="Focus_on_the_Patient">
			<path class="st2" d="M198.6,100.5c0,51.8-44,93.8-98.3,93.8C46,194.3,2,152.3,2,100.5S46,6.7,100.3,6.7
				C154.6,6.7,198.6,48.7,198.6,100.5z"/>
			<g>
				<path class="st3" d="M89.6,76.7h-6.1l0.6,4.1c0.1,0.6,0,1.2-0.2,1.7l-3.8,9.1l3.2,0L89.6,76.7z"/>
				<path class="st3" d="M109.6,88.2c-1.7-6.8-7.8-11.6-14.8-11.6h-0.5l8,23c0.5,1.5,0.3,3.2-0.7,4.6c-0.9,1.3-2.5,2.1-4.1,2.1h-2.3
					H77.1h-2.3c-1.9,0-3.7-0.8-5-2.1c-1.3-1.3-2-3.1-2-5l0-0.8c0-3.6,2.8-6.6,6.4-6.9l6.1-14.8H78c-7,0-13.1,4.8-14.8,11.6
					l-3.1,12.5c-1.5,5.9,3,20.5,9,20.5h34.6c6.1,0,10.5-14.6,9-20.5L109.6,88.2z"/>
				<path class="st3" d="M74.8,95.4L74.8,95.4c-0.8,0-1.5,0.3-2.1,0.8c-0.6,0.6-1,1.3-1,2.2l0,0.8c0,0.8,0.3,1.6,0.9,2.2
					c0.6,0.6,1.4,1,2.1,1h3.9l2.9-6.9l-3.2,0L74.8,95.4z"/>
			</g>
			<g>
				<path class="st4" d="M54.1,47.1c-17.9,17.9-17.9,47,0,65c15.2,15.2,38.5,17.5,56.1,6.9l34.1,34.1c4.4,4.3,11.4,4.3,15.8,0
					c4.4-4.4,4.4-11.4,0-15.8L126,103.2c10.6-17.7,8.3-40.9-6.9-56.1C101.1,29.1,72,29.1,54.1,47.1z M111,104
					c-13.5,13.5-35.4,13.5-48.9,0c-13.5-13.5-13.5-35.4,0-48.9c13.5-13.5,35.4-13.5,48.9,0C124.5,68.6,124.5,90.5,111,104z"/>
				<line class="st7" x1="125" y1="120.9" x2="109.9" y2="135.5"/>
				<line class="st7" x1="130.7" y1="126.7" x2="115.6" y2="141.3"/>
				<line class="st7" x1="136.8" y1="132.8" x2="121.7" y2="147.5"/>
			</g>
			<circle class="st3" cx="86.4" cy="58.3" r="15.1"/>
		</g>
		<g id="Meet_Regulations">
			<ellipse class="st2" cx="100.3" cy="100.5" rx="97.9" ry="93.5"/>
			<g>
				<path class="st4" d="M142.5,53h-14.3c-1.7-2.3-5.2-4.6-10.5-4.6c-3.7,0-2.8,0-7.2,0c-2.2,0-3.2-1.5-3.8-2.9
					c0.8-0.7,1.6-1.5,2.2-2.4c1.2-1.8,1.9-3.9,1.9-6.2c0-1.5-0.3-3-0.9-4.3c-0.8-2-2.2-3.7-4-4.9c-1.8-1.2-3.9-1.9-6.2-1.9
					c-1.5,0-3,0.3-4.3,0.9c-2,0.8-3.7,2.2-4.9,4c-1.2,1.8-1.9,3.9-1.9,6.2c0,1.5,0.3,3,0.9,4.3c0.7,1.7,1.8,3.1,3.2,4.3
					c-0.6,1.5-1.6,2.9-3.8,2.9c-4.4,0-3.5,0-7.2,0c-5.2,0-8.8,2.4-10.5,4.6H55.2c-1.3,0-2.3,1-2.3,2.3v102.1c0,1.3,1,2.3,2.3,2.3
					h87.3c1.3,0,2.3-1,2.3-2.3V55.3C144.8,54,143.8,53,142.5,53z"/>
				<path class="st5" d="M94.5,34.6c0.4-1,1.1-1.9,2.1-2.5c0.9-0.6,2-1,3.2-1c0.8,0,1.5,0.2,2.2,0.4c1,0.4,1.9,1.1,2.5,2
					c0.6,0.9,1,2,1,3.2c0,0.8-0.2,1.5-0.4,2.2c-0.4,1-1.1,1.9-2,2.5c-0.7,0.5-1.5,0.8-2.3,0.9h-0.7h-0.3h-0.7
					c-0.5-0.1-0.9-0.2-1.3-0.4c-1-0.4-1.9-1.1-2.5-2c-0.6-0.9-1-2-1-3.2C94.1,36,94.2,35.3,94.5,34.6z"/>
				<path class="st5" d="M137.4,136.6c0,3.4-3.6,10.3-12,5c0.7,12.4-14.4,12.1-22.7,12.3H76.9c0,0-9.9,0-16.7,0V60.6h10.4v0.6
					c0,1.3,1,2.3,2.3,2.3h53.4c1.3,0,2.3-1,2.3-2.3v-0.6h8.7L137.4,136.6L137.4,136.6z"/>
			</g>
			<g>
				<g>
					<path class="st8" d="M73.9,91l-4.9-6.4c-0.7-0.8-0.5-2,0.4-2.7c0.8-0.6,2-0.4,2.6,0.4l3.2,4.3l9.9-16.5
						c0.5-0.9,1.7-1.1,2.6-0.6c0.9,0.5,1.1,1.7,0.6,2.6L77.1,90.9c-0.3,0.5-0.9,0.9-1.5,0.9c-0.1,0-0.1,0-0.1,0
						C74.9,91.7,74.3,91.5,73.9,91z"/>
				</g>
			</g>
			<path class="st9" d="M129.3,75.9c0,1.1-0.8,1.9-1.8,1.9H95.9c-1,0-1.8-0.9-1.8-1.9l0,0c0-1.1,0.8-1.9,1.8-1.9h31.6
				C128.5,73.9,129.3,74.8,129.3,75.9L129.3,75.9z"/>
			<path class="st9" d="M129.3,83.8c0,1.1-0.8,1.9-1.8,1.9H95.9c-1,0-1.8-0.9-1.8-1.9l0,0c0-1.1,0.8-1.9,1.8-1.9h31.6
				C128.5,81.9,129.3,82.8,129.3,83.8L129.3,83.8z"/>
			<g>
				<g>
					<g>
						<path class="st8" d="M71.8,116.4l-4.9-6.4c-0.7-0.8-0.5-2,0.4-2.7c0.8-0.6,2-0.4,2.6,0.4l3.2,4.3L83,95.3
							c0.5-0.9,1.7-1.1,2.6-0.6c0.9,0.5,1.1,1.7,0.6,2.6l-11.3,18.9c-0.3,0.5-0.9,0.9-1.5,0.9c-0.1,0-0.1,0-0.1,0
							C72.7,117.1,72.2,116.8,71.8,116.4z"/>
					</g>
				</g>
				<path class="st9" d="M129.3,100.6c0,1.1-0.8,1.9-1.8,1.9H95.9c-1,0-1.8-0.9-1.8-1.9l0,0c0-1.1,0.8-1.9,1.8-1.9h31.6
					C128.5,98.7,129.3,99.6,129.3,100.6L129.3,100.6z"/>
				<path class="st9" d="M129.3,108.6c0,1.1-0.8,1.9-1.8,1.9H95.9c-1,0-1.8-0.9-1.8-1.9l0,0c0-1.1,0.8-1.9,1.8-1.9h31.6
					C128.5,106.7,129.3,107.5,129.3,108.6L129.3,108.6z"/>
			</g>
			<g>
				<g>
					<g>
						<path class="st8" d="M71.8,140.5l-4.9-6.4c-0.7-0.8-0.5-2,0.4-2.7c0.8-0.6,2-0.4,2.6,0.4l3.2,4.3l9.9-16.5
							c0.5-0.9,1.7-1.1,2.6-0.6c0.9,0.5,1.1,1.7,0.6,2.6l-11.3,18.9c-0.3,0.5-0.9,0.9-1.5,0.9c-0.1,0-0.1,0-0.1,0
							C72.7,141.2,72.2,141,71.8,140.5z"/>
					</g>
				</g>
				<path class="st9" d="M129.3,125.9c0,1.1-0.8,1.9-1.8,1.9H95.9c-1,0-1.8-0.9-1.8-1.9l0,0c0-1.1,0.8-1.9,1.8-1.9h31.6
					C128.5,124,129.3,124.9,129.3,125.9L129.3,125.9z"/>
				<path class="st9" d="M129.3,133.9c0,1.1-0.8,1.9-1.8,1.9H95.9c-1,0-1.8-0.9-1.8-1.9l0,0c0-1.1,0.8-1.9,1.8-1.9h31.6
					C128.5,132,129.3,132.8,129.3,133.9L129.3,133.9z"/>
			</g>
		</g>
		<g id="Share_Information">
			<path class="st2" d="M198.3,99.6c0,51.7-43.9,93.7-98.1,93.7S2.1,151.3,2.1,99.6C2.1,47.8,46,5.9,100.2,5.9
				C154.4,5.9,198.3,47.8,198.3,99.6z"/>
			<g>
				<path class="st10" d="M36.3,98.8c-0.1-9.9,2.1-19.2,6.6-27.9c4.6-8.7,11-15.8,19.3-21.3l-7-12l23.8,6.6l-6.3,23.5l-7-12.1
					C58.6,60.5,53,66.7,49,74.4c-4,7.7-5.9,15.8-5.7,24.5c0.1,8.7,2.4,16.8,6.9,24.4c3.4,6,7.8,11,13.2,15.1
					c5.4,4.1,11.3,7,17.8,8.7l-1.8,6.8c-7.3-2-14.1-5.3-20.2-9.9c-6.1-4.6-11.1-10.4-15-17.1C39.1,118.1,36.5,108.7,36.3,98.8z
					 M122.1,49.5l1.8-6.8c7.3,2,14,5.2,20.1,9.9c6.1,4.6,11.1,10.4,15,17.1c5,8.8,7.6,18.1,7.8,28c0.1,9.9-2.1,19.2-6.6,27.9
					c-4.6,8.7-11,15.8-19.3,21.3l7,12.1l-23.7-6.8l6.3-23.3l7,11.9c7.2-4.9,12.8-11.1,16.7-18.8c3.9-7.7,5.8-15.8,5.7-24.5
					c-0.1-8.7-2.4-16.8-6.8-24.5c-3.4-6-7.8-11-13.2-15C134.4,54.1,128.5,51.3,122.1,49.5z"/>
			</g>
			<g>
				<path class="st3" d="M85.9,88h44.8c2.2,0,4-1.8,4-4c0-2.2-1.8-4-4-4H85.9c-2.2,0-4,1.8-4,4C81.9,86.2,83.7,88,85.9,88z
					 M130.7,94.7H85.9c-2.2,0-4,1.8-4,4c0,2.2,1.8,4,4,4h44.8c2.2,0,4-1.8,4-4S132.9,94.7,130.7,94.7z M130.7,109.4H85.9
					c-2.2,0-4,1.8-4,4c0,2.2,1.8,4,4,4h44.8c2.2,0,4-1.8,4-4C134.7,111.1,132.9,109.4,130.7,109.4z"/>
				<circle class="st3" cx="73.4" cy="84" r="4"/>
				<circle class="st3" cx="73.4" cy="98.5" r="4"/>
				<path class="st3" d="M77.4,113.3c0,2.2-1.8,4-4,4c-2.2,0-4-1.8-4-4c0-2.2,1.8-4,4-4C75.6,109.4,77.4,111.1,77.4,113.3z"/>
			</g>
		</g>
		<g id="Spark_Physician_Adoption">
			<ellipse class="st2" cx="100.2" cy="100.2" rx="98.3" ry="93.9"/>
			<path class="st3" d="M90.9,76.2l-0.3-6.3l-5.5-1.6c-0.7-2.5-1.7-4.8-3.2-6.8l2.3-5.2L79.7,52l-5,2.8c-2.2-1.2-4.5-2.1-7-2.6
				l-2-5.3l-6.3,0.3l-1.6,5.5c-2.5,0.7-4.8,1.7-6.8,3.2l-5.2-2.3l-4.3,4.6l2.8,5c-1.2,2.1-2.1,4.5-2.6,7l-5.3,2l0.3,6.3l5.5,1.6
				c0.7,2.5,1.7,4.8,3.1,6.8L42.9,92l4.6,4.3l5-2.8c2.1,1.2,4.5,2.1,7,2.6l2,5.3l6.3-0.3l1.6-5.5c2.5-0.7,4.8-1.7,6.8-3.2l5.2,2.3
				l4.3-4.6l-2.8-5c1.2-2.2,2.1-4.5,2.6-7L90.9,76.2z M64.1,86c-6.6,0.3-12.1-4.8-12.4-11.4c-0.3-6.6,4.8-12.1,11.4-12.4
				c6.6-0.3,12.1,4.8,12.4,11.4C75.8,80.2,70.7,85.8,64.1,86z"/>
			<path class="st3" d="M154.6,80.8l-0.2-4.9l-4.3-1.2c-0.5-1.9-1.4-3.7-2.5-5.3l1.8-4.1l-3.6-3.3l-3.9,2.1c-1.7-1-3.5-1.6-5.5-2
				L135,58l-4.9,0.2l-1.2,4.3c-1.9,0.5-3.7,1.4-5.3,2.5l-4-1.8l-3.3,3.6l2.1,3.9c-1,1.7-1.6,3.5-2,5.5l-4.1,1.6l0.2,4.9l4.3,1.2
				c0.5,1.9,1.4,3.7,2.4,5.3l-1.8,4.1l3.6,3.3l3.9-2.1c1.7,1,3.5,1.6,5.5,2l1.6,4.2l4.9-0.2l1.2-4.3c1.9-0.5,3.7-1.4,5.3-2.5
				l4.1,1.8l3.3-3.6l-2.1-3.9c1-1.7,1.6-3.5,2-5.5L154.6,80.8z M133.8,88.5c-5.1,0.2-9.4-3.8-9.6-8.9c-0.2-5.1,3.8-9.4,8.9-9.6
				c5.1-0.2,9.4,3.8,9.6,8.9C142.8,84,138.9,88.3,133.8,88.5z"/>
			<path class="st3" d="M122.5,46l-0.2-3.8l-3.3-1c-0.4-1.5-1.1-2.9-1.9-4.1l1.4-3.2l-2.8-2.6l-3,1.7c-1.3-0.7-2.7-1.3-4.3-1.6
				l-1.2-3.2l-3.8,0.2l-1,3.3c-1.5,0.4-2.9,1.1-4.1,1.9l-3.2-1.4l-2.6,2.8l1.7,3c-0.7,1.3-1.3,2.7-1.6,4.3l-3.2,1.2l0.2,3.8l3.3,1
				c0.4,1.5,1.1,2.9,1.9,4.1l-1.4,3.2l2.8,2.6l3-1.7c1.3,0.7,2.7,1.3,4.3,1.6l1.2,3.2l3.8-0.2l1-3.3c1.5-0.4,2.9-1.1,4.1-1.9
				l3.2,1.4l2.6-2.8l-1.7-3c0.7-1.3,1.3-2.7,1.6-4.3L122.5,46z M106.3,52c-4,0.2-7.3-2.9-7.5-6.9c-0.2-4,2.9-7.3,6.9-7.5
				c4-0.2,7.3,2.9,7.5,6.9C113.4,48.5,110.3,51.8,106.3,52z"/>
			<g>
				<path class="st4" d="M82.6,157.5c0-3.1,1.2-6.1,3.4-8.3c1.6-1.6,3.6-2.3,5.4-2.8l0.5-0.2c1.8-0.6,3.4-1.1,4.4-2.3
					c0.7-0.9,1.2-2.1,1.3-3.2c-4.1-0.4-7.8-2.4-10.7-5.6c-2.8-3.2-4.5-7.3-4.7-11.6c-6.3,1.4-12,5-16.1,10
					c-4.3,5.2-6.6,11.8-6.6,18.6v8.3c0,3.4,2.8,6.2,6.2,6.2h21.1c-0.3-0.2-0.5-0.4-0.7-0.7C83.9,163.6,82.6,160.7,82.6,157.5z
					 M85,123.3c0.7,7.8,6.8,13.9,14.1,13.9c7.4,0,13.5-6.1,14.2-14c-1.1-0.1-2.2-0.2-3.3-0.2H89.1C87.7,123,86.3,123.1,85,123.3z
					 M116.1,123.6c-0.2,4.3-1.8,8.5-4.7,11.6c-2.8,3.2-6.6,5.1-10.6,5.5c-0.1,1.9-0.8,3.8-2,5.2c-1.6,1.9-3.8,2.6-5.8,3.3
					c-1.8,0.6-3.5,1.1-4.5,2.2c-1.6,1.6-2.5,3.7-2.5,5.9c0,2.2,0.9,4.4,2.5,5.9c1.6,1.6,3.7,2.5,5.9,2.5c2.2,0,4.4-0.9,5.9-2.5
					c1.3-1.3,2.1-2.9,2.4-4.6l0-0.2c0.1-1,0.3-1.9,0.6-2.9c0.4-1.2,0.9-2.2,1.7-3.2c2-2.3,4.9-3.6,8.1-3.6c1.1,0,2.2,0.1,3.3,0.4
					c0.1,0,0.3,0.1,0.3,0.3c0.1,0.1,0,0.3-0.1,0.4c-0.4,0.6-0.7,1.2-0.8,1.9c0,0.1-0.2,0.3-0.2,0.3s-0.2,0.1-0.3,0.1
					c0,0-0.1,0-0.1,0c-0.8-0.2-1.5-0.3-2.2-0.3c-2.4,0-4.4,0.9-5.8,2.5c-0.5,0.6-0.9,1.2-1.1,2c-0.2,0.8-0.4,1.6-0.5,2.7
					c-0.4,2.4-1.5,4.6-3.2,6.4c-0.2,0.2-0.7,0.7-0.7,0.7h31.3c3.4,0,6.1-2.7,6.1-6.1v-8.2C139.3,138.1,129.6,126.3,116.1,123.6z
					 M122.7,158c-2.6,0-4.8-2.1-4.8-4.8s2.1-4.8,4.8-4.8s4.8,2.1,4.8,4.8S125.3,158,122.7,158z M123,151.2c-1,0-1.9,0.9-1.9,1.9
					c0,1,0.9,1.9,1.9,1.9c1,0,1.9-0.9,1.9-1.9C124.9,152.1,124,151.2,123,151.2z"/>
				<circle class="st4" cx="98.5" cy="95.2" r="22.6"/>
			</g>
		</g>
		<g id="Put_Your_Data_to_Work">
			<path class="st2" d="M197.9,100.8c0,51.7-43.9,93.7-98.1,93.7S1.6,152.5,1.6,100.8C1.6,49,45.6,7.1,99.8,7.1
				C154,7.1,197.9,49,197.9,100.8z"/>
			<g>
				<path class="st4" d="M147.4,48.1H56.3c-5.6,0-10.1,4.5-10.1,10.1v65.1l8.2-8.5v-41h94.8v56.8c0,1-0.8,1.9-1.9,1.9H81.2l-8.1,8.2
					h74.3c5.6,0,10.1-4.5,10.1-10.1V58.2C157.5,52.6,153,48.1,147.4,48.1z M149.3,65.5H54.5v-7.4c0-1,0.8-1.9,1.9-1.9h91.1
					c1,0,1.9,0.8,1.9,1.9V65.5L149.3,65.5z M117.5,92.3H140c1.8,0,3.3-1.5,3.3-3.3c0-1.8-1.5-3.3-3.3-3.3h-22.5
					c-1.8,0-3.3,1.5-3.3,3.3C114.2,90.8,115.6,92.3,117.5,92.3z M117.5,105.6H140c1.8,0,3.3-1.5,3.3-3.3c0-1.8-1.5-3.3-3.3-3.3
					h-22.5c-1.8,0-3.3,1.5-3.3,3.3C114.2,104.1,115.6,105.6,117.5,105.6z M117.5,118.8H140c1.8,0,3.3-1.5,3.3-3.3
					c0-1.8-1.5-3.3-3.3-3.3h-22.5c-1.8,0-3.3,1.5-3.3,3.3C114.2,117.4,115.6,118.8,117.5,118.8z"/>
				<g>
					<path class="st3" d="M73.5,131.8l3.7-3.9c2.4-2.3,5.7-3.3,9.8-3.5c0.3,0,1.1-0.1,1.1-0.1c2.9-0.4,5.8-1.3,8.4-3
						c1.5-1,2.9-2.3,4.1-3.7c3.7-4.2,6-9.9,6.1-15.6c0-0.6-0.3-1.1-0.8-1.4c-0.5-0.3-1.1-0.3-1.6,0.1l-13.6,9.1c0,0,0,0-0.3,0.1
						c-0.8,0.3-2.6,0.9-5.3-1.5c-0.8-0.7-1.8-1.8-2.7-3.2c-3.7-5.8-2.1-7.9-1.4-8.8c0.3-0.4,0.4-0.4,0.4-0.4l13.7-9.2
						c0.5-0.3,0.8-0.9,0.7-1.5c-0.1-0.6-0.5-1.1-1-1.3C87.5,81.2,79,82,72.9,86.1c-1.4,0.9-2.7,2.1-3.7,3.3c-3.4,3.9-5,8.9-4.8,14.1
						c0.4,4.6,0.2,8.7-2.2,11.5l-3.5,4l-4.2,4.4l-4.1,4.3l-0.8,0.8c0,0,0,0,0,0l-3.3,3.4l-8.1,8.4c-2.7,2.9-3.4,6.9-2,10.4
						c0.5,1.3,1.3,2.5,2.4,3.5c3.9,3.7,10.1,3.6,13.9-0.4l5.1-5.7l7.2-7.2l4.1-4.1l4.1-4.1L73.5,131.8z"/>
					<path class="st3" d="M46.7,150.6L46.7,150.6c-2,0.8-4.3-0.2-5.1-2.2c-0.8-2,0.2-4.3,2.2-5.1c2-0.8,4.3,0.2,5.1,2.2
						C49.7,147.5,48.7,149.8,46.7,150.6z"/>
				</g>
			</g>
		</g>
		<g id="Stage_6__x26__7">
			<ellipse class="st2" cx="100.6" cy="99.7" rx="98" ry="93.6"/>
			<path class="st4" d="M41.9,113.7l19,1.6c2.5,0.2,4.7-1.6,4.9-4.1l0.9-10.4c0.2-2.5-1.6-4.7-4.1-4.9l-19-1.6
				c-2.5-0.2-4.7,1.6-4.9,4.1l-0.9,10.4C37.6,111.3,39.4,113.5,41.9,113.7L41.9,113.7z M62.3,139.8c10-11.6,11.5-12.2,15.3-28.8
				c4.2,1.3,8.4,2.6,12.7,4c0.4,0.1,0.9,0.3,1.4,0.5c-6.2,18.7-7.4,19.3-20,32.6C66,154,56.9,146.2,62.3,139.8L62.3,139.8z
				 M96.3,62.9c1,0.4,3.4,1.2,4.9,2.6c14.5,13.9,11.4,13.1,27.1,12.6c6-0.2,5.9,9.4,0.8,9.8c-16.1,1.5-17.2,2.7-28.7-7l-2.5,14.1
				c-0.2,1.1,0.3,2.1,1.3,2.7c16.5,7.2,19.8,7.2,27.1,30.3c2.7,7.1-8,11.8-11.3,5.2c-11.5-22.5-13.3-19-40.6-28.3
				c-3.4-1.8-4.7-4.8-4.7-8.6l4.4-24.2c-10.6,3.3-9.5,3.1-11.8,16.5c-0.9,5.2-10.4,4.5-9.8-1.8c2-19.9,5-21.1,24.1-28.1
				c2.6-1,8.9,0.8,10.4,1.3L92.8,70L96.3,62.9L96.3,62.9z M105.2,44.7c0,6.5-5.2,11.7-11.7,11.7c-6.5,0-11.7-5.2-11.7-11.7
				S87,33,93.5,33S105.2,38.3,105.2,44.7z"/>
			<path class="st3" d="M85.8,154.5h21.1v-9c0-2.2,1.8-4,4-4H132v-9c0-2.2,1.8-4,4-4h30.1l0,5c0,2.2-1.8,4-4,4H141v9
				c0,2.2-1.8,4-4,4h-21.1v9c0,2.2-1.8,4-4,4H81.8v-5C81.8,156.3,83.6,154.5,85.8,154.5L85.8,154.5z"/>
		</g>
	</g>
	<g id="Flexible_Work_Hours" class="st1">
		<ellipse class="st2" cx="100.4" cy="100.9" rx="98.4" ry="94"/>
		<g>
			<path class="st3" d="M71.6,156.6c5.2,2.6,10.7,4.6,16.3,5.8l2.7-13.6c-4.4-1-8.8-2.5-12.9-4.5L71.6,156.6z"/>
			<path class="st3" d="M57.4,126.4l-11.6,7.5c3.2,4.8,7.1,9.2,11.4,13l9.2-10.3C62.9,133.6,59.9,130.1,57.4,126.4z"/>
			<path class="st3" d="M53.7,74.8l-12.6-6.4c-2.5,5.1-4.4,10.5-5.5,16.1l13.7,3C50.3,83.1,51.7,78.8,53.7,74.8z"/>
			<path class="st11" d="M63.1,61.7c0.4-0.3,0.7-0.7,1.1-1c0.4-0.3,0.7-0.7,1.1-1c0.4-0.3,0.8-0.7,1.2-1c0.4-0.3,0.7-0.6,1.1-0.9
				c0.7-0.6,1.4-1.1,2.2-1.6c0.4-0.3,0.7-0.5,1.1-0.8c11.7-7.7,26.3-10.3,40.1-7.1c0.6,0.1,1.1,0.3,1.7,0.4c0.4,0.1,0.7,0.2,1.1,0.3
				c1,0.3,1.9,0.6,2.9,0.9c0.2,0.1,0.3,0.1,0.5,0.2c0.8,0.3,1.7,0.6,2.5,1c0.2,0.1,0.4,0.2,0.6,0.3c0.9,0.4,1.7,0.8,2.5,1.2
				c2.6,1.3,5.1,2.8,7.5,4.5c1.7,1.2,3.2,2.5,4.7,3.8c0.5,0.5,1.1,1,1.6,1.5c0.3,0.3,0.7,0.7,1,1c0.4,0.4,0.7,0.8,1.1,1.1
				c0.3,0.4,0.7,0.8,1,1.2c0.3,0.4,0.6,0.8,1,1.2c0.6,0.7,1.1,1.4,1.6,2.1c0.3,0.4,0.6,0.8,0.9,1.2c2.9,4.2,5.1,8.7,6.6,13.4
				c0,0,0,0.1,0,0.1c2.7,8.5,3.3,17.6,1.4,26.4c-0.1,0.6-0.3,1.1-0.4,1.7c-0.1,0.4-0.2,0.7-0.3,1.1c-0.3,1-0.5,1.9-0.9,2.8
				c-0.1,0.2-0.1,0.3-0.2,0.5c-0.3,0.8-0.6,1.7-0.9,2.5c-0.1,0.2-0.2,0.4-0.3,0.6c-0.3,0.8-0.7,1.7-1.1,2.5c-1.2,2.5-2.7,5-4.4,7.4
				c-1.1,1.5-2.2,2.9-3.5,4.3c-0.6,0.7-1.3,1.3-1.9,2c-0.1,0.1-0.3,0.2-0.4,0.4c-0.7,0.7-1.4,1.3-2.1,2c0,0-0.1,0.1-0.1,0.1
				c-0.8,0.7-1.6,1.3-2.5,2c-0.1,0.1-0.1,0.1-0.2,0.2c-0.9,0.6-1.7,1.2-2.6,1.8c-3,1.9-6.1,3.5-9.5,4.8l-3.1-13.1l-19.6,23.2
				l28.3,16.9l-3.1-13.1c5.9-2,11.5-4.7,16.5-8.2c0.1-0.1,0.1-0.1,0.2-0.2c0.5-0.4,1-0.7,1.5-1.1c0.1-0.1,0.2-0.1,0.3-0.2
				c0.5-0.4,1-0.7,1.4-1.1c0.1-0.1,0.2-0.2,0.3-0.2c1.3-1,2.5-2.1,3.7-3.3c0.3-0.3,0.7-0.6,1-1c0.2-0.2,0.4-0.4,0.6-0.6
				c0.4-0.4,0.8-0.8,1.1-1.2c0.2-0.2,0.3-0.3,0.5-0.5c0.2-0.2,0.4-0.4,0.6-0.6l0,0c1.4-1.6,2.8-3.3,4-5c2.1-2.9,3.9-5.9,5.4-9l0,0
				c0.3-0.7,0.7-1.4,1-2c0.2-0.4,0.3-0.7,0.5-1.1c0.2-0.5,0.4-1,0.6-1.5c0.1-0.3,0.3-0.7,0.4-1.1c0.3-0.8,0.6-1.6,0.8-2.4
				c0.1-0.3,0.2-0.5,0.3-0.8c0.2-0.7,0.5-1.5,0.7-2.2c0-0.1,0.1-0.3,0.1-0.4c0.4-1.5,0.8-3,1.1-4.5l0,0c1.1-5.6,1.4-11.3,1-17l0,0
				c-0.4-5.3-1.4-10.6-3.1-15.6c0,0,0,0,0-0.1c-0.1-0.3-0.2-0.7-0.3-1l0-0.1l0,0c-1.9-5.4-4.4-10.6-7.7-15.5l0,0
				c-1.4-2-2.8-3.9-4.4-5.8l0,0c-1.4-1.7-2.9-3.3-4.4-4.8c0,0-0.1-0.1-0.1-0.1c-0.8-0.8-1.6-1.6-2.5-2.3l0,0
				c-1.6-1.5-3.4-2.8-5.2-4.2c-2.9-2.1-6-4-9.2-5.6l0,0c-0.7-0.3-1.4-0.7-2.1-1c-0.4-0.2-0.7-0.3-1.1-0.5c-0.5-0.2-1-0.4-1.6-0.7
				c-0.4-0.1-0.7-0.3-1.1-0.4c-0.8-0.3-1.6-0.6-2.4-0.9c-0.3-0.1-0.5-0.2-0.8-0.3c-0.8-0.3-1.5-0.5-2.3-0.7c-0.1,0-0.3-0.1-0.4-0.1
				c-1.5-0.4-3-0.8-4.5-1.2l0,0c-5.7-1.2-11.5-1.7-17.2-1.4l0,0c-5.3,0.3-10.6,1.2-15.7,2.7c0,0-0.1,0-0.1,0c-0.3,0.1-0.7,0.2-1,0.3
				l0,0l0,0l0,0c0,0,0,0,0,0l-0.2,0.1l0,0c-5.4,1.7-10.5,4.1-15.3,7.2l0,0c-3.8,2.5-7.3,5.3-10.5,8.5c0,0,0,0-0.1,0.1
				c-0.8,0.8-1.6,1.6-2.3,2.4l0,0C49.2,56,48,58.5,48,58.5l10,9.3c0,0,2.5-3.3,3.9-4.7C62.3,62.6,62.7,62.1,63.1,61.7z"/>
			<path class="st3" d="M51.3,114.1c-1.5-4.3-2.4-8.8-2.7-13.2l-14,0.7c0.4,5.7,1.6,11.3,3.5,16.9l0,0.1l13.2-4.2L51.3,114.1z"/>
		</g>
		<g>
			<circle class="st12" cx="100.1" cy="105.2" r="5.9"/>
			<line class="st13" x1="100" y1="105.2" x2="84.3" y2="80.4"/>
			<line class="st13" x1="102.1" y1="103.8" x2="114.9" y2="91.2"/>
		</g>
	</g>
	<g id="Accrued_Sick__x26__Vacation" class="st1">
		<path class="st2" d="M198.2,100.4c0,51.7-43.9,93.7-98.2,93.7c-54.2,0-98.2-42-98.2-93.7C1.9,48.6,45.8,6.7,100,6.7
			C154.2,6.7,198.2,48.6,198.2,100.4z"/>
		<g class="st0">
			<path class="st14" d="M165.4,148.2c-0.6-10.1-3.9-18.4-10.3-24.8c0-0.3,0-0.6,0-0.9c0-24.6-26.5-44.5-59.3-44.5
				c-7.7,0-15.1,1.1-21.9,3.1c-0.5-0.7-0.9-1.4-1.5-2c-5.8-7.2-14.1-11-21.5-10.4c-2,6.5-0.7,14.5,4.1,21.4
				c-9.3,6.6-15.7,15.4-17.8,25.4L26.6,119c-2.6,0.9-4.1,3.6-3.3,6.1l6.5,20c0.8,2.5,3.6,3.8,6.2,2.9l8.8-2.8
				c2.5,3.2,5.6,6.2,9.1,8.8v15.7c0,3,2.4,5.4,5.4,5.4h15.4c3,0,5.4-2.4,5.4-5.4v-4.3c5,1,10.2,1.6,15.7,1.6
				c5.4,0,10.6-0.5,15.6-1.6v4.3c0,3,2.4,5.4,5.4,5.4h15.4c3,0,5.4-2.4,5.4-5.4v-15.7c8.7-6.5,14.8-15.1,16.7-24.7
				C160,133.9,163.5,140.8,165.4,148.2z M53.9,105.2c2.6,0,4.7,2.1,4.7,4.7c0,2.6-2.1,4.7-4.7,4.7c-2.6,0-4.7-2.1-4.7-4.7
				C49.2,107.3,51.3,105.2,53.9,105.2z M134.1,102.6c-15.8-15.1-38.5-12.9-38.7-12.9l-0.7-6.1c1-0.1,25.7-2.5,43.6,14.5L134.1,102.6
				z"/>
			<circle class="st14" cx="52.6" cy="111" r="2.6"/>
		</g>
		<g class="st0">
			<g class="st1">
				<g>
					<g>
						<path class="st15" d="M126.2,31.9c-15.6,0-28.2,12.6-28.2,28.2s12.6,28.2,28.2,28.2c15.6,0,28.2-12.6,28.2-28.2
							S141.8,31.9,126.2,31.9z M126.2,82.8c-12.6,0-22.8-10.2-22.8-22.8c0-12.6,10.2-22.8,22.8-22.8c12.6,0,22.8,10.2,22.8,22.8
							C149,72.6,138.8,82.8,126.2,82.8z"/>
					</g>
				</g>
			</g>
			<g class="st1">
				<path class="st3" d="M128.9,60.6c0,1.8-1.4,3.2-3.2,3.2c-1.8,0-3.2-1.4-3.2-3.2c0-1.8,1.4-3.2,3.2-3.2
					C127.4,57.4,128.9,58.8,128.9,60.6z"/>
				<line class="st16" x1="125.7" y1="60.6" x2="125.7" y2="44.5"/>
				<line class="st16" x1="127" y1="60.6" x2="136.6" y2="58.5"/>
			</g>
		</g>
	</g>
	<g class="st1">
		<g>
			<polygon class="st17" points="-543.6,34.2 -542.7,3.5 -513,32.5 			"/>
			
				<rect x="-525.6" y="-22.8" transform="matrix(0.7061 -0.7081 0.7081 0.7061 -129.8392 -341.6828)" class="st18" width="98.1" height="16.8"/>
			
				<rect x="-545.1" y="-41.1" transform="matrix(0.7061 -0.7082 0.7082 0.7061 -121.0862 -361.5541)" class="st19" width="98.2" height="12.4"/>
			<path class="st17" d="M-430.5-50.1l-29.7-30.5l14-13.6c0,0,10.5,0.5,20.1,9.7c9.6,9.2,9.6,20.8,9.6,20.8L-430.5-50.1z"/>
		</g>
		<path class="st17" d="M-428.3-4.9l-17.8,16.8c-1.2,1.1-3.2,1-4.4-0.2c-1.2-1.3-1.2-3.2,0-4.4l17.6-16.7l-13-12.8L-474.4,7l31.6,31
			l28.5-29.2L-428.3-4.9z"/>
		<path class="st17" d="M-496-75.1l-19.9,18.2c-1.3,1.2-3.5,1.1-4.8-0.3c-1.3-1.4-1.3-3.6,0.1-4.8l19.7-18.1l-14.2-14.2l-32,31.6
			l34.5,34.5l32-31.6L-496-75.1z"/>
	</g>
	<g class="st1">
		<path class="st20" d="M73.1,127.7l-37,13.4c-3.5,1.3-5.2,5.1-4,8.6c1.3,3.5,5.1,5.3,8.6,4l37-13.4c3.5-1.3,5.3-5.1,4-8.6
			C80.5,128.2,76.6,126.4,73.1,127.7z"/>
		<path class="st20" d="M69.7,91.9c-0.2-9-13.3-8-12.7,0.5c0.6,8.4,3,13.9,7.6,19.6l-28.5,10.4c-3.5,1.3-5.2,5.1-4,8.6
			c1.3,3.5,5.1,5.3,8.6,4l37-13.5c3.5-1.3,5.3-5.1,4-8.6c-0.5-1.2-1.2-2.3-2.2-3C74,104.9,69.8,100.5,69.7,91.9z"/>
		<path class="st20" d="M73.7,146.1l-16.7,6c-3.2,1.1-4.9,4.7-3.7,8c1.2,3.2,4.8,4.9,8,3.8l16.7-6c3.2-1.2,4.9-4.7,3.7-8
			C80.5,146.7,76.9,145,73.7,146.1z"/>
		<path class="st20" d="M40.1,115.9l9-3.2c2.3-0.8,3.4-3.4,4-5.8c0-0.1,0.3-1.7,0.4-2.4c0.6-4.3,0.7-4.6,1.3-12.1
			c0.6-8.5-11.5-9.2-12.4-0.3c-0.6,5.8,1.1,9-3.3,10.9l-3.2,1.2c-3.2,1.2-4.9,4.7-3.7,8C33.3,115.4,36.8,117.1,40.1,115.9z"/>
		<path class="st20" d="M76.7,83.5l0-5.1c0-10.9-8.8-19.7-19.7-19.7c-10.9,0-19.7,8.8-19.7,19.6l0,5.1L76.7,83.5z"/>
		<path class="st20" d="M64.7,53.5c0-4.3-3.5-7.7-7.7-7.7c-4.3,0-7.7,3.4-7.7,7.7v2l15.5,0L64.7,53.5z"/>
	</g>
	<g class="st1">
		<path class="st20" d="M156.3,127.7l-37,13.4c-3.5,1.3-5.2,5.1-4,8.6c1.3,3.5,5.1,5.3,8.6,4l37-13.4c3.5-1.3,5.3-5.1,4-8.6
			C163.7,128.2,159.8,126.4,156.3,127.7z"/>
		<path class="st20" d="M152.9,91.9c-0.2-9-13.3-8-12.7,0.5c0.6,8.4,3,13.9,7.6,19.6l-28.5,10.4c-3.5,1.3-5.2,5.1-4,8.6
			c1.3,3.5,5.1,5.3,8.6,4l37-13.5c3.5-1.3,5.3-5.1,4-8.6c-0.5-1.2-1.2-2.3-2.2-3C157.2,104.9,153,100.5,152.9,91.9z"/>
		<path class="st20" d="M156.9,146.1l-16.7,6c-3.2,1.1-4.9,4.7-3.7,8c1.2,3.2,4.8,4.9,8,3.8l16.7-6c3.2-1.2,4.9-4.7,3.7-8
			C163.7,146.7,160.1,145,156.9,146.1z"/>
		<path class="st20" d="M123.3,115.9l9-3.2c2.3-0.8,3.4-3.4,4-5.8c0-0.1,0.3-1.7,0.4-2.4c0.6-4.3,0.7-4.6,1.3-12.1
			c0.6-8.5-11.5-9.2-12.4-0.3c-0.6,5.8,1.1,9-3.3,10.9l-3.2,1.2c-3.2,1.2-4.9,4.7-3.7,8C116.5,115.4,120,117.1,123.3,115.9z"/>
		<path class="st20" d="M159.9,83.5l0-5.1c0-10.9-8.8-19.7-19.7-19.7c-10.9,0-19.7,8.8-19.7,19.6l0,5.1L159.9,83.5z"/>
		<path class="st20" d="M147.9,53.5c0-4.3-3.5-7.7-7.7-7.7c-4.3,0-7.7,3.4-7.7,7.7v2l15.5,0L147.9,53.5z"/>
	</g>
	<path class="st21" d="M57.9,15.8L56,16.6v31.5h1.8V15.8z"/>
	<g class="st1">
		<polygon class="st22" points="141.1,48.1 139.2,48.1 139.2,14.5 141.1,15.3 		"/>
	</g>
	<g class="st1">
		<path class="st4" d="M220.4,77.2c-0.6-10.1-3.9-18.4-10.3-24.8c0-0.3,0-0.6,0-0.9c0-24.6-26.5-44.5-59.3-44.5
			c-7.7,0-15.1,1.1-21.9,3.1c-0.5-0.7-0.9-1.4-1.5-2c-5.8-7.2-14.1-11-21.5-10.4c-2,6.5-0.7,14.5,4.1,21.4
			c-9.3,6.6-15.7,15.4-17.8,25.4L81.7,48c-2.6,0.9-4.1,3.6-3.3,6.1l6.5,20c0.8,2.5,3.6,3.8,6.2,2.9l8.8-2.8c2.5,3.2,5.6,6.2,9.1,8.8
			v15.7c0,3,2.4,5.4,5.4,5.4h15.4c3,0,5.4-2.4,5.4-5.4v-4.3c5,1,10.2,1.6,15.7,1.6c5.4,0,10.6-0.5,15.6-1.6v4.3c0,3,2.4,5.4,5.4,5.4
			h15.4c3,0,5.4-2.4,5.4-5.4V82.9c8.7-6.5,14.8-15.1,16.7-24.7C215,62.9,218.5,69.8,220.4,77.2z M108.9,34.2c2.6,0,4.7,2.1,4.7,4.7
			c0,2.6-2.1,4.7-4.7,4.7c-2.6,0-4.7-2.1-4.7-4.7C104.2,36.3,106.3,34.2,108.9,34.2z M189.1,31.6c-15.8-15.1-38.5-12.9-38.7-12.9
			l-0.7-6.1c1-0.1,25.7-2.5,43.6,14.5L189.1,31.6z"/>
		<circle class="st4" cx="107.6" cy="40" r="2.6"/>
		<g>
			<g>
				<g>
					<g>
						<path class="st15" d="M181.2-39.1c-15.6,0-28.2,12.6-28.2,28.2s12.6,28.2,28.2,28.2c15.6,0,28.2-12.6,28.2-28.2
							S196.8-39.1,181.2-39.1z M181.2,11.8c-12.6,0-22.8-10.2-22.8-22.8c0-12.6,10.2-22.8,22.8-22.8c12.6,0,22.8,10.2,22.8,22.8
							C204,1.6,193.8,11.8,181.2,11.8z"/>
					</g>
				</g>
			</g>
			<g>
				<path class="st3" d="M183.9-10.4c0,1.8-1.4,3.2-3.2,3.2c-1.8,0-3.2-1.4-3.2-3.2c0-1.8,1.4-3.2,3.2-3.2
					C182.4-13.6,183.9-12.2,183.9-10.4z"/>
				<line class="st16" x1="180.7" y1="-10.4" x2="180.7" y2="-26.5"/>
				<line class="st16" x1="182" y1="-10.4" x2="191.6" y2="-12.5"/>
			</g>
		</g>
	</g>
	<g class="st1">
		<path class="st23" d="M132.1,128.8v-14.4c0-3-2.1-5.4-4.8-5.4c-2.6,0-4.8,2.4-4.8,5.4v14.4c-7.2,2.1-12.4,8.7-12.4,16.5
			c0,9.5,7.7,17.2,17.2,17.2c9.5,0,17.2-7.7,17.2-17.2C144.5,137.4,139.3,130.8,132.1,128.8z M130.9,155.5c-0.7,0.1-1.4,0.1-2.1,0.1
			c-3.3,0-6-1-8-2.9c-3.7-3.5-3.3-8.9-3.3-9.1c0.1-1.2,1.1-2.1,2.3-2c1.2,0.1,2.1,1.1,2.1,2.3c0,0.1-0.2,3.6,2,5.7
			c1.4,1.3,3.6,1.9,6.6,1.5c1.2-0.1,2.3,0.7,2.4,1.9C132.9,154.2,132.1,155.3,130.9,155.5z"/>
		<path class="st23" d="M146.2,118.1v-16.1h8.7c1.2,0,2.2-1,2.2-2.2c0-1.2-1-2.2-2.2-2.2h-8.7v-9h8.7c1.2,0,2.2-1,2.2-2.2
			c0-1.2-1-2.2-2.2-2.2h-8.7v-9h8.7c1.2,0,2.2-1,2.2-2.2c0-1.2-1-2.2-2.2-2.2h-8.7v-9h8.7c1.2,0,2.2-1,2.2-2.2c0-1.2-1-2.2-2.2-2.2
			h-8.7V42.9c0-7.9-8.8-14.1-16.3-14.1h-5.1c-7.6,0-16.3,6.2-16.3,14.1v75.2c-8.4,5.3-13.1,14.9-13.1,27.2
			c0,17.6,14.3,31.9,31.9,31.9s31.9-14.3,31.9-31.9C159.2,132.9,154.6,123.4,146.2,118.1z M127.3,170.6c-14,0-25.3-11.4-25.3-25.3
			c0-6.1,1.5-17.2,11.3-22.4l1.8-0.9V42.9c0-3.9,5.5-7.5,9.7-7.5h5.1c4.2,0,9.7,3.6,9.7,7.5v79.1l1.8,0.9
			c9.8,5.2,11.3,16.3,11.3,22.4C152.6,159.2,141.3,170.6,127.3,170.6z"/>
		<g>
			<path class="st23" d="M93.3,71.6c-0.3-0.2-0.5-0.6-0.5-1c0-0.4,0.2-0.8,0.5-1l6.9-3.9v-9.8L91,61c-0.2,0.2-0.5,0.2-0.7,0.2
				c-0.2,0-0.4,0-0.6-0.1c-0.3-0.2-0.5-0.5-0.6-0.9c0-0.2,0-0.4,0-0.5V44.2c0.3-0.1,0.6-0.3,0.8-0.5l11.2-11.2
				c1.3-1.3,1.3-3.3,0-4.6c-1.3-1.3-3.3-1.3-4.6,0l-7.4,7.4v-9.1c0-2.3-1.9-4.2-4.2-4.2c-2.3,0-4.2,1.9-4.2,4.2v9.1l-7.4-7.4
				c-1.3-1.3-3.3-1.3-4.6,0c-1.3,1.3-1.3,3.3,0,4.6l11.2,11.2c0.2,0.2,0.5,0.4,0.8,0.5v15.9c0,0.5-0.3,0.9-0.7,1.1
				c-0.2,0.1-0.4,0.1-0.6,0.1c-0.2,0-0.5-0.1-0.7-0.2l-13.5-7.5c0-0.2-0.1-0.5-0.1-0.7l-4.7-15.1c-0.5-1.7-2.4-2.7-4.1-2.1
				c-1.7,0.5-2.7,2.4-2.1,4.1l2.9,9.4L51,45.8c-0.7-0.5-1.5-0.8-2.4-0.8c-1.4,0-2.6,0.7-3.4,1.8c-1.3,1.9-0.9,4.5,1,5.8l7.8,4.4
				l-10.6,3.3c-1.7,0.5-2.7,2.4-2.1,4.1c0.5,1.6,2.1,2.6,3.8,2.2c0.1,0,0.2,0,0.3-0.1l15.1-4.7c0.4-0.1,0.7-0.3,1-0.6l15,8.4
				c0.3,0.2,0.5,0.6,0.5,1c0,0.4-0.2,0.8-0.5,1l-12,7.3c-0.3-0.2-0.6-0.3-0.9-0.4l-15.5-3.5c-0.1,0-0.2,0-0.3-0.1
				c-1.6-0.2-3.2,0.9-3.6,2.5c-0.4,1.8,0.7,3.5,2.5,3.9l10,2.2l-9.8,5.9c-1.8,1.4-2.2,4-0.8,5.9c0.8,1.1,2,1.7,3.4,1.7
				c0.9,0,1.8-0.3,2.5-0.8l9.5-5.6L59,101.1c-0.4,1.8,0.7,3.5,2.5,3.9c1.7,0.4,3.5-0.7,3.9-2.5l3.5-15.5c0.1-0.3,0.1-0.5,0.1-0.8
				l9.8-5.8c0.2-0.2,0.5-0.2,0.7-0.2c0.2,0,0.4,0,0.6,0.1c0.4,0.2,0.7,0.6,0.7,1.1v16.1c-0.3,0.1-0.6,0.3-0.8,0.5l-11.2,11.2
				c-1.3,1.3-1.3,3.3,0,4.6c0.6,0.6,1.5,0.9,2.3,0.9c0.8,0,1.7-0.3,2.3-0.9l7.4-7.4v8.5c0,2.3,1.9,4.2,4.2,4.2
				c2.3,0,4.2-1.9,4.2-4.2v-8.5l7.4,7.4c0.6,0.6,1.5,0.9,2.3,0.9s1.7-0.3,2.3-0.9c1.3-1.3,1.3-3.3,0-4.6L89.9,98.1
				c-0.2-0.2-0.5-0.4-0.8-0.5V81.1c0.1-0.4,0.3-0.7,0.6-0.8c0.2-0.1,0.4-0.1,0.5-0.1c0.3,0,0.5,0.1,0.7,0.2l9.2,5.4v-10L93.3,71.6z"
				/>
		</g>
	</g>
</g>
<g id="Layer_2_1_" class="st0">
	<path class="st24" d="M198.3,99.6c0,51.7-43.9,93.7-98.2,93.7c-54.2,0-98.2-42-98.2-93.7C2,47.8,45.9,5.9,100.2,5.9
		C154.4,5.9,198.3,47.8,198.3,99.6z"/>
	<g class="st1">
		<path class="st23" d="M132.1,128.8v-14.4c0-3-2.1-5.4-4.8-5.4c-2.6,0-4.8,2.4-4.8,5.4v14.4c-7.2,2.1-12.4,8.7-12.4,16.5
			c0,9.5,7.7,17.2,17.2,17.2c9.5,0,17.2-7.7,17.2-17.2C144.5,137.4,139.3,130.8,132.1,128.8z M130.9,155.5c-0.7,0.1-1.4,0.1-2.1,0.1
			c-3.3,0-6-1-8-2.9c-3.7-3.5-3.3-8.9-3.3-9.1c0.1-1.2,1.1-2.1,2.3-2c1.2,0.1,2.1,1.1,2.1,2.3c0,0.1-0.2,3.6,2,5.7
			c1.4,1.3,3.6,1.9,6.6,1.5c1.2-0.1,2.3,0.7,2.4,1.9C132.9,154.2,132.1,155.3,130.9,155.5z"/>
		<path class="st23" d="M146.2,118.1v-16.1h8.7c1.2,0,2.2-1,2.2-2.2c0-1.2-1-2.2-2.2-2.2h-8.7v-9h8.7c1.2,0,2.2-1,2.2-2.2
			c0-1.2-1-2.2-2.2-2.2h-8.7v-9h8.7c1.2,0,2.2-1,2.2-2.2c0-1.2-1-2.2-2.2-2.2h-8.7v-9h8.7c1.2,0,2.2-1,2.2-2.2c0-1.2-1-2.2-2.2-2.2
			h-8.7V42.9c0-7.9-8.8-14.1-16.3-14.1h-5.1c-7.6,0-16.3,6.2-16.3,14.1v75.2c-8.4,5.3-13.1,14.9-13.1,27.2
			c0,17.6,14.3,31.9,31.9,31.9s31.9-14.3,31.9-31.9C159.2,132.9,154.6,123.4,146.2,118.1z M127.3,170.6c-14,0-25.3-11.4-25.3-25.3
			c0-6.1,1.5-17.2,11.3-22.4l1.8-0.9V42.9c0-3.9,5.5-7.5,9.7-7.5h5.1c4.2,0,9.7,3.6,9.7,7.5v79.1l1.8,0.9
			c9.8,5.2,11.3,16.3,11.3,22.4C152.6,159.2,141.3,170.6,127.3,170.6z"/>
		<g>
			<path class="st23" d="M93.3,71.6c-0.3-0.2-0.5-0.6-0.5-1c0-0.4,0.2-0.8,0.5-1l6.9-3.9v-9.8L91,61c-0.2,0.2-0.5,0.2-0.7,0.2
				c-0.2,0-0.4,0-0.6-0.1c-0.3-0.2-0.5-0.5-0.6-0.9c0-0.2,0-0.4,0-0.5V44.2c0.3-0.1,0.6-0.3,0.8-0.5l11.2-11.2
				c1.3-1.3,1.3-3.3,0-4.6c-1.3-1.3-3.3-1.3-4.6,0l-7.4,7.4v-9.1c0-2.3-1.9-4.2-4.2-4.2c-2.3,0-4.2,1.9-4.2,4.2v9.1l-7.4-7.4
				c-1.3-1.3-3.3-1.3-4.6,0c-1.3,1.3-1.3,3.3,0,4.6l11.2,11.2c0.2,0.2,0.5,0.4,0.8,0.5v15.9c0,0.5-0.3,0.9-0.7,1.1
				c-0.2,0.1-0.4,0.1-0.6,0.1c-0.2,0-0.5-0.1-0.7-0.2l-13.5-7.5c0-0.2-0.1-0.5-0.1-0.7l-4.7-15.1c-0.5-1.7-2.4-2.7-4.1-2.1
				c-1.7,0.5-2.7,2.4-2.1,4.1l2.9,9.4L51,45.8c-0.7-0.5-1.5-0.8-2.4-0.8c-1.4,0-2.6,0.7-3.4,1.8c-1.3,1.9-0.9,4.5,1,5.8l7.8,4.4
				l-10.6,3.3c-1.7,0.5-2.7,2.4-2.1,4.1c0.5,1.6,2.1,2.6,3.8,2.2c0.1,0,0.2,0,0.3-0.1l15.1-4.7c0.4-0.1,0.7-0.3,1-0.6l15,8.4
				c0.3,0.2,0.5,0.6,0.5,1c0,0.4-0.2,0.8-0.5,1l-12,7.3c-0.3-0.2-0.6-0.3-0.9-0.4l-15.5-3.5c-0.1,0-0.2,0-0.3-0.1
				c-1.6-0.2-3.2,0.9-3.6,2.5c-0.4,1.8,0.7,3.5,2.5,3.9l10,2.2l-9.8,5.9c-1.8,1.4-2.2,4-0.8,5.9c0.8,1.1,2,1.7,3.4,1.7
				c0.9,0,1.8-0.3,2.5-0.8l9.5-5.6L59,101.1c-0.4,1.8,0.7,3.5,2.5,3.9c1.7,0.4,3.5-0.7,3.9-2.5l3.5-15.5c0.1-0.3,0.1-0.5,0.1-0.8
				l9.8-5.8c0.2-0.2,0.5-0.2,0.7-0.2c0.2,0,0.4,0,0.6,0.1c0.4,0.2,0.7,0.6,0.7,1.1v16.1c-0.3,0.1-0.6,0.3-0.8,0.5l-11.2,11.2
				c-1.3,1.3-1.3,3.3,0,4.6c0.6,0.6,1.5,0.9,2.3,0.9c0.8,0,1.7-0.3,2.3-0.9l7.4-7.4v8.5c0,2.3,1.9,4.2,4.2,4.2
				c2.3,0,4.2-1.9,4.2-4.2v-8.5l7.4,7.4c0.6,0.6,1.5,0.9,2.3,0.9s1.7-0.3,2.3-0.9c1.3-1.3,1.3-3.3,0-4.6L89.9,98.1
				c-0.2-0.2-0.5-0.4-0.8-0.5V81.1c0.1-0.4,0.3-0.7,0.6-0.8c0.2-0.1,0.4-0.1,0.5-0.1c0.3,0,0.5,0.1,0.7,0.2l9.2,5.4v-10L93.3,71.6z"
				/>
		</g>
	</g>
</g>
<g id="Layer_2_copy" class="st0">
	<path class="st24" d="M198.3,99.6c0,51.7-43.9,93.7-98.2,93.7c-54.2,0-98.2-42-98.2-93.7C2,47.8,45.9,5.9,100.2,5.9
		C154.4,5.9,198.3,47.8,198.3,99.6z"/>
	<path class="st25" d="M70.1,113L70.1,113L49,113l0,0c-0.6,0.1-1,0.5-1,1.1v4.5c0,0.6,0.5,1.2,1.2,1.2h1.5c0,14.5,0,42.6,0,54.5
		c5.3,4.6,11.3-3,17.8,0c0-9.6,0-34.2,0-54.5h1.5c0.6,0,1.2-0.5,1.2-1.2v-4.5C71.1,113.6,70.6,113.1,70.1,113z M152.7,81.2h-1.5
		c0-15.4,0-43.6,0-54.9c-5.4-4.5-11.4,2.9-17.8,0c0,6.3,0,32.3,0,54.9h-1.5c-0.6,0-1.2,0.5-1.2,1.2v4.5c0,0.6,0.4,1.1,1,1.1
		c0,0,0,0,0,0h21.1l0,0c0.6-0.1,1-0.5,1-1.1v-4.5C153.8,81.7,153.3,81.2,152.7,81.2z M152.8,91.4h-21.1c-0.6,0.1-1,0.5-1,1.1V97
		c0,0.6,0.5,1.2,1.2,1.2h1.5c0,12.7,0,22.1,0,22.1c0,6.5-5.3,11.8-11.8,11.8c-6.5,0-11.8-5.3-11.8-11.8c0,0,0-8.2,0-16.7l0,0
		c0-8.9,0-18,0-18c0-16.3-13.2-29.6-29.6-29.6c-16.3,0-29.6,13.2-29.6,29.6c0,0,0,7.1,0,17.3h-1.5c-0.6,0-1.2,0.5-1.2,1.2v4.5
		c0,0.6,0.4,1.1,1,1.1h21.1c0.6-0.1,1-0.5,1-1.1V104c0-0.6-0.5-1.2-1.2-1.2h-1.5c0-10.2,0-17.3,0-17.3c0-6.5,5.3-11.8,11.8-11.8
		c6.5,0,11.8,5.3,11.8,11.8c0,0,0,9,0,17.8c0,8.5,0,16.9,0,16.9c0,16.3,13.3,29.6,29.6,29.6c16.3,0,29.6-13.2,29.6-29.6
		c0,0,0-9.4,0-22.1h1.5c0.6,0,1.2-0.5,1.2-1.2v-4.5C153.8,91.9,153.4,91.4,152.8,91.4z"/>
</g>
<g id="Layer_2_copy_2" class="st0">
	<path class="st24" d="M198.3,99.6c0,51.7-43.9,93.7-98.2,93.7c-54.2,0-98.2-42-98.2-93.7C2,47.8,45.9,5.9,100.2,5.9
		C154.4,5.9,198.3,47.8,198.3,99.6z"/>
	<path class="st25" d="M-90.4-66.5L-90.4-66.5l-21.1,0l0,0c-0.6,0.1-1,0.5-1,1.1v4.5c0,0.6,0.5,1.2,1.2,1.2h1.5
		c0,14.5,0,42.6,0,54.5c5.3,4.6,11.3-3,17.8,0c0-9.6,0-34.2,0-54.5h1.5c0.6,0,1.2-0.5,1.2-1.2v-4.5C-89.4-65.9-89.9-66.4-90.4-66.5z
		 M-7.8-98.3h-1.5c0-15.4,0-43.6,0-54.9c-5.4-4.5-11.4,2.9-17.8,0c0,6.3,0,32.3,0,54.9h-1.5c-0.6,0-1.2,0.5-1.2,1.2v4.5
		c0,0.6,0.4,1.1,1,1.1c0,0,0,0,0,0h21.1l0,0c0.6-0.1,1-0.5,1-1.1v-4.5C-6.7-97.8-7.2-98.3-7.8-98.3z M-7.7-88.1h-21.1
		c-0.6,0.1-1,0.5-1,1.1v4.5c0,0.6,0.5,1.2,1.2,1.2h1.5c0,12.7,0,22.1,0,22.1c0,6.5-5.3,11.8-11.8,11.8c-6.5,0-11.8-5.3-11.8-11.8
		c0,0,0-8.2,0-16.7l0,0c0-8.9,0-18,0-18c0-16.3-13.2-29.6-29.6-29.6c-16.3,0-29.6,13.2-29.6,29.6c0,0,0,7.1,0,17.3h-1.5
		c-0.6,0-1.2,0.5-1.2,1.2v4.5c0,0.6,0.4,1.1,1,1.1h21.1c0.6-0.1,1-0.5,1-1.1v-4.5c0-0.6-0.5-1.2-1.2-1.2h-1.5c0-10.2,0-17.3,0-17.3
		c0-6.5,5.3-11.8,11.8-11.8c6.5,0,11.8,5.3,11.8,11.8c0,0,0,9,0,17.8c0,8.5,0,16.9,0,16.9c0,16.3,13.3,29.6,29.6,29.6
		c16.3,0,29.6-13.2,29.6-29.6c0,0,0-9.4,0-22.1h1.5c0.6,0,1.2-0.5,1.2-1.2V-87C-6.7-87.6-7.1-88.1-7.7-88.1z"/>
	<g class="st1">
		<path class="st26" d="M42.2,140.2c4.8-1,16.1-1.3,21.1,0c0.7,0.2,1.3,0.3,0.9,1.2c-0.7,1.5-3.7,25.9-3.9,27.6
			c-0.1,0.5-0.1,1.2-1.5,1.5c-1.4,0.3-6.4,1-12.4,0c-0.6-0.1-1.1-0.6-1.1-1.5c0-0.9-2.9-26.4-3.6-27.6
			C41.5,141.1,41.1,140.4,42.2,140.2z"/>
		<path class="st26" d="M42.2,96.4c4.8-1,16.1-1.3,21.1,0c0.7,0.2,1.3,0.3,0.9,1.2c-0.7,1.5-3.7,25.9-3.9,27.6
			c-0.1,0.5-0.1,1.2-1.5,1.5c-1.4,0.3-6.4,1-12.4,0c-0.6-0.1-1.1-0.6-1.1-1.5c0-0.9-2.9-26.4-3.6-27.6
			C41.5,97.2,41.1,96.6,42.2,96.4z"/>
		<path class="st26" d="M90.5,140.2c4.8-1,16.1-1.3,21.1,0c0.7,0.2,1.3,0.3,0.9,1.2c-0.7,1.5-3.7,25.9-3.9,27.6
			c-0.1,0.5-0.1,1.2-1.5,1.5c-1.4,0.3-6.4,1-12.4,0c-0.6-0.1-1.1-0.6-1.1-1.5c0-0.9-2.9-26.4-3.6-27.6
			C89.8,141.1,89.4,140.4,90.5,140.2z"/>
		<path class="st26" d="M138.6,140.2c4.8-1,16.1-1.3,21.1,0c0.7,0.2,1.3,0.3,0.9,1.2c-0.7,1.5-3.7,25.9-3.9,27.6
			c-0.1,0.5-0.1,1.2-1.5,1.5c-1.4,0.3-6.4,1-12.4,0c-0.6-0.1-1.1-0.6-1.1-1.5c-0.1-0.9-2.9-26.4-3.6-27.6
			C137.9,141.1,137.5,140.4,138.6,140.2z"/>
		<path class="st26" d="M90.5,96.4c4.8-1,16.1-1.3,21.1,0c0.7,0.2,1.3,0.3,0.9,1.2c-0.7,1.5-3.7,25.9-3.9,27.6
			c-0.1,0.5-0.1,1.2-1.5,1.5c-1.4,0.3-6.4,1-12.4,0c-0.6-0.1-1.1-0.6-1.1-1.5c0-0.9-2.9-26.4-3.6-27.6
			C89.8,97.2,89.4,96.6,90.5,96.4z"/>
		<path class="st26" d="M42.2,51.3c4.8-1,16.1-1.3,21.1,0c0.7,0.2,1.3,0.3,0.9,1.2c-0.7,1.5-3.7,25.9-3.9,27.6
			c-0.1,0.5-0.1,1.2-1.5,1.5c-1.4,0.3-6.4,1-12.4,0c-0.6-0.1-1.1-0.6-1.1-1.5c0-0.9-2.9-26.4-3.6-27.6
			C41.5,52.2,41.1,51.6,42.2,51.3z"/>
		<line class="st27" x1="53.9" y1="25" x2="160.7" y2="111.3"/>
		<polygon class="st26" points="167.5,117.3 161,116 154.5,114.8 158.8,109.7 163.1,104.7 165.3,111 		"/>
	</g>
</g>
<g>
	<circle class="st28" cx="99.5" cy="99.5" r="99.5"/>
	<g id="Layer_2_copy_3">
		<g class="st0">
			<path class="st29" d="M45.2,134.7c4.4-1,14.8-1.2,19.4,0c0.7,0.2,1.2,0.3,0.8,1.1c-0.6,1.4-3.4,23.8-3.6,25.3
				c-0.1,0.5-0.1,1.1-1.4,1.4c-1.2,0.2-5.9,1-11.3,0c-0.6-0.1-1-0.5-1.1-1.3c0-0.8-2.7-24.3-3.3-25.3
				C44.6,135.5,44.2,134.9,45.2,134.7z"/>
			<path class="st29" d="M45.2,94.5c4.4-1,14.8-1.2,19.4,0c0.7,0.2,1.2,0.3,0.8,1.1c-0.6,1.4-3.4,23.8-3.6,25.3
				c-0.1,0.5-0.1,1.1-1.4,1.4c-1.2,0.2-5.9,1-11.3,0c-0.6-0.1-1-0.5-1.1-1.3c0-0.8-2.7-24.3-3.3-25.3C44.6,95.3,44.2,94.7,45.2,94.5
				z"/>
			<path class="st29" d="M89.6,134.7c4.4-1,14.8-1.2,19.3,0c0.7,0.2,1.2,0.3,0.8,1.1c-0.6,1.4-3.4,23.8-3.6,25.3
				c-0.1,0.5-0.1,1.1-1.4,1.4c-1.2,0.2-5.9,1-11.3,0c-0.6-0.1-1-0.5-1.1-1.3c0-0.8-2.7-24.3-3.3-25.3
				C88.9,135.5,88.6,134.9,89.6,134.7z"/>
			<path class="st29" d="M133.8,134.7c4.4-1,14.7-1.2,19.4,0c0.7,0.2,1.2,0.3,0.8,1.1c-0.6,1.4-3.4,23.8-3.6,25.3
				c-0.1,0.5-0.1,1.1-1.4,1.4c-1.2,0.2-5.9,1-11.3,0c-0.6-0.1-1-0.5-1.1-1.3c0-0.8-2.7-24.3-3.3-25.3
				C133.1,135.5,132.7,134.9,133.8,134.7z"/>
			<path class="st29" d="M89.6,94.5c4.4-1,14.8-1.2,19.3,0c0.7,0.2,1.2,0.3,0.8,1.1c-0.6,1.4-3.4,23.8-3.6,25.3
				c-0.1,0.5-0.1,1.1-1.4,1.4c-1.2,0.2-5.9,1-11.3,0c-0.6-0.1-1-0.5-1.1-1.3c0-0.8-2.7-24.3-3.3-25.3C88.9,95.3,88.6,94.7,89.6,94.5
				z"/>
			<path class="st29" d="M45.2,53.2c4.4-1,14.8-1.2,19.4,0c0.7,0.2,1.2,0.3,0.8,1.1C64.7,55.6,62,78,61.8,79.5
				c-0.1,0.5-0.1,1.1-1.4,1.4c-1.2,0.2-5.9,1-11.3,0c-0.6-0.1-1-0.5-1.1-1.3c0-0.8-2.7-24.3-3.3-25.3C44.6,54,44.2,53.4,45.2,53.2z"
				/>
			<line class="st30" x1="55.9" y1="29" x2="154" y2="108.2"/>
			<polygon class="st29" points="160.3,113.7 154.3,112.5 148.3,111.4 152.3,106.8 156.3,102.1 158.3,107.9 			"/>
		</g>
		<g>
			<g>
				<path class="st31" d="M95,74.7c-9.6,6.7-22.2,1.5-25.1-6.6c-1.2-3.5-0.1-7.1-0.4-9.8c0.4,0.1-9.5-6.9-8-5
					C54.3,57.4,39.5,73.8,34,86c-3.3,7.4,5.2,27.7-6,59.1c-0.2,0.5-0.2,1.7,0.4,1.8c2,0.3,6.4,0.4,8.7,0c0.8-0.1,1.7-1.4,1.8-1.9
					c12-33.9,7-41.5,8.3-40.3c9.9,9.3,22.9,22.5,4.5,41.5c-0.6,0.6-0.1,1.5,0.7,1.6l8,0.6c1.2,0.1,2.5-0.3,3.3-1.2
					c5.3-5.4,8-13.3,9.2-21.5c1.4-9.9-6.5-19.9-11.7-27.3C58,93.9,62.7,78.3,67.1,82c6.5,5.3,18.1,7.1,26.9,3.2
					c1-0.5,1.4-2.1,1.6-3.4l0.7-6.1C96.4,74.8,95.7,74.2,95,74.7z"/>
				<path class="st31" d="M84.8,45.1c0.9,7-4,13.4-11,14.3c-7,0.9-13.3-4-14.2-11c-0.9-7,4-13.4,11-14.3
					C77.6,33.2,84,38.1,84.8,45.1z"/>
			</g>
			<g>
				<path class="st32" d="M121.7,138.2L97.3,77c-0.8-2,0.2-4.2,2.1-4.9c1.9-0.8,4.2,0.2,4.9,2.1l21.6,54.2l50.9-19.1
					c2-0.7,4.2,0.3,4.9,2.2c0.7,2-0.3,4.2-2.2,4.9L121.7,138.2z"/>
			</g>
			<g>
				<path class="st32" d="M88.5,83.5c-1.6,0-3.1-1-3.6-2.6c-0.7-2,0.4-4.1,2.4-4.8L99.7,72c2-0.7,4.1,0.4,4.8,2.4
					c0.7,2-0.4,4.2-2.4,4.8l-12.4,4.1C89.3,83.5,88.9,83.5,88.5,83.5z"/>
			</g>
			<circle class="st32" cx="112.6" cy="136" r="9.8"/>
			<g>
				<path class="st32" d="M121.2,138.1l-18.9-49.6l49.8-19l18.9,49.6L121.2,138.1z M112.1,92.9l13.5,35.3l35.6-13.6l-13.5-35.3
					L112.1,92.9z"/>
			</g>
			<g>
				<path class="st33" d="M150.5,102.8c-0.5-0.4-1-0.8-1.4-1.2l-2.3,2.9c0.5,0.4,1,0.8,1.5,1.2c0.1,0.1,0.2,0.2,0.2,0.3
					c0.1,0.2,0.1,0.4,0,0.5c-0.1,0.2-0.2,0.3-0.4,0.4c-2.2,0.9-4.4,1.7-6.6,2.6c-0.2,0.1-0.5,0-0.5-0.2c-0.1-0.3-0.3-0.7-0.4-1
					c-0.1-0.4-0.6-0.4-0.8-0.1c-1.5,1.8-2.9,3.6-4.3,5.4c-0.2,0.3-0.1,0.7,0.3,0.8c2.3,0.4,4.6,0.7,6.9,1.1c0.4,0.1,0.7-0.3,0.5-0.7
					c-0.1-0.4-0.3-0.7-0.4-1.1c-0.1-0.2,0-0.5,0.2-0.6c2.3-0.9,4.5-1.8,6.8-2.7c1.1-0.5,1.8-1.4,2.2-2.4c0.4-1.1,0.4-2.2,0-3.3
					C151.6,103.9,151.1,103.3,150.5,102.8z"/>
				<path class="st33" d="M143.6,95.1c-0.1-0.3-0.6-0.4-0.8-0.1c-0.2,0.2-0.4,0.5-0.6,0.7c-0.1,0.2-0.4,0.2-0.6,0.1
					c-1.9-1.4-3.7-2.7-5.5-4c0,0,0,0,0,0c0,0,0,0,0,0c-0.6-0.4-1.3-0.6-2-0.7c-0.7-0.1-1.5,0.1-2.1,0.3c-0.7,0.3-1.3,0.7-1.8,1.2
					c-0.5,0.5-0.9,1.2-1,2c-0.1,0.6-0.2,1.2-0.4,1.8l3.6,0.3c0.1-0.6,0.2-1.2,0.3-1.8c0-0.1,0.1-0.2,0.2-0.3
					c0.1-0.1,0.2-0.2,0.3-0.2c0.1-0.1,0.2-0.1,0.3-0.1c0.1,0,0.2,0,0.3,0.1c1.8,1.3,3.7,2.7,5.5,4.1c0.2,0.1,0.2,0.4,0.1,0.6
					c-0.2,0.3-0.5,0.6-0.7,1c-0.2,0.3,0,0.7,0.3,0.8c2.3,0.3,4.5,0.5,6.8,0.8c0.4,0,0.6-0.3,0.5-0.6
					C145.4,99.1,144.5,97.1,143.6,95.1z"/>
				<path class="st33" d="M130.6,98.6c-0.1-0.3-0.6-0.4-0.8-0.1c-1.4,1.7-2.7,3.5-4,5.3c-0.2,0.3-0.1,0.7,0.3,0.8
					c0.3,0,0.7,0.1,1,0.1c0.2,0,0.4,0.2,0.3,0.5c-0.2,1.3-0.4,2.5-0.6,3.8c-0.2,1.1-0.3,2.2-0.4,3.2c-0.1,0.8,0,1.6,0.3,2.3
					c0.4,1.1,1.2,2,2.3,2.4c1,0.5,2.3,0.6,3.4,0.2c0.5-0.2,1-0.4,1.6-0.6l-1.4-3.6c-0.5,0.2-1.1,0.4-1.6,0.6c-0.2,0.1-0.4,0.1-0.5,0
					s-0.3-0.2-0.4-0.4c0-0.1-0.1-0.2,0-0.4c0.3-2.4,0.7-4.7,1-7.1c0-0.2,0.2-0.4,0.5-0.4c0.4,0.1,0.7,0.1,1.1,0.2
					c0.4,0,0.6-0.3,0.5-0.7C132.3,102.7,131.4,100.6,130.6,98.6z"/>
			</g>
		</g>
	</g>
</g>
</svg>
