<?xml version="1.0" encoding="utf-8"?>
<!-- Generator: Adobe Illustrator 26.0.3, SVG Export Plug-In . SVG Version: 6.00 Build 0)  -->
<svg version="1.1" id="Layer_1" xmlns="http://www.w3.org/2000/svg" xmlns:xlink="http://www.w3.org/1999/xlink" x="0px" y="0px"
	 viewBox="0 0 500 500" style="enable-background:new 0 0 500 500;" xml:space="preserve">
<style type="text/css">
	.st0{opacity:0.2;fill:#2E2E59;}
</style>
<path class="st0" d="M328.2,362.3l-18.7-26.8c-47.1,32.8-112.2,21.2-145-26l-26.8,18.7c20.9,30,52.2,50.1,88.2,56.5
	C261.9,391.2,298.2,383.2,328.2,362.3z"/>
<path class="st0" d="M171.8,137.7l18.7,26.8c47.1-32.8,112.2-21.2,145,26l26.8-18.7c-20.9-30-52.2-50.1-88.2-56.5
	C238.1,108.8,201.8,116.8,171.8,137.7z"/>
</svg>
